%!PS-Adobe-2.0
%%%%%%%%%%%%%%%%%%%%%%%%%%%%%%%%%%%%%%%%%%%%%%%%%%%%%%%%%%%%%%%%%%%%%%%%%
%        This Postscript is Copyright (c) 2019, Peter J Billam          %
% Permission is granted  to any individual or institution to use, copy, %
% modify or redistribute this software, so long as it is not resold for %
% profit, and provided this notice is retained. It is provided "as is", %
% without any express or implied warranty.    http://www.pjb.com.au     %
%%%%%%%%%%%%%%%%%%%%%%%%%%%%%%%%%%%%%%%%%%%%%%%%%%%%%%%%%%%%%%%%%%%%%%%%%
%%EndComments
%%BeginProlog
(/home/pjb/ps/lib/colours.ps) run
/xmax currentpagedevice (PageSize) get 0 get def
/ymax currentpagedevice (PageSize) get 1 get def
/xmid xmax 0.5 mul def    /ymid ymax 0.5 mul def
%%EndProlog
%%Page: 1 1
%%BeginPageSetup
%%EndPageSetup

10 10 moveto 0 300 rlineto 300 0 rlineto 0 -300 rlineto -300 0 rlineto
/stroke { 100 100 moveto /Helvetica 30 selectfont (Hello) show } def
stroke

showpage
%%EOF
