%!PS-Adobe-3.0 EPSF-3.0
%%BoundingBox: 0 0 200 210
%%%%%%%%%%%%%%%%%%%%%%%%%%%%%%%%%%%%%%%%%%%%%%%%%%%%%%%%%%%%%%%%%%%%%%%%%%
%            This EPS is Copyright (c) 2022, Peter J Billam              %
% It is under the Creative Commons Attribution 4.0 International licence %
% so you may share, and may adapt, provided you give attribution, and do %
% not impose extra restricions.      https://pjb.com.au/mus/avail.html   %
%%%%%%%%%%%%%%%%%%%%%%%%%%%%%%%%%%%%%%%%%%%%%%%%%%%%%%%%%%%%%%%%%%%%%%%%%%
/xmax 200 def  /ymax 210 def
/xmid xmax 0.5 mul def  /ymid ymax 0.5 mul def
%%EndComments
%%BeginProlog
(/home/pjb/ps/lib/cyrillic.pfa) run
/centrexshow {  % usage: x y font fontsize (string) centrexshow
  7 dict begin
    [ /s /fontsize /font /y /x ] { exch def } forall
    gsave font fontsize selectfont
    s stringwidth /s_height exch def /s_width exch def  % 2D! 20160607
    x s_width  0.5 mul sub  y s_height 0.5 mul sub  moveto s show grestore
  end
} bind def
%%EndProlog

/i2char [
  (\250)  (\257)  (\243)  (\270)  (\277)  (\274)
] def
/i2s [
  (IO) (YI) (JE) (io) (yi) (je)
] def
/i2c [
  (\\250) (\\257) (\\243) (\\270) (\\277) (\\274)
] def
/DejaVuSans xmax 0.01 mul selectfont
/fs1 xmax 0.250 mul def
/fs2 xmax 0.100 mul def
/fs3 xmax 0.065 mul def
/i2x { /n exch def xmax .40 mul n mul  xmax 0.1 mul add } def
0 1 2 { /i exch def
  i i2x  ymax 0.76 mul /DejaVuSans fs1 i2char i get centrexshow
  i i2x  ymax 0.63 mul /DejaVuSans fs2 i2s    i get centrexshow
  i i2x  ymax 0.54 mul /DejaVuSans fs3 i2c    i get centrexshow
  i i2x  ymax 0.25 mul /DejaVuSans fs1 i2char i 3 add get centrexshow
  i i2x  ymax 0.12 mul /DejaVuSans fs2 i2s    i 3 add get centrexshow
  i i2x  ymax 0.03 mul /DejaVuSans fs3 i2c    i 3 add get centrexshow
} for
%%EOF

