%!PS-Adobe-2.0
%%%%%%%%%%%%%%%%%%%%%%%%%%%%%%%%%%%%%%%%%%%%%%%%%%%%%%%%%%%%%%%%%%%%%%%%%%
%         This Postscript is Copyright (c) 2022, Peter J Billam          %
% It is under the Creative Commons Attribution 4.0 International licence %
% so you may share, and may adapt, provided you give attribution, and do %
% not impose extra restricions.      https://pjb.com.au/mus/avail.html   %
%%%%%%%%%%%%%%%%%%%%%%%%%%%%%%%%%%%%%%%%%%%%%%%%%%%%%%%%%%%%%%%%%%%%%%%%%%
%%EndComments
%%BeginProlog
(/home/pjb/ps/lib/colours.ps) run
/xmax currentpagedevice (PageSize) get 0 get def
/ymax currentpagedevice (PageSize) get 1 get def
/xmid xmax 0.5 mul def    /ymid ymax 0.5 mul def
% apt install t1-cyrillic
% https://en.wikipedia.org/wiki/PostScript_fonts#CID   CID ? glyphs ?
% https://www.opennet.ru/man.shtml?topic=xpdfrc&category=5&russian=2
% https://unixforum.org/viewtopic.php?t=44874
% https://cromwell-intl.com/russian/latex.html#postscript
% /Cyrillic findfont 12 scalefont setfont    ????
% /usr/share/fonts/truetype/dejavu/*.ttf /usr/share/fonts/truetype/noto/*.ttf
% apt install ttf2ufm
% ttf2ufm -l cyrillic /usr/share/fonts/truetype/dejavu/DejaVuSans.ttf \
%   cyrillic.ttf
% http://www.identifont.com/find?font=Cyrillic&q=Go
% https://www.myfonts.com/search/Cyrillic  from 20 US$ each
% FIRST:  check all 256 byes of t1-cyrillic, and if nothing then:
% PLAN:
% 1) make a Type 3 font with ye zh  kh ts ch sh sch yu ya
%    represented by C0 .. D1  (or perhaps 1..6 and 14..31)
% 2) make a proc which wraps show and translates ye..ya to C0..D1 then show
%    ie: if a byte is y z k t c s then it looks at the next byte
%    scan the string with forall
% /FontResourceDir (/usr/share/fonts/type1/gsfonts/) def
% /FontResourceDir (/home/pjb/ps/fonts/) def
(/home/pjb/ps/lib/cyrillic.pfa) run
(/home/pjb/ps/lib/cyrillicBold.pfa) run
(/home/pjb/ps/lib/cyrillicSerif.pfa) run
(/home/pjb/ps/lib/cyrillicSerifBold.pfa) run
/centrexshow {  % usage: x y font fontsize (string) centrexshow
  7 dict begin
    [ /s /fontsize /font /y /x ] { exch def } forall
    gsave font fontsize selectfont
    s stringwidth /s_height exch def /s_width exch def  % 2D! 20160607
    x s_width  0.5 mul sub  y s_height 0.5 mul sub  moveto s show grestore
  end
} bind def

%%EndProlog

%%Page: 1 1
%%BeginPageSetup
%%EndPageSetup
% 20220316 !!! :tada: :-)
% apt install fonts-dejavu-core
% DejaVuSans.ttf or DejaVuSans-Bold.ttf
% ttf2ufm -e -l cyrillic /usr/share/fonts/truetype/dejavu/DejaVuSans.ttf \
%   cyrillic
/DejaVuSans 38 selectfont
% \ddd where ddd is octal ...
%       A   B   V   G   D  Ye  Zh   Z   I   Y   K   L   M   N   O   P
/str (\300\301\302\303\304\305\306\307\310\311\312\313\314\315\316\317) def
xmax 0.1 mul ymax 0.90 mul moveto str show
%       R   S   T   U   F  Kh  Ts  Ch  Sh  Sch  "   Y   '   E  Yu  Ya
/str (\320\321\322\323\324\325\326\327\330\331\332\333\334\335\336\337) def
xmax 0.1 mul ymax 0.85 mul moveto str show
%       a   b   v   g   d  ye  zh   z   i   y   k   l   m   n   o   p
/str (\340\341\342\343\344\345\346\347\350\351\352\353\354\355\356\357) def
xmax 0.1 mul ymax 0.80 mul moveto str show
%       r   s   t   u   f  kh  ts  ch  sh  sch  "   y   '   e  yu  ya
/str (\360\361\362\363\364\365\366\367\370\371\372\373\374\375\376\377) def
xmax 0.1 mul ymax 0.76 mul moveto str show

/DejaVuSans-Bold 35 selectfont
%       A   B   V   G   D  Ye  Zh   Z   I   Y   K   L   M   N   O   P
/str (\300\301\302\303\304\305\306\307\310\311\312\313\314\315\316\317) def
xmax 0.1 mul ymax 0.69 mul moveto str show
%       R   S   T   U   F  Kh  Ts  Ch  Sh  Sch  "   Y   '   E  Yu  Ya
/str (\320\321\322\323\324\325\326\327\330\331\332\333\334\335\336\337) def
xmax 0.1 mul ymax 0.64 mul moveto str show
%       a   b   v   g   d  ye  zh   z   i   y   k   l   m   n   o   p
/str (\340\341\342\343\344\345\346\347\350\351\352\353\354\355\356\357) def
xmax 0.1 mul ymax 0.59 mul moveto str show
%       r   s   t   u   f  kh  ts  ch  sh  sch  "   y   '   e  yu  ya
/str (\360\361\362\363\364\365\366\367\370\371\372\373\374\375\376\377) def
xmax 0.1 mul ymax 0.55 mul moveto str show

/DejaVuSerif 38 selectfont
% \ddd where ddd is octal ...
%       A   B   V   G   D  Ye  Zh   Z   I   Y   K   L   M   N   O   P
/str (\300\301\302\303\304\305\306\307\310\311\312\313\314\315\316\317) def
xmax 0.07 mul ymax 0.45 mul moveto str show
%       R   S   T   U   F  Kh  Ts  Ch  Sh  Sch  "   Y   '   E  Yu  Ya
/str (\320\321\322\323\324\325\326\327\330\331\332\333\334\335\336\337) def
xmax 0.07 mul ymax 0.40 mul moveto str show
%       a   b   v   g   d  ye  zh   z   i   y   k   l   m   n   o   p
/str (\340\341\342\343\344\345\346\347\350\351\352\353\354\355\356\357) def
xmax 0.07 mul ymax 0.35 mul moveto str show
%       r   s   t   u   f  kh  ts  ch  sh  sch  "   y   '   e  yu  ya
/str (\360\361\362\363\364\365\366\367\370\371\372\373\374\375\376\377) def
xmax 0.07 mul ymax 0.31 mul moveto str show

/DejaVuSerif-Bold 35 selectfont
%       A   B   V   G   D  Ye  Zh   Z   I   Y   K   L   M   N   O   P
/str (\300\301\302\303\304\305\306\307\310\311\312\313\314\315\316\317) def
xmax 0.07 mul ymax 0.24 mul moveto str show
%       R   S   T   U   F  Kh  Ts  Ch  Sh  Sch  "   Y   '   E  Yu  Ya
/str (\320\321\322\323\324\325\326\327\330\331\332\333\334\335\336\337) def
xmax 0.07 mul ymax 0.19 mul moveto str show
%       a   b   v   g   d  ye  zh   z   i   y   k   l   m   n   o   p
/str (\340\341\342\343\344\345\346\347\350\351\352\353\354\355\356\357) def
xmax 0.07 mul ymax 0.14 mul moveto str show
%       r   s   t   u   f  kh  ts  ch  sh  sch  "   y   '   e  yu  ya
/str (\360\361\362\363\364\365\366\367\370\371\372\373\374\375\376\377) def
xmax 0.07 mul ymax 0.10 mul moveto str show

/Times-Roman 17 selectfont
/str (DejaVuSans   DejaVuSans-Bold   DejaVuSerif  DejaVuSerif-Bold) def
xmax 0.12 mul ymax 0.04 mul moveto str show

showpage

%%Page: 2 2
%%BeginPageSetup
%%EndPageSetup
/i2s [
  (A) (B) (V) (G) (D) (Ye) (Zh) (Z) (I) (Y) (K) (L) (M) (N) (O) (P)
  (R) (S) (T) (U) (F) (Kh) (Ts) (Ch) (Sh) (Sch) (") (Y) (') (E) (Yu) (Ya)
  (a) (b) (v) (g) (d) (ye) (zh) (z) (i) (y) (k) (l) (m) (n) (o) (p)
  (r) (s) (t) (u) (f) (kh) (ts) (ch) (sh) (sch) (") (y) (') (e) (yu) (ya)
] def
/i2c [
  (\\300) (\\301) (\\302) (\\303) (\\304) (\\305) (\\306) (\\307)
  (\\310) (\\311) (\\312) (\\313) (\\314) (\\315) (\\316) (\\317)
  (\\320) (\\321) (\\322) (\\323) (\\324) (\\325) (\\326) (\\327)
  (\\330) (\\331) (\\332) (\\333) (\\334) (\\335) (\\336) (\\337)
  (\\340) (\\341) (\\342) (\\343) (\\344) (\\345) (\\346) (\\347)
  (\\350) (\\351) (\\352) (\\353) (\\354) (\\355) (\\356) (\\357)
  (\\360) (\\361) (\\362) (\\363) (\\364) (\\365) (\\366) (\\367)
  (\\370) (\\371) (\\372) (\\373) (\\374) (\\375) (\\376) (\\377)
] def
/DejaVuSans 34 selectfont
/i2x { /n exch def xmax .059 mul n mul  xmax 0.057 mul add } def
/c 1 string def
0 1 15 { /i exch def
  c 0 192 i add put
  i i2x  ymax 0.8  mul /DejaVuSans 34 c centrexshow
  i i2x  ymax 0.76 mul /DejaVuSans 15 i2s i get centrexshow
  i i2x  ymax 0.73 mul /DejaVuSans 11 i2c i get centrexshow
  c 0 208 i add put
  i i2x  ymax 0.6  mul /DejaVuSans 34 c centrexshow
  i i2x  ymax 0.56 mul /DejaVuSans 15 i2s i 16 add get centrexshow
  i i2x  ymax 0.53 mul /DejaVuSans 11 i2c i 16 add get centrexshow
  c 0 224 i add put
  i i2x  ymax 0.4  mul /DejaVuSans 34 c centrexshow
  i i2x  ymax 0.36 mul /DejaVuSans 15 i2s i 32 add get centrexshow
  i i2x  ymax 0.33 mul /DejaVuSans 11 i2c i 32 add get centrexshow
  c 0 240 i add put
  i i2x  ymax 0.2  mul /DejaVuSans 34 c centrexshow
  i i2x  ymax 0.16 mul /DejaVuSans 15 i2s i 48 add get centrexshow
  i i2x  ymax 0.13 mul /DejaVuSans 11 i2c i 48 add get centrexshow
} for
showpage

%%Page: 3 3
%%BeginPageSetup
%%EndPageSetup
/konyets_path { 5 dict begin
  [ /fontsize /y /x ] { exch def } forall
  /DejaVuSans-Bold fontsize selectfont
  x y moveto (\312\316\315\305\326) true charpath
} def
/filma_path { 5 dict begin
  [ /fontsize /y /x ] { exch def } forall
  /DejaVuSans-Bold fontsize selectfont
  x y moveto (\324\310\313\334\314\300) true charpath
} def
/DejaVuSans-Bold 55 selectfont
xmax 0.02 mul  ymax -0.04 mul translate
xmax 0.070 mul ymax 0.90 mul xmax 0.19 mul konyets_path
xmax 0.036 mul ymax 0.88 mul xmax 0.17 mul filma_path
xmax 0.070 mul ymax 0.80 mul xmax 0.19 mul konyets_path
xmax 0.036 mul ymax 0.78 mul xmax 0.17 mul filma_path
xmax 0.145 mul ymax 0.70 mul xmax 0.19 mul konyets_path
xmax 0.036 mul ymax 0.68 mul xmax 0.17 mul filma_path
xmax 0.060 mul ymax 0.60 mul xmax 0.19 mul konyets_path
xmax 0.036 mul ymax 0.58 mul xmax 0.17 mul filma_path
xmax 0.120 mul ymax 0.50 mul xmax 0.19 mul konyets_path
xmax 0.036 mul ymax 0.48 mul xmax 0.17 mul filma_path
xmax 0.080 mul ymax 0.40 mul xmax 0.19 mul konyets_path
xmax 0.036 mul ymax 0.38 mul xmax 0.17 mul filma_path
xmax 0.145 mul ymax 0.30 mul xmax 0.19 mul konyets_path
xmax 0.036 mul ymax 0.28 mul xmax 0.17 mul filma_path
xmax 0.050 mul ymax 0.20 mul xmax 0.19 mul konyets_path
xmax 0.036 mul ymax 0.18 mul xmax 0.17 mul filma_path
xmax 0.120 mul ymax 0.10 mul xmax 0.19 mul konyets_path
xmax 0.036 mul ymax 0.08 mul xmax 0.17 mul filma_path
eofill
showpage

%%Page: 4 4
%%BeginPageSetup
%%EndPageSetup
/konyets_path { 5 dict begin
  [ /fontsize /y /x ] { exch def } forall
  /DejaVuSans-Bold fontsize selectfont
  x y moveto (\312\316\315\305\326) true charpath
} def
/filma_path { 5 dict begin
  [ /fontsize /y /x ] { exch def } forall
  /DejaVuSans-Bold fontsize selectfont
  x y moveto (\324\310\313\334\314\300) true charpath
} def
/DejaVuSans-Bold 55 selectfont
0 0 xmax ymax 0 0 0 setrgbcolor rectfill
1 1 1 setrgbcolor
xmax 0.02 mul  ymax -0.04 mul translate
xmax 0.070 mul ymax 0.90 mul xmax 0.19 mul konyets_path
xmax 0.036 mul ymax 0.88 mul xmax 0.17 mul filma_path
xmax 0.070 mul ymax 0.80 mul xmax 0.19 mul konyets_path
xmax 0.036 mul ymax 0.78 mul xmax 0.17 mul filma_path
xmax 0.145 mul ymax 0.70 mul xmax 0.19 mul konyets_path
xmax 0.036 mul ymax 0.68 mul xmax 0.17 mul filma_path
xmax 0.060 mul ymax 0.60 mul xmax 0.19 mul konyets_path
xmax 0.036 mul ymax 0.58 mul xmax 0.17 mul filma_path
xmax 0.120 mul ymax 0.50 mul xmax 0.19 mul konyets_path
xmax 0.036 mul ymax 0.48 mul xmax 0.17 mul filma_path
xmax 0.080 mul ymax 0.40 mul xmax 0.19 mul konyets_path
xmax 0.036 mul ymax 0.38 mul xmax 0.17 mul filma_path
xmax 0.145 mul ymax 0.30 mul xmax 0.19 mul konyets_path
xmax 0.036 mul ymax 0.28 mul xmax 0.17 mul filma_path
xmax 0.050 mul ymax 0.20 mul xmax 0.19 mul konyets_path
xmax 0.036 mul ymax 0.18 mul xmax 0.17 mul filma_path
xmax 0.120 mul ymax 0.10 mul xmax 0.19 mul konyets_path
xmax 0.036 mul ymax 0.08 mul xmax 0.17 mul filma_path
eofill
showpage

%%Page: 5 5
%%BeginPageSetup
%%EndPageSetup
/konyets_path { 5 dict begin
  [ /fontsize /y /x ] { exch def } forall
  /DejaVuSerif-Bold fontsize selectfont
  x y moveto (\312\316\315\305\326) true charpath
} def
/filma_path { 5 dict begin
  [ /fontsize /y /x ] { exch def } forall
  /DejaVuSerif-Bold fontsize selectfont
  x y moveto (\324\310\313\334\314\300) true charpath
} def
% /DejaVuSerif-Bold 54 selectfont
0 0 xmax ymax 0 0 0 setrgbcolor rectfill
1 1 1 setrgbcolor
xmax 0.02 mul  ymax -0.04 mul translate
xmax 0.065 mul ymax 0.90 mul xmax 0.19  mul konyets_path
xmax 0.026 mul ymax 0.89 mul xmax 0.165 mul filma_path
xmax 0.081 mul ymax 0.80 mul xmax 0.19  mul konyets_path
xmax 0.027 mul ymax 0.78 mul xmax 0.165 mul filma_path
xmax 0.095 mul ymax 0.70 mul xmax 0.19  mul konyets_path
xmax 0.028 mul ymax 0.67 mul xmax 0.165 mul filma_path
xmax 0.081 mul ymax 0.60 mul xmax 0.19  mul konyets_path
xmax 0.026 mul ymax 0.57 mul xmax 0.165 mul filma_path
xmax 0.065 mul ymax 0.50 mul xmax 0.19  mul konyets_path
xmax 0.027 mul ymax 0.47 mul xmax 0.165 mul filma_path
xmax 0.081 mul ymax 0.40 mul xmax 0.19  mul konyets_path
xmax 0.028 mul ymax 0.37 mul xmax 0.165 mul filma_path
xmax 0.095 mul ymax 0.30 mul xmax 0.19  mul konyets_path
xmax 0.026 mul ymax 0.27 mul xmax 0.165 mul filma_path
xmax 0.081 mul ymax 0.20 mul xmax 0.19  mul konyets_path
xmax 0.027 mul ymax 0.17 mul xmax 0.165 mul filma_path
xmax 0.065 mul ymax 0.09 mul xmax 0.19  mul konyets_path
xmax 0.028 mul ymax 0.07 mul xmax 0.165 mul filma_path
eofill
showpage

%%Page: 6 6
%%BeginPageSetup
%%EndPageSetup
/i2x { /n exch def xmax .084 mul n mul  xmax 0.067 mul add } def

/i2c [
154 156 157 158
159 161 162 163
165 168 170 175
178 179 180 184
185 186 188 189
190 191 ] def
/i2u [   % must check: eg: 
(0459) (045A) (045C) (045B)
(045F) (040E) (045E) (0408)
(0490) (0401) (0404) (0407)
(0406) (0456) (0491) (0451)
(2116) (0454) (0458) (0405)
(0455) (0457) ] def
/i2ascii [
() () () ()
() () () (JE)
() (IO) () (YI)
() () () (io)
() () (je) ()
() (yi)
] def
/i2oct [
(\\232) (\\234) (\\235) (\\236)
(\\237) (\\241) (\\242) (\\243)
(\\245) (\\250) (\\251) (\\257)
(\\262) (\\263) (\\264) (\\270)
(\\271) (\\272) (\\274) (\\275)
(\\276) (\\277)
] def

/c 1 string def
0 1 10 { /i exch def
  c 0 i2c i get put
  i i2x  ymax 0.8   mul /DejaVuSans 34 c centrexshow
  i i2x  ymax 0.75  mul /DejaVuSans 15 i2ascii i get centrexshow
  i i2x  ymax 0.71  mul /DejaVuSans 15 i2u i get centrexshow
  i i2x  ymax 0.67  mul /DejaVuSans 15 i2oct i get centrexshow
  c 0 i2c i 11 add get put
  i i2x  ymax 0.5   mul /DejaVuSans 34 c centrexshow
  i i2x  ymax 0.45  mul /DejaVuSans 15 i2u i 11 add get centrexshow
  i i2x  ymax 0.41  mul /DejaVuSans 15 i2ascii i 11 add get centrexshow
  i i2x  ymax 0.37  mul /DejaVuSans 15 i2oct i 11 add get centrexshow
} for
showpage


%%EOF
