%!PS-Adobe-3.0 EPSF-3.0
%%BoundingBox: 0 0 1000 600
%%%%%%%%%%%%%%%%%%%%%%%%%%%%%%%%%%%%%%%%%%%%%%%%%%%%%%%%%%%%%%%%%%%%%%%%%%
%            This EPS is Copyright (c) 2022, Peter J Billam              %
% It is under the Creative Commons Attribution 4.0 International licence %
% so you may share, and may adapt, provided you give attribution, and do %
% not impose extra restricions.      https://pjb.com.au/mus/avail.html   %
%%%%%%%%%%%%%%%%%%%%%%%%%%%%%%%%%%%%%%%%%%%%%%%%%%%%%%%%%%%%%%%%%%%%%%%%%%
/xmax 1000 def  /ymax 600 def
/xmid xmax 0.5 mul def  /ymid ymax 0.5 mul def
%%EndComments
%%BeginProlog
(/home/pjb/ps/lib/cyrillic.pfa) run
/centrexshow {  % usage: x y font fontsize (string) centrexshow
  7 dict begin
    [ /s /fontsize /font /y /x ] { exch def } forall
    gsave font fontsize selectfont
    s stringwidth /s_height exch def /s_width exch def  % 2D! 20160607
    x s_width  0.5 mul sub  y s_height 0.5 mul sub  moveto s show grestore
  end
} bind def
%%EndProlog

/i2s [
  (A) (B) (V) (G) (D) (Ye) (Zh) (Z) (I) (Y) (K) (L) (M) (N) (O) (P)
  (R) (S) (T) (U) (F) (Kh) (Ts) (Ch) (Sh) (Sch) (") (Y) (') (E) (Yu) (Ya)
  (a) (b) (v) (g) (d) (ye) (zh) (z) (i) (y) (k) (l) (m) (n) (o) (p)
  (r) (s) (t) (u) (f) (kh) (ts) (ch) (sh) (sch) (") (y) (') (e) (yu) (ya)
] def
/i2c [
  (\\300) (\\301) (\\302) (\\303) (\\304) (\\305) (\\306) (\\307)
  (\\310) (\\311) (\\312) (\\313) (\\314) (\\315) (\\316) (\\317)
  (\\320) (\\321) (\\322) (\\323) (\\324) (\\325) (\\326) (\\327)
  (\\330) (\\331) (\\332) (\\333) (\\334) (\\335) (\\336) (\\337)
  (\\340) (\\341) (\\342) (\\343) (\\344) (\\345) (\\346) (\\347)
  (\\350) (\\351) (\\352) (\\353) (\\354) (\\355) (\\356) (\\357)
  (\\360) (\\361) (\\362) (\\363) (\\364) (\\365) (\\366) (\\367)
  (\\370) (\\371) (\\372) (\\373) (\\374) (\\375) (\\376) (\\377)
] def
/DejaVuSans xmax 0.01 mul selectfont
/fs1 xmax 0.060 mul def
/fs2 xmax 0.025 mul def
/fs3 xmax 0.020 mul def
/i2x { /n exch def xmax .059 mul n mul  xmax 0.057 mul add } def
/c 1 string def
0 1 15 { /i exch def
  c 0 192 i add put
  i i2x  ymax 0.86 mul /DejaVuSans fs1 c centrexshow
  i i2x  ymax 0.81 mul /DejaVuSans fs2 i2s i get centrexshow
  i i2x  ymax 0.77 mul /DejaVuSans fs3 i2c i get centrexshow
  c 0 208 i add put
  i i2x  ymax 0.61 mul /DejaVuSans fs1 c centrexshow
  i i2x  ymax 0.56 mul /DejaVuSans fs2 i2s i 16 add get centrexshow
  i i2x  ymax 0.52 mul /DejaVuSans fs3 i2c i 16 add get centrexshow
  c 0 224 i add put
  i i2x  ymax 0.37 mul /DejaVuSans fs1 c centrexshow
  i i2x  ymax 0.32 mul /DejaVuSans fs2 i2s i 32 add get centrexshow
  i i2x  ymax 0.28 mul /DejaVuSans fs3 i2c i 32 add get centrexshow
  c 0 240 i add put
  i i2x  ymax 0.14  mul /DejaVuSans fs1 c centrexshow
  i i2x  ymax 0.08 mul /DejaVuSans fs2 i2s i 48 add get centrexshow
  i i2x  ymax 0.04 mul /DejaVuSans fs3 i2c i 48 add get centrexshow
} for
%%EOF

