%!PS-Adobe-3.0 EPSF-3.0
%%BoundingBox: 0 0 1000 600
%%%%%%%%%%%%%%%%%%%%%%%%%%%%%%%%%%%%%%%%%%%%%%%%%%%%%%%%%%%%%%%%%%%%%%%%%%
%            This EPS is Copyright (c) 2022, Peter J Billam              %
% It is under the Creative Commons Attribution 4.0 International licence %
% so you may share, and may adapt, provided you give attribution, and do %
% not impose extra restricions.      https://pjb.com.au/mus/avail.html   %
%%%%%%%%%%%%%%%%%%%%%%%%%%%%%%%%%%%%%%%%%%%%%%%%%%%%%%%%%%%%%%%%%%%%%%%%%%
/xmax 1000 def  /ymax 600 def
/xmid xmax 0.5 mul def  /ymid ymax 0.5 mul def
%%EndComments
%%BeginProlog
/centrexshow {  % usage: x y font fontsize (string) centrexshow
  7 dict begin
    [ /s /fontsize /font /y /x ] { exch def } forall
    gsave font fontsize selectfont
    s stringwidth /s_height exch def /s_width exch def  % 2D! 20160607
    x s_width  0.5 mul sub  y s_height 0.5 mul sub  moveto s show grestore
  end
} bind def
%%EndProlog

/i2g [
  (\101) (\102) (\103) (\104) (\105) (\106) (\107) (\110)
  (\111) (\113) (\114) (\115) (\116) (\117) (\120) (\121)
  (\122) (\123) (\124) (\125) (\127) (\130) (\131) (\132)
  (\141) (\142) (\143) (\144) (\145) (\146) (\147) (\150)
  (\151) (\153) (\154) (\155) (\156) (\157) (\160) (\161)
  (\162) (\163) (\164) (\165) (\167) (\170) (\171) (\172)
] def
/i2s [
  (Alpha) (Beta) (Chi) (Delta) (Epsilon) (Phi) (Gamma) (Eta)
  (Iota) (Kappa ) ( Lambda) (Mu) (Nu) (Omicron) (Pi) (Theta)
  (Rho) (Sigma) (Tau) (Upsilon ) ( Omega) (Xi) (Psi) (Zeta)
  (alpha) (beta) (chi) (delta) (epsilon) (phi) (gamma) (eta)
  (iota) (kappa ) ( lambda) (mu) (nu) (omicron) (pi) (theta)
  (rho) (sigma) (tau) (upsilon ) ( omega) (xi) (psi) (zeta)
] def
/i2c [
  (\\101) (\\102) (\\103) (\\104) (\\105) (\\106) (\\107) (\\110)
  (\\111) (\\113) (\\114) (\\115) (\\116) (\\117) (\\120) (\\121)
  (\\122) (\\123) (\\124) (\\125) (\\127) (\\130) (\\131) (\\132)
  (\\141) (\\142) (\\143) (\\144) (\\145) (\\146) (\\147) (\\150)
  (\\151) (\\153) (\\154) (\\155) (\\156) (\\157) (\\160) (\\161)
  (\\162) (\\163) (\\164) (\\165) (\\167) (\\170) (\\171) (\\172)
] def
/Symbol xmax 0.01 mul selectfont
/fs1 xmax 0.060 mul def
/fs2 xmax 0.025 mul def
/fs2a xmax 0.027 mul def
/fs3 xmax 0.024 mul def
/i2x { /n exch def xmax .0815 mul n mul  xmax 0.055 mul add } def
/c 1 string def
0 1 11 { /i exch def
  i i2x  ymax 0.87  mul /Symbol       fs1 i2g i get centrexshow
  i i2x  ymax 0.82  mul /Times-Roman  fs2 i2s i get centrexshow
  i i2x  ymax 0.77  mul /Courier-Bold fs3 i2c i get centrexshow
  
  i i2x  ymax 0.62  mul /Symbol       fs1 i2g i 12 add get centrexshow
  i i2x  ymax 0.575 mul /Times-Roman  fs2 i2s i 12 add get centrexshow
  i i2x  ymax 0.53  mul /Courier-Bold fs3 i2c i 12 add get centrexshow
  
  i i2x  ymax 0.39  mul /Symbol       fs1 i2g i  24 add get centrexshow
  i i2x  ymax 0.33  mul /Times-Roman  fs2a i2s i 24 add get centrexshow
  i i2x  ymax 0.28  mul /Courier-Bold fs3 i2c i  24 add get centrexshow
 
  i i2x  ymax 0.15  mul /Symbol       fs1 i2g i  36 add get centrexshow
  i i2x  ymax 0.09  mul /Times-Roman  fs2a i2s i 36 add get centrexshow
  i i2x  ymax 0.04  mul /Courier-Bold fs3 i2c i  36 add get centrexshow
} for
%%EOF

