%!PS-Adobe-2.0
%%%%%%%%%%%%%%%%%%%%%%%%%%%%%%%%%%%%%%%%%%%%%%%%%%%%%%%%%%%%%%%%%%%%%%%%%
%        This Postscript is Copyright (c) 2017, Peter J Billam          %
% Permission is granted  to any individual or institution to use, copy, %
% modify or redistribute this software, so long as it is not resold for %
% profit, and provided this notice is retained. It is provided "as is", %
% without any express or implied warranty.    http://www.pjb.com.au     %
%%%%%%%%%%%%%%%%%%%%%%%%%%%%%%%%%%%%%%%%%%%%%%%%%%%%%%%%%%%%%%%%%%%%%%%%%
%%EndComments
%%BeginProlog
(/home/pjb/ps/lib/colours.ps) run
%%EndProlog
% %%Page: 1 1
% %%BeginPageSetup
% %%EndPageSetup
/xmax currentpagedevice (PageSize) get 0 get def
/ymax currentpagedevice (PageSize) get 1 get def
% "Fermat's Last Theorem", Aczel p.92 :  y^2 = a*x^3 + b*x^2 + c*x + d
% https://en.wikipedia.org/wiki/Elliptic_curve :   y^2 = x^3 + a*x + b
% where a=-2, b= -1 ... +2     ./elliptic_curves.png
% en.wikipedia.org/wiki/Elliptic_curve#Elliptic_curves_over_a_general_field

%  when does x^3+Ax+B = 0 have a double-solution ?
% The (real) graph of a non-singular curve has two components
% if its discriminant    Delta = -16 * ( 4 * A^3 + 27 * B^2 )
% is positive, and one component if it is negative.  And it works :-)
% I NEED to separate the two parts of the curve ( if it's in two parts )
% Visually, I could use the x of the point-of-closest-approach
% of the last one-component curve as the criterion for switching
% to constructing two separate curves.  Is there a better way ?
% A pragmatic hack: set B=0 :-)
% Then I paint the graph if x<0,  and also if Delta>0 and x>0

% A colour-scheme: for the sky black,
% fading to white gradient up to dark blue
% for the ground: darkred fading to green
% for the sun: darkred fading to yellow


xmax 0.5 mul ymax 0.50 mul translate
xmax 7.5 div  xmax 6.5 div  scale
0.007 setlinewidth
/b 0 def
4 -0.2 -10 { /a exch def
	% [ orange red blue green darkgrey black ] randomrgb setrgbcolor
	/Delta a a mul a mul 4 mul  b b mul 27 mul  add  -16 mul def
	Delta 0 gt { red setrgbcolor } { black setrgbcolor } ifelse
	/newcurve true def  % the base side-to-side curve
	4 -0.02 0 { /x exch def   % the positive solution
		x x mul x mul  x a mul add  b add /y_squared exch def
		y_squared 0 gt {
			/y y_squared sqrt def
			newcurve {
				newpath y 0 x sub  moveto   % newpath x 0 y sub moveto
				/newcurve false def
			} {
				y  0 x sub lineto   % x 0 y sub lineto
			} ifelse
		} if
	} for
	0 0.02 4 { /x exch def  % the negative solution
		x x mul x mul  x a mul add  b add /y_squared exch def
		y_squared 0 gt {
			/y y_squared sqrt def
			0 y sub  0 x sub lineto   % x y lineto
		} if
	} for
	stroke
	/newcurve true def  % the detached loop 
	-6 0.02 0 { /x exch def   % the positive solution
		x x mul x mul  x a mul add  b add /y_squared exch def
		y_squared 0 gt {
			/y y_squared sqrt def
			newcurve {
				newpath y 0 x sub  moveto   % newpath x 0 y sub moveto
				/newcurve false def
			} {
				y  0 x sub lineto   % x 0 y sub lineto
			} ifelse
		} if
	} for
	0 -0.02 -6 { /x exch def  % the negative solution  a separate loop ?
		x x mul x mul  x a mul add  b add /y_squared exch def
		y_squared 0 gt {
			/y y_squared sqrt def
			0 y sub  0 x sub lineto   % x y lineto
		} if
	} for
	closepath stroke

} for

showpage
%%EOF
