%!PS-Adobe-2.0 EPSF-1.2
%%BoundingBox: 0 0 580 580
%%Pages: 1 1
%%EndComments
(/home/pjb/ps/lib/colours.ps) run
/centreshow { % usage: x y font fontsize (string) centreshow
  3 dict begin
    [ /s /fontsize /font ] { exch def } forall
    gsave moveto font fontsize selectfont
    gsave s false charpath flattenpath pathbbox grestore
    exch 4 -1 roll pop pop s
    stringwidth pop -0.5 mul  % dx/2  bad pop yet woosh-fonts seem to work!
    3 1 roll sub 0.5 mul % dy/2
    rmoveto s show grestore
  end
} bind def

/xymin -1 def /xymax -1 def  % these will be set by the first call to /p
/is_locator {
  10 dict begin [ /y /x ] { exch def } forall
  /rc false def
  x xymin 6 add le x xymax 7 sub ge or y xymax 7 sub ge and {/rc true def} if
  x xymin 6 add le  y xymin 6 add le  and { /rc true def } if
  x xymax 8 sub ge  x xymax 4 sub le  and
  y xymin 4 add ge  y xymin 8 add le  and  and { /rc true def } if
  rc
  end
} bind def
/p { [ /y /x ] { exch def } forall
  xymin -1 eq { /xymin x def } if % the first call is in the top-left corner
  xymax -1 eq { /xymax y def } if
  x y is_locator { black } {
    [.7 0 0  .7 0 0  0 0 .7 darkgreen darkorange darkorange ] randomrgbget
  } ifelse
  setrgbcolor  x y moveto 0 1 rlineto 1 0 rlineto 0 -1 rlineto fill
} bind def
%gsave
%  darkred setrgbcolor 290 50 (HelvetiaBold) 60 (pjb.com.au) centreshow
%grestore
20 20 scale % 0 3 translate

2 26 p 3 26 p 4 26 p 5 26 p 6 26 p 7 26 p 8 26 p 10 26 p 11 26 p
12 26 p 13 26 p 16 26 p 20 26 p 21 26 p 22 26 p 23 26 p 24 26 p 25 26
p 26 26 p 2 25 p 8 25 p 13 25 p 14 25 p 18 25 p 20 25 p 26 25 p 2 24 p
4 24 p 5 24 p 6 24 p 8 24 p 11 24 p 13 24 p 15 24 p 16 24 p 18 24 p 20
24 p 22 24 p 23 24 p 24 24 p 26 24 p 2 23 p 4 23 p 5 23 p 6 23 p 8 23 p
12 23 p 13 23 p 15 23 p 18 23 p 20 23 p 22 23 p 23 23 p 24 23 p 26 23 p
2 22 p 4 22 p 5 22 p 6 22 p 8 22 p 12 22 p 13 22 p 14 22 p 15 22 p 16
22 p 18 22 p 20 22 p 22 22 p 23 22 p 24 22 p 26 22 p 2 21 p 8 21 p 11
21 p 13 21 p 16 21 p 18 21 p 20 21 p 26 21 p 2 20 p 3 20 p 4 20 p 5 20
p 6 20 p 7 20 p 8 20 p 10 20 p 12 20 p 14 20 p 16 20 p 18 20 p 20 20 p
21 20 p 22 20 p 23 20 p 24 20 p 25 20 p 26 20 p 10 19 p 11 19 p 14 19
p 15 19 p 17 19 p 18 19 p 2 18 p 3 18 p 5 18 p 6 18 p 8 18 p 11 18 p 14
18 p 18 18 p 20 18 p 26 18 p 3 17 p 12 17 p 15 17 p 16 17 p 17 17 p 18
17 p 19 17 p 21 17 p 22 17 p 23 17 p 24 17 p 25 17 p 2 16 p 4 16 p 5 16
p 7 16 p 8 16 p 9 16 p 11 16 p 14 16 p 15 16 p 17 16 p 20 16 p 21 16 p
23 16 p 26 16 p 2 15 p 3 15 p 7 15 p 10 15 p 17 15 p 18 15 p 21 15 p 23
15 p 24 15 p 25 15 p 26 15 p 2 14 p 4 14 p 8 14 p 9 14 p 11 14 p 12 14
p 17 14 p 18 14 p 20 14 p 26 14 p 2 13 p 5 13 p 6 13 p 10 13 p 12 13 p
14 13 p 15 13 p 16 13 p 17 13 p 18 13 p 19 13 p 22 13 p 25 13 p 2 12 p
3 12 p 6 12 p 7 12 p 8 12 p 10 12 p 11 12 p 15 12 p 17 12 p 18 12 p 19
12 p 20 12 p 22 12 p 23 12 p 24 12 p 25 12 p 26 12 p 2 11 p 4 11 p 5 11
p 7 11 p 10 11 p 14 11 p 17 11 p 18 11 p 19 11 p 21 11 p 23 11 p 24 11
p 26 11 p 2 10 p 5 10 p 7 10 p 8 10 p 10 10 p 11 10 p 12 10 p 13 10 p
14 10 p 15 10 p 18 10 p 19 10 p 20 10 p 21 10 p 22 10 p 24 10 p 25 10
p 10 9 p 12 9 p 13 9 p 16 9 p 18 9 p 22 9 p 24 9 p 25 9 p 2 8 p 3 8 p
4 8 p 5 8 p 6 8 p 7 8 p 8 8 p 11 8 p 12 8 p 14 8 p 15 8 p 18 8 p 20 8
p 22 8 p 26 8 p 2 7 p 8 7 p 13 7 p 15 7 p 17 7 p 18 7 p 22 7 p 2 6 p 4
6 p 5 6 p 6 6 p 8 6 p 10 6 p 12 6 p 13 6 p 15 6 p 17 6 p 18 6 p 19 6 p
20 6 p 21 6 p 22 6 p 25 6 p 26 6 p 2 5 p 4 5 p 5 5 p 6 5 p 8 5 p 10 5 p
11 5 p 12 5 p 14 5 p 15 5 p 16 5 p 18 5 p 20 5 p 25 5 p 26 5 p 2 4 p 4
4 p 5 4 p 6 4 p 8 4 p 11 4 p 13 4 p 15 4 p 17 4 p 19 4 p 22 4 p 23 4 p
24 4 p 25 4 p 26 4 p 2 3 p 8 3 p 10 3 p 11 3 p 12 3 p 13 3 p 14 3 p 15
3 p 17 3 p 21 3 p 22 3 p 24 3 p 25 3 p 26 3 p 2 2 p 3 2 p 4 2 p 5 2 p
6 2 p 7 2 p 8 2 p 10 2 p 12 2 p 13 2 p 14 2 p 15 2 p 18 2 p 19 2 p 23
2 p 26 2 p
%%EOF
