
%!PS-Adobe-2.0 EPSF-1.2
%%BoundingBox: 0 0 330 330
%%Pages: 1 1
%%EndComments
(/home/pjb/ps/lib/colours.ps) run
% yellow setrgbcolor 0 0 330 330 rectfill
darkbrown setrgbcolor
/p { moveto 0 1 rlineto 1 0 rlineto 0 -1 rlineto fill } bind def 10 10
scale 2 30 p 3 30 p 4 30 p 5 30 p 6 30 p 7 30 p 8 30 p 12 30 p 14 30 p
15 30 p 17 30 p 21 30 p 22 30 p 24 30 p 25 30 p 26 30 p 27 30 p 28 30
p 29 30 p 30 30 p 2 29 p 8 29 p 10 29 p 12 29 p 15 29 p 16 29 p 17 29 p
22 29 p 24 29 p 30 29 p 2 28 p 4 28 p 5 28 p 6 28 p 8 28 p 14 28 p 15 28
p 17 28 p 18 28 p 20 28 p 22 28 p 24 28 p 26 28 p 27 28 p 28 28 p 30 28
p 2 27 p 4 27 p 5 27 p 6 27 p 8 27 p 10 27 p 11 27 p 12 27 p 14 27 p 16
27 p 18 27 p 19 27 p 20 27 p 24 27 p 26 27 p 27 27 p 28 27 p 30 27 p 2
26 p 4 26 p 5 26 p 6 26 p 8 26 p 11 26 p 17 26 p 18 26 p 19 26 p 20 26 p
21 26 p 22 26 p 24 26 p 26 26 p 27 26 p 28 26 p 30 26 p 2 25 p 8 25 p 10
25 p 11 25 p 13 25 p 14 25 p 17 25 p 19 25 p 24 25 p 30 25 p 2 24 p 3 24
p 4 24 p 5 24 p 6 24 p 7 24 p 8 24 p 10 24 p 12 24 p 14 24 p 16 24 p 18
24 p 20 24 p 22 24 p 24 24 p 25 24 p 26 24 p 27 24 p 28 24 p 29 24 p 30
24 p 11 23 p 12 23 p 13 23 p 16 23 p 17 23 p 18 23 p 21 23 p 22 23 p 2
22 p 3 22 p 4 22 p 5 22 p 6 22 p 8 22 p 9 22 p 10 22 p 11 22 p 13 22 p
17 22 p 21 22 p 23 22 p 25 22 p 27 22 p 29 22 p 2 21 p 3 21 p 5 21 p 6
21 p 9 21 p 12 21 p 14 21 p 15 21 p 16 21 p 18 21 p 21 21 p 22 21 p 24
21 p 25 21 p 26 21 p 30 21 p 3 20 p 5 20 p 7 20 p 8 20 p 12 20 p 15 20
p 16 20 p 17 20 p 18 20 p 20 20 p 23 20 p 25 20 p 2 19 p 3 19 p 4 19 p
5 19 p 7 19 p 9 19 p 10 19 p 14 19 p 15 19 p 20 19 p 21 19 p 22 19 p 24
19 p 26 19 p 27 19 p 29 19 p 3 18 p 4 18 p 5 18 p 6 18 p 7 18 p 8 18 p
10 18 p 11 18 p 12 18 p 14 18 p 16 18 p 17 18 p 18 18 p 19 18 p 21 18 p
25 18 p 27 18 p 28 18 p 3 17 p 5 17 p 7 17 p 9 17 p 10 17 p 21 17 p 24
17 p 25 17 p 26 17 p 30 17 p 3 16 p 4 16 p 6 16 p 7 16 p 8 16 p 9 16 p
10 16 p 12 16 p 13 16 p 14 16 p 17 16 p 22 16 p 23 16 p 25 16 p 26 16 p
27 16 p 28 16 p 3 15 p 4 15 p 5 15 p 10 15 p 11 15 p 12 15 p 13 15 p 16
15 p 17 15 p 18 15 p 22 15 p 23 15 p 25 15 p 26 15 p 29 15 p 2 14 p 3 14
p 6 14 p 8 14 p 9 14 p 10 14 p 13 14 p 17 14 p 18 14 p 19 14 p 27 14 p
28 14 p 2 13 p 4 13 p 6 13 p 7 13 p 10 13 p 11 13 p 12 13 p 14 13 p 15
13 p 16 13 p 17 13 p 19 13 p 21 13 p 22 13 p 24 13 p 25 13 p 26 13 p 28
13 p 30 13 p 2 12 p 7 12 p 8 12 p 10 12 p 11 12 p 12 12 p 15 12 p 16 12
p 18 12 p 19 12 p 20 12 p 26 12 p 28 12 p 2 11 p 4 11 p 6 11 p 9 11 p
10 11 p 12 11 p 14 11 p 15 11 p 18 11 p 20 11 p 22 11 p 29 11 p 2 10 p
4 10 p 6 10 p 8 10 p 10 10 p 12 10 p 14 10 p 16 10 p 17 10 p 18 10 p 19
10 p 21 10 p 22 10 p 23 10 p 24 10 p 25 10 p 26 10 p 28 10 p 29 10 p 30
10 p 10 9 p 19 9 p 22 9 p 26 9 p 27 9 p 28 9 p 29 9 p 30 9 p 2 8 p 3 8
p 4 8 p 5 8 p 6 8 p 7 8 p 8 8 p 10 8 p 12 8 p 13 8 p 14 8 p 17 8 p 19
8 p 20 8 p 21 8 p 22 8 p 24 8 p 26 8 p 27 8 p 28 8 p 2 7 p 8 7 p 11 7 p
13 7 p 16 7 p 17 7 p 20 7 p 21 7 p 22 7 p 26 7 p 29 7 p 30 7 p 2 6 p 4
6 p 5 6 p 6 6 p 8 6 p 10 6 p 11 6 p 13 6 p 17 6 p 19 6 p 22 6 p 23 6 p
24 6 p 25 6 p 26 6 p 28 6 p 30 6 p 2 5 p 4 5 p 5 5 p 6 5 p 8 5 p 10 5 p
12 5 p 14 5 p 15 5 p 16 5 p 19 5 p 20 5 p 22 5 p 27 5 p 28 5 p 2 4 p 4
4 p 5 4 p 6 4 p 8 4 p 10 4 p 11 4 p 12 4 p 15 4 p 16 4 p 17 4 p 18 4 p
22 4 p 24 4 p 25 4 p 26 4 p 27 4 p 28 4 p 29 4 p 2 3 p 8 3 p 10 3 p 14
3 p 15 3 p 17 3 p 18 3 p 20 3 p 21 3 p 22 3 p 23 3 p 24 3 p 25 3 p 27
3 p 29 3 p 2 2 p 3 2 p 4 2 p 5 2 p 6 2 p 7 2 p 8 2 p 10 2 p 11 2 p 12
2 p 14 2 p 16 2 p 17 2 p 19 2 p 21 2 p 23 2 p 24 2 p 26 2 p 28 2 p
%%EOF
