%!PS-Adobe-2.0 EPSF-1.2
%%BoundingBox: 0 0 330 330
%%Pages: 1 1
%%EndComments
/p { moveto 0 1 rlineto 1 0 rlineto 0 -1 rlineto fill } bind def 10 10 scale 2 30 p 3 30 p 4 30 p 5 30 p 6 30 p 7 30 p 8 30 p 12 30 p 17 30 p 19 30 p 20 30 p 21 30 p 22 30 p 24 30 p 25 30 p 26 30 p 27 30 p 28 30 p 29 30 p 30 30 p 2 29 p 8 29 p 10 29 p 11 29 p 12 29 p 17 29 p 20 29 p 22 29 p 24 29 p 30 29 p 2 28 p 4 28 p 5 28 p 6 28 p 8 28 p 10 28 p 17 28 p 19 28 p 22 28 p 24 28 p 26 28 p 27 28 p 28 28 p 30 28 p 2 27 p 4 27 p 5 27 p 6 27 p 8 27 p 11 27 p 14 27 p 16 27 p 18 27 p 20 27 p 21 27 p 22 27 p 24 27 p 26 27 p 27 27 p 28 27 p 30 27 p 2 26 p 4 26 p 5 26 p 6 26 p 8 26 p 10 26 p 11 26 p 12 26 p 14 26 p 15 26 p 16 26 p 18 26 p 20 26 p 24 26 p 26 26 p 27 26 p 28 26 p 30 26 p 2 25 p 8 25 p 10 25 p 12 25 p 14 25 p 15 25 p 17 25 p 19 25 p 21 25 p 24 25 p 30 25 p 2 24 p 3 24 p 4 24 p 5 24 p 6 24 p 7 24 p 8 24 p 10 24 p 12 24 p 14 24 p 16 24 p 18 24 p 20 24 p 22 24 p 24 24 p 25 24 p 26 24 p 27 24 p 28 24 p 29 24 p 30 24 p 10 23 p 12 23 p 13 23 p 16 23 p 19 23 p 20 23 p 2 22 p 3 22 p 5 22 p 8 22 p 9 22 p 13 22 p 14 22 p 15 22 p 16 22 p 24 22 p 25 22 p 26 22 p 28 22 p 29 22 p 4 21 p 11 21 p 13 21 p 14 21 p 15 21 p 16 21 p 18 21 p 22 21 p 24 21 p 27 21 p 30 21 p 2 20 p 5 20 p 8 20 p 9 20 p 13 20 p 14 20 p 16 20 p 18 20 p 19 20 p 21 20 p 22 20 p 27 20 p 28 20 p 29 20 p 3 19 p 4 19 p 5 19 p 9 19 p 11 19 p 12 19 p 13 19 p 14 19 p 15 19 p 16 19 p 18 19 p 20 19 p 23 19 p 25 19 p 26 19 p 28 19 p 29 19 p 2 18 p 4 18 p 5 18 p 7 18 p 8 18 p 9 18 p 12 18 p 13 18 p 15 18 p 17 18 p 19 18 p 21 18 p 22 18 p 23 18 p 24 18 p 27 18 p 29 18 p 30 18 p 2 17 p 3 17 p 5 17 p 6 17 p 11 17 p 13 17 p 15 17 p 17 17 p 21 17 p 23 17 p 25 17 p 2 16 p 4 16 p 7 16 p 8 16 p 9 16 p 10 16 p 12 16 p 13 16 p 16 16 p 19 16 p 22 16 p 27 16 p 28 16 p 29 16 p 30 16 p 2 15 p 3 15 p 7 15 p 9 15 p 10 15 p 12 15 p 13 15 p 15 15 p 19 15 p 20 15 p 21 15 p 22 15 p 23 15 p 24 15 p 27 15 p 29 15 p 2 14 p 3 14 p 6 14 p 8 14 p 11 14 p 14 14 p 16 14 p 18 14 p 19 14 p 22 14 p 23 14 p 25 14 p 29 14 p 3 13 p 5 13 p 6 13 p 7 13 p 10 13 p 11 13 p 12 13 p 14 13 p 16 13 p 18 13 p 20 13 p 23 13 p 24 13 p 25 13 p 27 13 p 30 13 p 2 12 p 5 12 p 7 12 p 8 12 p 12 12 p 13 12 p 14 12 p 15 12 p 18 12 p 20 12 p 24 12 p 25 12 p 29 12 p 30 12 p 4 11 p 6 11 p 10 11 p 12 11 p 14 11 p 17 11 p 18 11 p 19 11 p 21 11 p 22 11 p 23 11 p 29 11 p 30 11 p 2 10 p 4 10 p 6 10 p 8 10 p 9 10 p 10 10 p 11 10 p 12 10 p 14 10 p 15 10 p 16 10 p 20 10 p 21 10 p 22 10 p 23 10 p 24 10 p 25 10 p 26 10 p 28 10 p 10 9 p 11 9 p 13 9 p 18 9 p 21 9 p 22 9 p 26 9 p 28 9 p 29 9 p 30 9 p 2 8 p 3 8 p 4 8 p 5 8 p 6 8 p 7 8 p 8 8 p 10 8 p 11 8 p 12 8 p 14 8 p 15 8 p 16 8 p 18 8 p 19 8 p 22 8 p 24 8 p 26 8 p 29 8 p 2 7 p 8 7 p 11 7 p 12 7 p 14 7 p 15 7 p 16 7 p 18 7 p 20 7 p 22 7 p 26 7 p 27 7 p 28 7 p 2 6 p 4 6 p 5 6 p 6 6 p 8 6 p 11 6 p 13 6 p 14 6 p 15 6 p 17 6 p 18 6 p 19 6 p 22 6 p 23 6 p 24 6 p 25 6 p 26 6 p 29 6 p 2 5 p 4 5 p 5 5 p 6 5 p 8 5 p 10 5 p 11 5 p 14 5 p 16 5 p 18 5 p 19 5 p 20 5 p 21 5 p 22 5 p 23 5 p 24 5 p 26 5 p 27 5 p 28 5 p 29 5 p 2 4 p 4 4 p 5 4 p 6 4 p 8 4 p 13 4 p 16 4 p 19 4 p 20 4 p 26 4 p 27 4 p 28 4 p 30 4 p 2 3 p 8 3 p 10 3 p 13 3 p 14 3 p 15 3 p 19 3 p 21 3 p 22 3 p 24 3 p 26 3 p 29 3 p 2 2 p 3 2 p 4 2 p 5 2 p 6 2 p 7 2 p 8 2 p 10 2 p 11 2 p 12 2 p 13 2 p 14 2 p 18 2 p 19 2 p 22 2 p 24 2 p 25 2 p 26 2 p 29 2 p 
%%EOF
