%!PS-Adobe-2.0 EPSF-1.2
%%BoundingBox: 0 0 231 252
%%Pages: 1 1
%%EndComments
(/home/pjb/ps/lib/colours.ps) run
/is_locator {
  10 dict begin [ /y /x ] { exch def } forall
  /xymin 2 def /xymax 30 def   % by inspection
  /result false def
  x xymin 6 add le  x xymax 7 sub ge  or y xymax 7 sub ge and {
    /result true def
  } if
  x xymin 6 add le  y xymin 6 add le and {
    /result true def
  } if
  % x xymax 4 sub le  x xymax 8 sub ge  and
  % y xymin 4 add ge  y xymin 8 add le  and  and {
  x xymax 8 sub ge  x xymax 4 sub le  and
  y xymin 4 add ge  y xymin 8 add le  and  and {
    /result true def
  } if
  result
  end
} bind def
/p { [ /y /x ] { exch def } forall
  x y is_locator { black setrgbcolor } {
    [darkred darkblue darkgreen grey50 darkorange ] randomrgbget setrgbcolor
  } ifelse
  x y moveto 0 1 rlineto 1 0 rlineto 0 -1 rlineto fill
} bind def
% /p { moveto 0 1 rlineto 1 0 rlineto 0 -1 rlineto fill } bind def
(HelvetiaBold) 17.0 selectfont darkred setrgbcolor
gsave
  13 7 translate 0 0 moveto 1 1.5 scale (pjb.com.au by instrument) show
grestore
7 7 scale 0 3 translate
2 30 p 3 30 p 4 30 p 5 30 p 6 30 p 7 30 p 8 30 p 10 30 p 11 30 p
12 30 p 13 30 p 15 30 p 20 30 p 22 30 p 24 30 p 25 30 p 26 30 p 27 30 p
28 30 p 29 30 p 30 30 p 2 29 p 8 29 p 13 29 p 14 29 p 15 29 p 19 29 p 21
29 p 24 29 p 30 29 p 2 28 p 4 28 p 5 28 p 6 28 p 8 28 p 11 28 p 13 28 p
15 28 p 21 28 p 22 28 p 24 28 p 26 28 p 27 28 p 28 28 p 30 28 p 2 27 p
4 27 p 5 27 p 6 27 p 8 27 p 12 27 p 13 27 p 15 27 p 17 27 p 18 27 p 19
27 p 24 27 p 26 27 p 27 27 p 28 27 p 30 27 p 2 26 p 4 26 p 5 26 p 6 26
p 8 26 p 12 26 p 13 26 p 14 26 p 18 26 p 20 26 p 21 26 p 24 26 p 26 26
p 27 26 p 28 26 p 30 26 p 2 25 p 8 25 p 11 25 p 13 25 p 15 25 p 19 25 p
22 25 p 24 25 p 30 25 p 2 24 p 3 24 p 4 24 p 5 24 p 6 24 p 7 24 p 8 24
p 10 24 p 12 24 p 14 24 p 16 24 p 18 24 p 20 24 p 22 24 p 24 24 p 25 24
p 26 24 p 27 24 p 28 24 p 29 24 p 30 24 p 10 23 p 11 23 p 14 23 p 15 23
p 18 23 p 21 23 p 22 23 p 2 22 p 3 22 p 5 22 p 6 22 p 8 22 p 11 22 p 14
22 p 17 22 p 18 22 p 19 22 p 21 22 p 24 22 p 30 22 p 3 21 p 12 21 p 15
21 p 16 21 p 17 21 p 21 21 p 23 21 p 25 21 p 26 21 p 28 21 p 29 21 p 3
20 p 4 20 p 8 20 p 10 20 p 11 20 p 14 20 p 15 20 p 17 20 p 18 20 p 19
20 p 22 20 p 23 20 p 25 20 p 28 20 p 2 19 p 6 19 p 7 19 p 9 19 p 19 19
p 21 19 p 22 19 p 24 19 p 27 19 p 30 19 p 2 18 p 3 18 p 5 18 p 8 18 p
10 18 p 11 18 p 12 18 p 18 18 p 22 18 p 24 18 p 25 18 p 30 18 p 2 17 p
3 17 p 4 17 p 6 17 p 9 17 p 12 17 p 14 17 p 16 17 p 17 17 p 18 17 p 22
17 p 24 17 p 26 17 p 27 17 p 28 17 p 29 17 p 30 17 p 2 16 p 3 16 p 4 16
p 6 16 p 7 16 p 8 16 p 9 16 p 10 16 p 11 16 p 12 16 p 15 16 p 17 16 p
19 16 p 20 16 p 21 16 p 22 16 p 23 16 p 25 16 p 28 16 p 30 16 p 2 15 p
5 15 p 6 15 p 9 15 p 14 15 p 16 15 p 25 15 p 26 15 p 28 15 p 30 15 p 2
14 p 3 14 p 7 14 p 8 14 p 9 14 p 11 14 p 13 14 p 14 14 p 15 14 p 17 14
p 18 14 p 20 14 p 21 14 p 22 14 p 27 14 p 2 13 p 3 13 p 6 13 p 9 13 p
11 13 p 12 13 p 13 13 p 16 13 p 17 13 p 20 13 p 21 13 p 22 13 p 26 13 p
28 13 p 29 13 p 2 12 p 3 12 p 4 12 p 8 12 p 10 12 p 14 12 p 15 12 p 17
12 p 18 12 p 21 12 p 23 12 p 24 12 p 27 12 p 30 12 p 2 11 p 3 11 p 4 11
p 7 11 p 9 11 p 10 11 p 11 11 p 13 11 p 15 11 p 16 11 p 17 11 p 24 11
p 25 11 p 26 11 p 27 11 p 28 11 p 2 10 p 3 10 p 4 10 p 5 10 p 6 10 p 8
10 p 9 10 p 11 10 p 13 10 p 16 10 p 17 10 p 19 10 p 22 10 p 23 10 p 24
10 p 25 10 p 26 10 p 27 10 p 28 10 p 29 10 p 10 9 p 11 9 p 12 9 p 14 9
p 15 9 p 16 9 p 17 9 p 19 9 p 20 9 p 22 9 p 26 9 p 27 9 p 2 8 p 3 8 p
4 8 p 5 8 p 6 8 p 7 8 p 8 8 p 13 8 p 17 8 p 19 8 p 20 8 p 21 8 p 22 8 p
24 8 p 26 8 p 27 8 p 2 7 p 8 7 p 13 7 p 14 7 p 16 7 p 19 7 p 21 7 p 22 7
p 26 7 p 29 7 p 2 6 p 4 6 p 5 6 p 6 6 p 8 6 p 10 6 p 11 6 p 12 6 p 13 6 p
14 6 p 17 6 p 21 6 p 22 6 p 23 6 p 24 6 p 25 6 p 26 6 p 27 6 p 29 6 p 2 5
p 4 5 p 5 5 p 6 5 p 8 5 p 10 5 p 11 5 p 12 5 p 16 5 p 17 5 p 18 5 p 19 5
p 20 5 p 25 5 p 30 5 p 2 4 p 4 4 p 5 4 p 6 4 p 8 4 p 11 4 p 13 4 p 14 4 p
15 4 p 16 4 p 17 4 p 19 4 p 21 4 p 23 4 p 25 4 p 26 4 p 28 4 p 29 4 p 30
4 p 2 3 p 8 3 p 10 3 p 12 3 p 13 3 p 16 3 p 17 3 p 18 3 p 20 3 p 23 3 p
25 3 p 27 3 p 28 3 p 30 3 p 2 2 p 3 2 p 4 2 p 5 2 p 6 2 p 7 2 p 8 2 p 10
2 p 14 2 p 16 2 p 17 2 p 18 2 p 21 2 p 22 2 p 23 2 p 24 2 p 26 2 p 27 2 p
%%EOF
