%!PS-Adobe-2.0
%%%%%%%%%%%%%%%%%%%%%%%%%%%%%%%%%%%%%%%%%%%%%%%%%%%%%%%%%%%%%%%%%%%%%%%%%
%        This Postscript is Copyright (c) 2019, Peter J Billam          %
% Permission is granted  to any individual or institution to use, copy, %
% modify or redistribute this software, so long as it is not resold for %
% profit, and provided this notice is retained. It is provided "as is", %
% without any express or implied warranty.    http://www.pjb.com.au     %
%%%%%%%%%%%%%%%%%%%%%%%%%%%%%%%%%%%%%%%%%%%%%%%%%%%%%%%%%%%%%%%%%%%%%%%%%
% https://en.wikipedia.org/wiki/Pinwheel_tiling
% http://tilings.math.uni-bielefeld.de/substitution/pinwheel/
%  %%BeginResource: procset conway_squares

(/home/pjb/ps/lib/colours.ps) run
(/home/pjb/ps/lib/random.ps)  run

0.0002 setlinewidth

/transparent { null null null } def
% /transparent { .6 .5 .4 } pstack def
/seed 10 irand 100 mul def   % used in page 7
/concat {
  5 dict begin
  [ /s2  /s1 ] { exch 600 string cvs def } forall
  /s s1 length s2 length add string def
  s1 s copy
  s  s1 length  s2  putinterval
  s  
  end
} def
/Wiggliness 0.05 def
/chopped_gauss_rand {  % constrained between 0.1 and 0.9
  5 dict begin
  /r 0.5 Wiggliness grand def
  r 0.1 lt { /r 0.1 def } if
  r 0.9 gt { /r 0.9 def } if
  r
  end
} bind def

/chop_nulls {  % usage: array chop_nulls => subarray-with-no-trailing-nulls
  % Because when creating a large array, it's MUCH FASTER to
  % create an array with a large size then set its elements with put,
  % than it is to construct a large literal array with [ and ]
  % So chop_nulls meets the need to trim trailing nulls off the end ...
  10 dict begin  /a exch def
  /i 0 def  % the index of the first null
  % binary search is faster, but assumes the nulls are contiguous at the end
  /i0 0 def  /iN a length 1 sub def
  20 {   % max array size is 65535 = 2^16
    a i0 get null eq { /i i0 def exit } if
    a iN get null ne { /i iN 1 add def exit } if
    iN i0 sub 10 le {  % short ... we do a sequential search ...
      /i i0 def 10 {
        a i get null eq { exit } if
        /i i 1 add def
        i iN ge { exit } if
      } repeat
      exit
    } if
    /imid i0 iN add 0.5 mul round cvi def
    a imid get null eq { /iN imid def } { /i0 imid def } ifelse
  } repeat 
  a 0 i getinterval
  end
} def

% arc trig functions
/acos2 { 2 copy dup mul exch dup mul sub sqrt exch pop exch atan } def
/acos  { 1 acos2 } def

% These values are used a lot, better to have constants for them
/sqrt5 5.0 sqrt def
/sin27 1.0 sqrt5 div def  % actually 26.565051177078 degrees
/cos27 2.0 sqrt5 div def
/deg27 26.56505117708 def
/deg63 90 deg27 sub def

/fillcolorProc { pop pop 1 1 1 } def
/linecolorProc { pop pop 0 0 0 } def


/half_base_squared 0 def
/are_close {   % usage:  [x1 y1] [x2 y2] are_close  =>  true or false
  half_base_squared
  3 1 roll
  5 dict begin
  [ /pos2 /pos1 ] { exch def } forall
  pos2 1 get pos1 1 get sub dup mul pos2 0 get pos1 0 get sub dup mul add
  gt
  end
} def


/RandomParam 0.7 def
/square 5 array def
% square format: [[x1 y1] [x2 y2] [x3 y3] [x4 y4] placement]
/SubdivideSquareProcs << % square i SubdivideSquareProcs option get exec
  % just pushes the new squares onto the stack
  (RectangleOnly) {
    10 dict begin
    [ /i /square ] { exch def } forall
    square 3 get 3 le { square
    } { square i SubdivideSquareProcs (Default) get exec
    } ifelse
    end
  }
  (SnakeForm) {
    10 dict begin
    [ /i /square ] { exch def } forall
    square 3 get 2 le { square
    } { square i SubdivideSquareProcs (Default) get exec
    } ifelse
    end
  }
  (Necklace) { % supress 4,5
    10 dict begin
    [ /i /square ] { exch def } forall
    /placement square 4 get def
    % x1y1 is the right-angle, x2y2 is the short side, x3y3 the long side
    % square-placement encoding: 1=x2y2=63deg 2=x3y3=27deg
    % 3=x1y1-to-halfway-along-side 4=middle-of-hypotenuse 5=interior
    /x1 square 0 get 0 get def /y1 square 0 get 1 get def  % right-angle
    /x2 square 1 get 0 get def /y2 square 1 get 1 get def  % 63deg angle
    /x3 square 2 get 0 get def /y3 square 2 get 1 get def  % 27deg angle
    /x_perptohypot  x2 x3 x2 sub 0.2 mul add def
    /y_perptohypot  y2 y3 y2 sub 0.2 mul add def
    /x_halflongside x1 x3 add 0.5 mul def
    /y_halflongside y1 y3 add 0.5 mul def
    [[x_perptohypot y_perptohypot] [x2 y2] [x1 y1] 1]
    [[x_perptohypot x3 add 0.5 mul  y_perptohypot y3 add 0.5 mul]
     [x_halflongside y_halflongside] [x3 y3] 2]
    [[x_perptohypot x1 add 0.5 mul  y_perptohypot y1 add 0.5 mul]
     [x1 y1] [x_halflongside y_halflongside] 3]
    [[x_perptohypot x1 add 0.5 mul  y_perptohypot y1 add 0.5 mul]
     [x_perptohypot y_perptohypot] [x_halflongside y_halflongside] 5]
    end
  }
  (Random) {   % ALSO PERHAPS: random but symmetrical ?
    10 dict begin
    [ /i /square ] { exch def } forall
    urand RandomParam gt { square
    } { square i SubdivideSquareProcs (Default) get exec
    } ifelse
    end
  }
  (Wiggly) {
    15 dict begin
    [ /i /square ] { exch def } forall
    /placement square 4 get def
    /x1 square 0 get 0 get def    /y1 square 0 get 1 get def
    /x2 square 1 get 0 get def    /y2 square 1 get 1 get def
    /x3 square 2 get 0 get def    /y3 square 2 get 1 get def
    /x4 square 3 get 0 get def    /y4 square 3 get 1 get def
    % the slightly randomised midpoints of the sides ...
    /r chopped_gauss_rand def
    /x_half_12 x1 r mul x2 1.0 r sub mul add def
    /y_half_12 y1 r mul y2 1.0 r sub mul add def
    /r chopped_gauss_rand def
    /x_half_23 x2 r mul x3 1.0 r sub mul add def
    /y_half_23 y2 r mul y3 1.0 r sub mul add def
    /r chopped_gauss_rand def
    /x_half_34 x3 r mul x4 1.0 r sub mul add def
    /y_half_34 y3 r mul y4 1.0 r sub mul add def
    /r chopped_gauss_rand def
    /x_half_41 x4 r mul x1 1.0 r sub mul add def
    /y_half_41 y4 r mul y1 1.0 r sub mul add def
    % perhaps the centre-point should also be wiggled ?
    % /x_centre x_half_12 x_half_34 add 0.5 mul def
    % /y_centre y_half_12 y_half_34 add 0.5 mul def
    /r chopped_gauss_rand def
    % should I notice also the other side-midpoints ?
    /x_centre x_half_12 r mul x_half_34 1.0 r sub mul add def
    /y_centre y_half_12 r mul y_half_34 1.0 r sub mul add def
    [[x1 y1] [x_half_12 y_half_12] [x_centre y_centre] [x_half_41 y_half_41] 1]
    [[x2 y2] [x_half_23 y_half_23] [x_centre y_centre] [x_half_12 y_half_12] 2]
    [[x3 y3] [x_half_34 y_half_34] [x_centre y_centre] [x_half_23 y_half_23] 3]
    [[x4 y4] [x_half_41 y_half_41] [x_centre y_centre] [x_half_34 y_half_34] 4]
    end
  }
  (Spiky) {
    10 dict begin
    [ /i /square ] { exch def } forall
    /placement square 4 get def
    /x1 square 0 get 0 get def    /y1 square 0 get 1 get def
    /x2 square 1 get 0 get def    /y2 square 1 get 1 get def
    /x3 square 2 get 0 get def    /y3 square 2 get 1 get def
    % the approximate midpoints of the opposite sides ...
    /x_half_1 x2 x3 add chopped_gauss_rand mul def
    /y_half_1 y2 y3 add chopped_gauss_rand mul def
    /x_half_2 x1 x3 add chopped_gauss_rand mul def
    /y_half_2 y1 y3 add chopped_gauss_rand mul def
    /x_half_3 x1 x2 add chopped_gauss_rand mul def
    /y_half_3 y1 y2 add chopped_gauss_rand mul def
    [[x1 y1] [x_half_2 y_half_2] [x_half_3 y_half_3] 1]
    [[x2 y2] [x_half_1 y_half_1] [x_half_3 y_half_3] 2]
    [[x3 y3] [x_half_1 y_half_1] [x_half_2 y_half_2] 3]
      [[x_half_1 y_half_1] [x_half_2 y_half_2] [x_half_3 y_half_3] 4]
    end
  }
  (Default) {
    10 dict begin
    [ /i /square ] { exch def } forall
    /placement square 4 get def
    /x1 square 0 get 0 get def    /y1 square 0 get 1 get def
    /x2 square 1 get 0 get def    /y2 square 1 get 1 get def
    /x3 square 2 get 0 get def    /y3 square 2 get 1 get def
    /x4 square 3 get 0 get def    /y4 square 3 get 1 get def
    % the midpoints of the sides ...
    /x_half_12 x1 x2 add 0.5 mul def /y_half_12 y1 y2 add 0.5 mul def
    /x_half_23 x2 x3 add 0.5 mul def /y_half_23 y2 y3 add 0.5 mul def
    /x_half_34 x3 x4 add 0.5 mul def /y_half_34 y3 y4 add 0.5 mul def
    /x_half_41 x4 x1 add 0.5 mul def /y_half_41 y4 y1 add 0.5 mul def
    /x_centre x_half_12 x_half_34 add 0.5 mul def
    /y_centre y_half_12 y_half_34 add 0.5 mul def
    [[x1 y1] [x_half_12 y_half_12] [x_centre y_centre] [x_half_41 y_half_41] 1]
    [[x2 y2] [x_half_23 y_half_23] [x_centre y_centre] [x_half_12 y_half_12] 2]
    [[x3 y3] [x_half_34 y_half_34] [x_centre y_centre] [x_half_23 y_half_23] 3]
    [[x4 y4] [x_half_41 y_half_41] [x_centre y_centre] [x_half_34 y_half_34] 4]
    end
  }
>> def

% SubdivideSquare takes a square as an argument
% and returns the squares that result from its substitution
/SubdivideSquare {   % usage: square option SubdivideSquare
  20 dict begin
  [ /i /option /square ] { exch def } forall
  /placement square 4 get def
  placement 5 gt { exit } if
  square i SubdivideSquareProcs option get exec
  end
} def

/FourSquares { % usage: N x1 y2 x2 y2 x3 y3 x4 y4 option FourSquares
  20 dict begin
  [/option /y4 /x4 /y3 /x3 /y2 /x2 /y1 /x1 /N ] { exch def } forall
  % square format: [[x1 y1] [x2 y2] [x3 y3] [x4 y4] placement]
  /oldsquares [
    [[x1 y1] [x2 y2] [x3 y3] [x4 y4] 5]
  ] def
  /iteration 0 def
  N {
    /iteration iteration 1 add def
    /newsquares oldsquares length 5 mul array def  % a new blank array
    /i 0 def   % index into newsquares
	oldsquares {
      /oldsquare exch def
      oldsquare null eq { pop exit } if
      [ oldsquare option iteration SubdivideSquare ] {
        % for each new subsquare
        dup null eq { pop exit } if  % if null, pop and break
        newsquares i 3 -1 roll put
        /i i 1 add def
      } forall
    } forall
	/oldsquares newsquares chop_nulls def
  } repeat   % recurse N times
  oldsquares % and leave the array of squares on the stack
  end
} def

%DrawSquares draws the squares given in the array on the stack
/DrawSquares {
  % XXX Should be able to NOT FILL, ie: remain transparent, and only stroke.
  % XXX but setrgbcolor clips the values 0..1
  20 dict begin
  /squares exch def
  squares {
    /square exch def
    /x1 square 0 get 0 get def /y1 square 0 get 1 get def
    /x2 square 1 get 0 get def /y2 square 1 get 1 get def
	/x3 square 2 get 0 get def /y3 square 2 get 1 get def
	/x4 square 3 get 0 get def /y4 square 3 get 1 get def
	/xc x1 x2 add x3 add x4 add 4.0 div def
	/yc y1 y2 add y3 add x4 add 4.0 div def
    xc yc fillcolorProc  % XXX could detect a null on the stack ?
      % so fillcolorProc now leaves the colour on the stack !
    dup null eq {
      pop pop pop
    } {
      setrgbcolor newpath
      x1 y1 moveto
      x2 y2 lineto
      x3 y3 lineto
      x4 y4 lineto
      closepath fill
    } ifelse
	currentlinewidth 0 ne {   % test for currentlinewidth
      newpath
        xc yc linecolorProc setrgbcolor
        x1 y1 moveto
        x2 y2 lineto
        x3 y3 lineto
        x4 y4 lineto
        x1 y1 lineto
      stroke
	} if
  } forall
  end
} def


/xmax currentpagedevice (PageSize) get 0 get def
/ymax currentpagedevice (PageSize) get 1 get def
/xmid xmax 0.5 mul def /ymid ymax 0.5 mul def

%%Page: 1 1
%%BeginPageSetup
%%EndPageSetup
/fillcolorProc { pop pop
  [ red blue violet darkorange green yellow darkgrey ] randomrgb
} def
/linecolorProc { pop pop black } def
1 setlinewidth
1  0 ymid xmid sub  0 ymid xmid add  xmax ymax  xmax 0
  (Default) FourSquares DrawSquares
showpage

%%Page: 2 2
%%BeginPageSetup
%%EndPageSetup
/fillcolorProc { pop pop
  [ red blue violet darkorange green yellow darkgrey ] randomrgb
} def
/linecolorProc { pop pop black } def
1 setlinewidth
2  0 0  0 ymax  xmax ymid xmid add  xmax ymid xmid sub
  (Default) FourSquares DrawSquares
showpage

%%Page: 3 3
%%BeginPageSetup
%%EndPageSetup
/fillcolorProc { pop pop
  [ red blue violet darkorange green yellow darkgrey ] randomrgb
} def
/linecolorProc { pop pop black } def
1 setlinewidth
3  0 ymid xmid sub  0 ymid xmid add  xmax ymax  xmax 0
  (Default) FourSquares DrawSquares
showpage

%%Page: 4 4
%%BeginPageSetup
%%EndPageSetup
/fillcolorProc { pop pop
  [ red blue violet darkorange green yellow darkgrey ] randomrgb
} def
/linecolorProc { pop pop black } def
1 setlinewidth
4  0 0  0 ymax  xmax ymid xmid add  xmax ymid xmid sub
  (Default) FourSquares DrawSquares
showpage

%%Page: 5 5
%%BeginPageSetup
%%EndPageSetup
/fillcolorProc { pop pop
  [ red blue violet darkorange green yellow darkgrey ] randomrgb
} def
/linecolorProc { pop pop black } def
1 setlinewidth
5  0 0  0 ymax  xmax ymax  xmax 0
  (Default) FourSquares DrawSquares
showpage

%%Page: 6 6
%%BeginPageSetup
%%EndPageSetup
/gauss_rand_already false def
/seed seed 1 add def seed srand
/fillcolorProc { pop pop
  [ red blue violet darkorange green yellow darkgrey ] randomrgb
} def
/linecolorProc { pop pop black } def
/RandomParam 0.85 def
0 setlinewidth
6  0 ymid xmid sub  0 ymid xmid add  xmax ymid xmid add  xmax ymid xmid sub
  (Random) FourSquares DrawSquares
(Helvetica) xmax 0.04 mul selectfont black setrgbcolor
xmax .02 mul ymax .90 mul moveto  seed 10 string cvs  show
showpage

%%Page: 7 7
%%BeginPageSetup
%%EndPageSetup
/gauss_rand_already false def
/seed seed 1 add def seed srand
/fillcolorProc { pop pop
  [ red blue violet darkorange green yellow darkgrey ] randomrgb
} def
/linecolorProc { pop pop black } def
/RandomParam 0.85 def
0 setlinewidth
5  0 ymid xmid sub  0 ymid xmid add  xmax ymid xmid add  xmax ymid xmid sub
  (Wiggly) FourSquares DrawSquares
(Helvetica) xmax 0.04 mul selectfont black setrgbcolor
xmax .02 mul ymax .90 mul moveto  seed 10 string cvs  show
showpage

%%Page: 8 8
%%BeginPageSetup
%%EndPageSetup
/gauss_rand_already false def
/seed seed 1 add def seed srand
/fillcolorProc { pop pop
  [ red blue violet darkorange transparent yellow darkgrey ] randomrgb
} def
/linecolorProc { pop pop black } def
/RandomParam 0.85 def
0 setlinewidth
black setrgbcolor 0 0 xmax ymax rectfill
6  0 ymid xmid sub  0 ymid xmid add  xmax ymid xmid add  xmax ymid xmid sub
  (Random) FourSquares DrawSquares
(Helvetica) xmax 0.04 mul selectfont black setrgbcolor
xmax .02 mul ymax .90 mul moveto  seed 10 string cvs  show
showpage

