%!PS-Adobe-2.0
%%%%%%%%%%%%%%%%%%%%%%%%%%%%%%%%%%%%%%%%%%%%%%%%%%%%%%%%%%%%%%%%%%%%%%%%%%
%         This Postscript is Copyright (c) 2021, Peter J Billam          %
% It is under the Creative Commons Attribution 4.0 International licence %
% so you may share, and may adapt, provided you give attribution, and do %
% not impose extra restricions.      https://pjb.com.au/mus/avail.html   %
%%%%%%%%%%%%%%%%%%%%%%%%%%%%%%%%%%%%%%%%%%%%%%%%%%%%%%%%%%%%%%%%%%%%%%%%%%
% https://en.wikipedia.org/wiki/Weaving
% https://en.wikipedia.org/wiki/Plain_weave
% https://en.wikipedia.org/wiki/Satin
% https://en.wikipedia.org/wiki/Twill
%
% needs:
% 1) separate coulours for warp and weft,
%    each of which must be a proc, with the thread-number as an argument
%    So: how to get the i_warp and i_weft into the proc
%    force {pop pop red} ?   or set them as global variables?
% 2) not just Plain, but also Twill; left and right, on both warp and weft
% 3) the weave looks very flat-strips ... could I use a sideways shadow
%    to make it look more like an approximately cylindrical thread ?
%%EndComments
%%BeginProlog
(/home/pjb/ps/lib/colours.ps) run
/xmax currentpagedevice (PageSize) get 0 get def
/ymax currentpagedevice (PageSize) get 1 get def
/xmid xmax 0.5 mul def    /ymid ymax 0.5 mul def

/WarpNum 0 def   /WeftNum 0 def   /IsWarp true def
/RoundThread true def   /TopRight false def
/threadlet {
   % when drawing 4 threadlets in a square, every threadlet has
   % to be painted AFTER the one perpendicular to its midpoint.
   % So I paint all the rectfills first, then paint all the strokes.
   10 dict begin   % this can hold up to ten new local variables
      /onlyfill exch def   % rectfills or strokes ?
      /colour exch def
      [ /is_warp /width /len /y /x ] { exch def } forall
      % should angle be a boolean meaning warp or weft ?
      % angle 45 gt { /IsWarp false def } { /IsWarp true def } ifelse
      is_warp {
        /angle  0 def  /IsWarp true def
      } {
        /angle 90 def  /IsWarp false def
      } ifelse
      gsave   x y translate   angle rotate
        onlyfill { % the body of the treadlet
          colour setrgbcolor
          width -0.5 mul  len -0.5 mul  width  len rectfill
          % the shadow on the side of the threadlet
          colour 0.7 black 0.3 rgbmix setrgbcolor
          RoundThread {
            width -.5 mul len -0.5 mul width 0.25 mul len rectfill
          } if
          % the shadows at the ends of the threadlet
          is_warp not TopRight and {
            width -0.5 mul  len -0.5 mul  width  width  0.3  mul rectfill
            width -0.5 mul  len  0.5 mul  width  width -0.16 mul rectfill
          } {
            width -0.5 mul  len -0.5 mul  width  width  0.16 mul rectfill
            width -0.5 mul  len  0.5 mul  width  width -0.3  mul rectfill
          } ifelse
        } {   % the lines at the edges
          width 0.07 mul setlinewidth   black setrgbcolor
          width -0.5 mul len  0.5 mul moveto
          width -0.5 mul len -0.5 mul lineto stroke
          width  0.5 mul len -0.5 mul moveto
          width  0.5 mul len  0.5 mul lineto stroke
        } ifelse
      grestore
   end
} def

/plain_weave {
   20 dict begin   % this can hold up to ten new local variables
      /colour_proc exch def
     [ /width /len /ywidth /xwidth /ymin /xmin ] { exch def } forall
     /delta width len add def   /halfdelta delta 0.5 mul def
     [ true false ] { /onlyfill exch def
       /WarpNum 0 def
       xmin  delta  xmin xwidth add {  /x exch def
         /WeftNum 0 def
         ymin  delta  ymin ywidth add {  /y exch def
           x        y        len width true {colour_proc} onlyfill threadlet
           /WeftNum WeftNum 1 add def
           x y halfdelta add len width false {colour_proc} onlyfill threadlet
           /WeftNum WeftNum 1 add def
         } for
         /x x halfdelta add def
         /WarpNum WarpNum 1 add def
         /WeftNum 0 def
         ymin  delta  ymin ywidth add {  /y exch def
           x       y        len width false {colour_proc} onlyfill threadlet
           /WeftNum WeftNum 1 add def
           x y halfdelta add len width true {colour_proc} onlyfill threadlet
           /WeftNum WeftNum 1 add def
         } for
         /WarpNum WarpNum 1 add def
       } for
     } forall
   end
} def
%%EndProlog

%%Page: 1 1
%%BeginPageSetup
%%EndPageSetup
/l xmid 0.185 mul def
/TopRight false def
.95 dup dup setrgbcolor 0 0 xmax ymax rectfill
50 50  xmax 100 sub ymax 100 sub  l l 2.5 div  { palebrown } plain_weave
showpage

%%Page: 2 2
%%BeginPageSetup
%%EndPageSetup
/l xmid 0.185 mul def
/TopRight true def
.95 dup dup setrgbcolor 0 0 xmax ymax rectfill
50 50  xmax 100 sub ymax 100 sub  l l 2.5 div  { palebrown } plain_weave
showpage

%%Page: 3 3
%%BeginPageSetup
%%EndPageSetup
/l xmid 0.185 mul def
/TopRight false def
.95 dup dup setrgbcolor 0 0 xmax ymax rectfill
/HelveticaBold ymax 0.82 mul selectfont   red setrgbcolor
xmax 0.15 mul ymax 0.185 mul moveto  (?) show
50 50  xmax 100 sub ymax 100 sub  l l 2.5 div  { palebrown } plain_weave
showpage

%%Page: 4 4
%%BeginPageSetup
%%EndPageSetup
/l xmid 0.060 mul def
.45 dup dup setrgbcolor 0 0 xmax ymax rectfill
50 50  xmax 100 sub  ymax 100 sub  l  l 2.2 div
{
  IsWarp {
    WarpNum 10 mod 5 ge { pink } { 0.7 0.7 1 } ifelse
  } {
    WeftNum 10 mod 5 ge { pink 0.7 red 0.3 rgbmix } { 0.8 0.8 1 } ifelse
  } ifelse
} plain_weave
showpage

%%Page: 5 5
%%BeginPageSetup
%%EndPageSetup
/l xmid 0.055 mul def
.75 dup dup setrgbcolor 0 0 xmax ymax rectfill
50 55  xmax 100 sub ymax 110 sub  l l 2.5 div
{
  IsWarp {
    WarpNum 10 mod 5 ge { white } { black } ifelse
  } {
    WeftNum 10 mod 5 ge { white } { black } ifelse
  } ifelse
} plain_weave
showpage

%%EOF
