%!PS-Adobe-3.0 EPSF-3.0
%%BoundingBox: 0 0 2000 2828
%%%%%%%%%%%%%%%%%%%%%%%%%%%%%%%%%%%%%%%%%%%%%%%%%%%%%%%%%%%%%%%%%%%%%%%%%%
%            This EPS is Copyright (c) 2020, Peter J Billam              %
% It is under the Creative Commons Attribution 4.0 International licence %
% so you may share, and may adapt, provided you give attribution, and do %
% not impose extra restricions.       http://pjb.com.au/mus/avail.html   %
%%%%%%%%%%%%%%%%%%%%%%%%%%%%%%%%%%%%%%%%%%%%%%%%%%%%%%%%%%%%%%%%%%%%%%%%%%
/xmax 2000 def  /ymax 2828 def
/xmid xmax 0.5 mul def  /ymid ymax 0.5 mul def
(/home/pjb/ps/lib/fonts.ps) run

% (/home/pjb/ps/lib/text.ps) run
  /centrexshow {  % usage: x y font fontsize (string) centrexshow
    7 dict begin
      [ /s /fontsize /font /y /x ] { exch def } forall
      gsave font fontsize selectfont
      s stringwidth /s_height exch def /s_width exch def  % 2D! 20160607
      x s_width  0.5 mul sub  y s_height 0.5 mul sub  moveto s show grestore
    end
  } bind def

% (/home/pjb/ps/lib/colours.ps) run
%%EndComments
%%BeginProlog
%%EndProlog
/runictext {
10 dict begin
/dy ymax 21.2 div def
/lmar xmax 0.01 mul def
/Runic dy selectfont
lmar ymax dy sub moveto 0.3 0 (haus feld garten in aus warm kalt) ashow
lmar ymax dy  2 mul sub moveto (feuer kuk futter bett kid stool) show
lmar ymax dy  3 mul sub moveto 0.4 0 (ground erde gras water wind kuh) ashow
lmar ymax dy  4 mul sub moveto (sun moon star wetter regen snow) show
lmar ymax dy  5 mul sub moveto 0.7 0 (heim man weib eat trink lofe rast) ashow
lmar ymax dy  6 mul sub moveto 0.4 0 (wake work hard kuhl sheep birth) ashow
lmar ymax dy  7 mul sub moveto 0.5 0 (lamb mutter well tag night light) ashow
lmar ymax dy  8 mul sub moveto -0.3 0 (nightingale see hear sehen zweig) ashow
lmar ymax dy  9 mul sub moveto (hand hold finger nose auge mund) show
lmar ymax dy 10 mul sub moveto 1.8 0 (feet walk near horse ride paths) ashow
lmar ymax dy 11 mul sub moveto 0.5 0 (wood far near horse saddle ride) ashow
lmar ymax dy 12 mul sub moveto (friend willkommen neighbour rest) show
lmar ymax dy 13 mul sub moveto (hen egg eat hear news auslander) show
lmar ymax dy 14 mul sub moveto (eisen helmet fight swords death) show
lmar ymax dy 15 mul sub moveto 0.9 0 (troops weapons bronz shields new) ashow
lmar ymax dy 16 mul sub moveto 0.5 0 (one lone god must learn no old) ashow
lmar ymax dy 17 mul sub moveto -0.4 0 (gotter no wotan no erda no freia) ashow
lmar ymax dy 18 mul sub moveto -0.2 0 (no more old gods and new writing) ashow
lmar ymax dy 19 mul sub moveto 0.2 0 (runes must go must foreign write) ashow
lmar ymax dy 20 mul sub moveto -0.2 0 (unser king gebt auf no good news) ashow
lmar ymax dy 21 mul sub moveto -1.0 0 (we mussen aufgeben one lone god) ashow
end
} bind def

runictext

gsave
/margin xmax 0.07 mul def
margin margin moveto
xmax 0.498 mul ymax 0.53 mul lineto
xmax margin sub margin lineto
xmax 0.57 mul ymax 0.22 mul lineto xmax 0.57 mul 0 lineto
xmax 0.43 mul 0 lineto xmax 0.43 mul ymax 0.22 mul lineto
closepath clip
0.85 0 0 setrgbcolor 0 0 xmax ymax 0.6 mul rectfill
1 1 1 setrgbcolor runictext
grestore

gsave
(Cantarell-ExtraBold) ymax 0.047 mul selectfont
xmax 0.405  mul ymax 0.389 mul moveto (NORD) true charpath
(Cantarell-ExtraBold) ymax 0.050 mul selectfont
xmax 0.370  mul ymax 0.339 mul moveto (MARCH) true charpath
(Cantarell-ExtraBold) ymax 0.053 mul selectfont
xmax 0.32  mul ymax 0.292 mul moveto (CONVERT) true charpath
xmax 0.296 mul ymax 0.245 mul moveto (HEATHENS) true charpath
xmax 0.275 mul ymax 0.198 mul moveto (LD) true charpath
xmax 0.641 mul ymax 0.198 mul moveto (AD) true charpath clip
0.2 0 0 setrgbcolor 0 0 xmax ymax 0.6 mul rectfill
1 1 1 setrgbcolor runictext
grestore

%%EOF
