%!PS-Adobe-3.0 EPSF-3.0
%%BoundingBox: 0 0 2000 2828
%%%%%%%%%%%%%%%%%%%%%%%%%%%%%%%%%%%%%%%%%%%%%%%%%%%%%%%%%%%%%%%%%%%%%%%%%%
%            This EPS is Copyright (c) 2020, Peter J Billam              %
% It is under the Creative Commons Attribution 4.0 International licence %
% so you may share, and may adapt, provided you give attribution, and do %
% not impose extra restricions.       http://pjb.com.au/mus/avail.html   %
%%%%%%%%%%%%%%%%%%%%%%%%%%%%%%%%%%%%%%%%%%%%%%%%%%%%%%%%%%%%%%%%%%%%%%%%%%
/xmax 2000 def  /ymax 2828 def
/xmid xmax 0.5 mul def  /ymid ymax 0.5 mul def
(/home/pjb/ps/lib/fonts.ps) run
(/home/pjb/ps/lib/text.ps) run
(/home/pjb/ps/lib/random.ps) run
(/home/pjb/ps/lib/colours.ps) run
(/home/pjb/ps/lib/transforms.ps) run
%%EndComments
%%BeginProlog
%%EndProlog
200 srand
/horizon ymax 0.65 mul def    % phi = golden ratio = 1.6180339887 ...
/human {   % x y human   % the colour & saturation get set automatically
  10 dict begin
  [ /y /x ] { exch def } forall
  /maxfntsz xmax 0.15 mul def
  y horizon le {
    /fntsz   horizon y sub horizon div maxfntsz mul def
    /below_horizon 1.0  horizon y sub horizon div  sub def
	% 0.9 mul  0.1 sub setgray
    /purecolour
      [ red 0 0 .7 darkgreen orange violet ]  randomrgbget
    rgbdef
    .9 .9 .9 below_horizon purecolour 1 below_horizon sub rgbmix setrgbcolor
    (FatSpiky) fntsz selectfont
      x y moveto  (\334) show
    (FatSpiky) fntsz neg 1.3 mul selectfont
      x fntsz 0.83 mul add  y fntsz 0.05 mul sub moveto  (Y) show
  } if
  end
} def
/n_humans 200 def
/lower_margin horizon 0.07 mul def
% the tree-trunk
%xmid 0.985 mul horizon 0.35 mul  xmid 0.03 mul horizon 0.7 mul
%  white  green .8 darkgreen .2 rgbmix  true -0.9   rectgradientfill
xmid 0.985 mul horizon 0.35 mul  xmid 0.03 mul horizon 0.7 mul
  white  brown 0.5 white 0.5 rgbmix  true -0.8   rectgradientfill
0 1 n_humans { /i exch def
  /y_scaled i n_humans div  2.5 exp  def
  xmax 0.91 mul irand
  % horizon horizon 0.99 mul irand sub horizon div  abs sqrt
  % Error: /undefinedresult in --setcachedevice--
  % Operand stack:    850   0   0   0   750   950
  % p.492             wx   wy  llx llr  urx   ury  setcachedevice
  % horizon mul
  % must loop downwards from the horizon, so the near humans appear in front:
  horizon  horizon lower_margin sub y_scaled mul  sub  lower_margin add
  human
} for
% https://genius.com/The-who-wont-get-fooled-again-lyrics
gsave
/tran { 10 dict begin [ /y /x ] { exch def } forall
  /r y 4.5 mul def /theta x xmid sub xmid div 180 mul neg 4 add def
  % [(r = ) r (  theta = ) theta (\n) ] warn
  theta cos r mul xmid add
  theta sin r mul horizon add % ymax horizon sub mul
end } def
% /Delphine ymax 0.045 mul selectfont green setrgbcolor
% xmax .12 mul  ymax 0.075 mul moveto (no) true charpath
% /tran ctransform fill
% xmax .36 mul  ymax 0.075 mul moveto (no) true charpath
% /tran ctransform fill
/Delphine ymax 0.050 mul selectfont green setrgbcolor
xmax 0.005 mul ymax 0.05 mul moveto (Don't Get Fooled Again) true charpath
/tran ctransform fill
/Delphine ymax 0.020 mul selectfont green .8 darkgreen .2 rgbmix setrgbcolor
xmax 0.18 mul  ymax 0.035 mul moveto (Meet the new boss) true charpath
/tran ctransform fill
/Delphine ymax 0.014 mul selectfont green .6 darkgreen .4 rgbmix setrgbcolor
xmax 0.20 mul  ymax 0.025 mul moveto (same as the old boss) true charpath
/tran ctransform fill
/Delphine ymax 0.010 mul selectfont green .4 darkgreen .6 rgbmix setrgbcolor
xmax 0.24 mul  ymax 0.017 mul moveto (N o ! n o !) true charpath
/tran ctransform fill
/Delphine ymax 0.007 mul selectfont green .6 darkgreen .4 rgbmix setrgbcolor
xmax 0.25 mul  ymax 0.010 mul moveto (N o ! n o !) true charpath
/tran ctransform fill
grestore

%%EOF
