%!PS-Adobe-3.0 EPSF-3.0
%%BoundingBox: 0 0 2000 2828
%%%%%%%%%%%%%%%%%%%%%%%%%%%%%%%%%%%%%%%%%%%%%%%%%%%%%%%%%%%%%%%%%%%%%%%%%%
%            This EPS is Copyright (c) 2021, Peter J Billam              %
% It is under the Creative Commons Attribution 4.0 International licence %
% so you may share, and may adapt, provided you give attribution, and do %
% not impose extra restricions.      https://pjb.com.au/mus/avail.html   %
%%%%%%%%%%%%%%%%%%%%%%%%%%%%%%%%%%%%%%%%%%%%%%%%%%%%%%%%%%%%%%%%%%%%%%%%%%
/xmax 2000 def  /ymax 2828 def
/xmid xmax 0.5 mul def  /ymid ymax 0.5 mul def
%%EndComments
%%BeginProlog
(/home/pjb/ps/lib/text.ps) run
(/home/pjb/ps/lib/weave.ps) run
(/home/pjb/ps/lib/colours.ps) run
%%EndProlog

% Background ...
/beige      { .961 .961 .863 } def
/wheat      { .961 .871 .795 } def
/l xmid 0.040 mul def
/TopRight false def
/RelEdgeWidth 0.06 def
/EdgeColour .7 .5 .5 rgbdef
.30 dup dup setrgbcolor 0 0 xmax ymax rectfill
gsave [1 -.04 0 1.02 0 0] concat
% 0 0  xmax  ymax  l l 2.5 div  { palebrown 0.4 brown 0.6 rgbmix } plain_weave
0 0  xmax  ymax  l l 2.5 div  {
  /r_scaled x xmid sub abs xmid div 2.0 exp def
  0.6 0.5 0.4 r_scaled .83 .79 .73 1 r_scaled sub rgbmix
} plain_weave
grestore


/fsz ymax 0.14 mul def
gsave
  xmid ymax 0.58 mul translate   3 rotate
0 0.63 0 setrgbcolor
  0 ymax 0.15 mul /OCRABold fsz (THE) centrexshow
0 0.50 0 setrgbcolor
  0      0        /OCRABold fsz (FUTURE) centrexshow
0 0.37 0 setrgbcolor
  0 ymax -.15 mul /OCRABold fsz (IS) centrexshow
grestore
/label {
  20 dict begin   % this can hold up to twenty new local variables
    [ /width /centre_y /centre_x ] { exch def } forall
	/halfheight 0.5 def
    /rounding halfheight 0.07 mul def
	gsave
	  centre_x centre_y translate
	  width 0.5 mul dup scale
	  % -3 rotate   1 0.3 0.2 setrgbcolor
	  -3 rotate   1 0.2 0.2 setrgbcolor
	  -1 halfheight neg  2 halfheight 2 mul
        1 .5 .5 1 .2 .2 true 0.3 rectgradientfill
	  0 0 0 setrgbcolor
	  0 0.35 /HelveticaBold 0.14 (REDUCED FOR QUICK SALE) centrexshow
	  0 -0.08 /HelveticaBold .36 ($2) centrexshow
	  -0.94 -0.36 moveto /HelveticaBold .10 selectfont ( Was:  $1950) show
	  -0.94 -0.46 moveto /HelveticaBold .10 selectfont (SAVE: $1948) show
	  0.96 -0.36 /HelveticaBold .09 (Limited Time Only) rightshow
	  0.90 -0.46 /HelveticaBold .09 (ACT NOW !) rightshow
	grestore
  end
} def
xmid  ymax 0.26 mul  xmax 0.65 mul  label 

%%EOF
