%!PS-Adobe-3.0 EPSF-3.0
%%BoundingBox: 0 0 2000 2828
%%%%%%%%%%%%%%%%%%%%%%%%%%%%%%%%%%%%%%%%%%%%%%%%%%%%%%%%%%%%%%%%%%%%%%%%%%
%            This EPS is Copyright (c) 2021, Peter J Billam              %
% It is under the Creative Commons Attribution 4.0 International licence %
% so you may share, and may adapt, provided you give attribution, and do %
% not impose extra restricions.      https://pjb.com.au/mus/avail.html   %
%%%%%%%%%%%%%%%%%%%%%%%%%%%%%%%%%%%%%%%%%%%%%%%%%%%%%%%%%%%%%%%%%%%%%%%%%%
/xmax 2000 def  /ymax 2828 def
/xmid xmax 0.5 mul def  /ymid ymax 0.5 mul def
% LANGESOURIT    L'ange sourit
% ALORSGEINTU    Alors geint un
% NGLASTIREOU    glas tiré où
% GRELOTASUNI    grelot a su nier salut
% ERSALUTONGI    On gisait.
% SAITOLURNEG
% OURAGTLESIG    O, l'urne, gourant le si guignart,
% UINGARTLESO    le sorti sang, 
% RTISANGELUO    élu, oint, eu, gras
% INTEUGRASLO    lotion à sûr gel !
% TIONASURGEL
%   -- Alphabets, George Perec
%  The angel smiles
% There moans a
% tocsin rung where a
% cowbell could deny salvation
% We lay at rest.
% O urn ! misleading the unlucky B,
% lost blood,
% the elect, the annointed, the had, the fat,
% lotion sure to freeze !
%%EndComments

%%BeginProlog
/centrexshow {  % usage: x y font fontsize (string) centrexshow
  7 dict begin
    [ /s /fontsize /font /y /x ] { exch def } forall
    gsave font fontsize selectfont
    s stringwidth /s_height exch def /s_width exch def  % 2D! 20160607
    x s_width  0.5 mul sub  y s_height 0.5 mul sub  moveto s show grestore
  end
} bind def
/rightshow {    % usage: x y font fontsize (string) rightshow
  5 dict begin
    [ /s /fontsize /font /y /x ] { exch def } forall
    gsave font findfont  fontsize scalefont  setfont
    % x s stringwidth pop sub  y   % bad pop!  (woosh-fonts...)
    x s stringwidth 3 1 roll  %  ys x xs
      sub exch   % xfinal ys
      y exch sub
      moveto s show grestore
  end
} bind def

/poem [
  (LANGESOURIT) (ALORSGEINTU) (NGLASTIREOU) (GRELOTASUNI) (ERSALUTONGI)
  (SAITOLURNEG) (OURANTLESIG) (UIGNARTLESO) (RTISANGELUO) (INTEUGRASLO)
  (TIONASURGEL)
] def
%%EndProlog

/dx xmax 12 div def
/dy ymax 12 div def
/fs dy 1.25 mul def
0 1 10 { /iy exch def
  /y ymax 12 div 10.45 iy sub mul def
  0 1 10 { /ix exch def
    ix 0 eq  iy 0 eq or {
      0.8 0 0 setrgbcolor
    } {
      0 0 0 setrgbcolor
    } ifelse
    ix iy eq { 1 0 0 setrgbcolor } if
    /c poem iy get ix 1 getinterval def
	gsave
      dx ix 1 add mul  y  translate
     c (O) eq { 0.8 1 scale } if
     c (I) eq { 1.2 1 scale } if
	  0 0 /MarketDeco fs c centrexshow
	grestore
  } for
} for

/Delphine dy 0.25 mul selectfont
/y dy 11.64 mul def
0.6 dup dup setrgbcolor
dx  y moveto (Georges Perec) show
% xmid  y /Delphine dy 0.25 mul (Alphabets) centrexshow
dx 11 mul  y /Delphine dy 0.25 mul (Alphabets) rightshow

%%EOF
