%!PS-Adobe-3.0 EPSF-3.0
%%BoundingBox: 0 0 1600 900
%%%%%%%%%%%%%%%%%%%%%%%%%%%%%%%%%%%%%%%%%%%%%%%%%%%%%%%%%%%%%%%%%%%%%%%%%%
%            This EPS is Copyright (c) 2021, Peter J Billam              %
% It is under the Creative Commons Attribution 4.0 International licence %
% so you may share, and may adapt, provided you give attribution, and do %
% not impose extra restricions.      https://pjb.com.au/mus/avail.html   %
%%%%%%%%%%%%%%%%%%%%%%%%%%%%%%%%%%%%%%%%%%%%%%%%%%%%%%%%%%%%%%%%%%%%%%%%%%
/xmax 1600 def  /ymax 900 def
/xmid xmax 0.5 mul def  /ymid ymax 0.5 mul def
%%EndComments
%%BeginProlog
%%EndProlog
gsave  xmax 0.01 mul ymax 0.80 mul translate  1.06 1 scale
  (ArtNouveauCaps) xmax 0.130 mul selectfont
  0 0 moveto  (REMEMBER) show
grestore
% gsave  xmax 0.01 mul ymax 0.545 mul translate  1 1.36 scale
gsave  xmax 0.01 mul ymax 0.545 mul translate  1.01 1.41 scale
  (ArtNouveauCaps) xmax 0.137 mul selectfont
  0 0 moveto  (REMEMBER) show
grestore
% gsave  xmax 0.01 mul ymax 0.28 mul translate  1 1.76 scale
gsave  xmax 0.01 mul ymax 0.275 mul translate  1 1.89 scale
  (ArtNouveauCaps) xmax 0.108 mul selectfont
  0 0 moveto  (FIFTEENTH OF) show
grestore
% gsave  xmax 0.01 mul ymax 0.04 mul translate  1 1.38 scale
gsave  xmax 0.01 mul ymax 0.04 mul translate  1 1.40 scale
  (ArtNouveauCaps) xmax 0.129 mul selectfont
  0 0  moveto  (DECEMBER) show
grestore
gsave  xmax 0.94 mul ymax 0.04 mul translate  1 2.3 scale
  (ArtNouveauCaps) xmax 0.125 mul selectfont
  0 0  moveto  (!) show
grestore
%%EOF
