%!PS-Adobe-3.0 EPSF-3.0
%%BoundingBox: 0 0 2000 2828
%%%%%%%%%%%%%%%%%%%%%%%%%%%%%%%%%%%%%%%%%%%%%%%%%%%%%%%%%%%%%%%%%%%%%%%%%%
%            This EPS is Copyright (c) 2020, Peter J Billam              %
% It is under the Creative Commons Attribution 4.0 International licence %
% so you may share, and may adapt, provided you give attribution, and do %
% not impose extra restricions.       http://pjb.com.au/mus/avail.html   %
%%%%%%%%%%%%%%%%%%%%%%%%%%%%%%%%%%%%%%%%%%%%%%%%%%%%%%%%%%%%%%%%%%%%%%%%%%
/xmax 2000 def  /ymax 2828 def
/xmid xmax 0.5 mul def  /ymid ymax 0.5 mul def
% (/home/pjb/ps/lib/fonts.ps) run
% (/home/pjb/ps/lib/text.ps) run
(/home/pjb/ps/lib/colours.ps) run
%%EndComments
%%BeginProlog
%%EndProlog
gsave
  xmid ymid translate 270 rotate
/y1 ymax -.12 mul def  /y2 ymax 0.12 mul def
/r1 ymax 0.30 mul def  /r2 ymax 0.30 mul def
/w1 ymax 0.25 mul def  /w2 ymax 0.25 mul def
% /w1 r1 1.1 mul def     /w2 r2 1.1 mul def
3 setlinewidth % xmax 900 div setlinewidth
2 5 359 { /angle exch def
  angle colorwheel setrgbcolor
  /angp1 angle 1 add def
  angle 179 lt {
    /waist xmid 1.2 mul  angle mul  180 div def
  } {
    /waist xmid 1.2 mul  angle 180 sub mul 180 div
	  xmid 1.1 mul  sub def
  } ifelse
  newpath
  0 y1 moveto
  r1 angle sin mul  y1 r1 angle cos mul add
    waist w1 neg   waist 0  curveto
  waist w2
    r2 angle sin mul y2 r2 angle cos mul sub
    0 y2 curveto
  stroke
} for
grestore

%%EOF
