%!PS-Adobe-3.0 EPSF-3.0
%%BoundingBox: 0 0 2828 2000
%%%%%%%%%%%%%%%%%%%%%%%%%%%%%%%%%%%%%%%%%%%%%%%%%%%%%%%%%%%%%%%%%%%%%%%%%%
%            This EPS is Copyright (c) 2021, Peter J Billam              %
% It is under the Creative Commons Attribution 4.0 International licence %
% so you may share, and may adapt, provided you give attribution, and do %
% not impose extra restricions.      https://pjb.com.au/mus/avail.html   %
%%%%%%%%%%%%%%%%%%%%%%%%%%%%%%%%%%%%%%%%%%%%%%%%%%%%%%%%%%%%%%%%%%%%%%%%%%
/xmax 2828 def  /ymax 2000 def
/xmid xmax 0.5 mul def  /ymid ymax 0.5 mul def
% LANGESOURIT    L'ange sourit
% ALORSGEINTU    Alors geint un
% NGLASTIREOU    glas tiré où
% GRELOTASUNI    grelot a su nier salut
% ERSALUTONGI    On gisait.
% SAITOLURNEG
% OURAGTLESIG    O, l'urne, gourant le si guignart,
% UINGARTLESO    le sorti sang, 
% RTISANGELUO    élu, oint, eu, gras
% INTEUGRASLO    lotion à sûr gel !
% TIONASURGEL
%   -- Alphabets, George Perec
%  The angel smiles
% There moans a
% tocsin rung where a
% cowbell could deny salvation
% We lay at rest.
% O urn ! misleading the unlucky B,
% lost blood,
% the elect, the annointed, the had, the fat,
% lotion sure to freeze !
%%EndComments

%%BeginProlog
/centrexshow {  % usage: x y font fontsize (string) centrexshow
  7 dict begin
    [ /s /fontsize /font /y /x ] { exch def } forall
    gsave font fontsize selectfont
    s stringwidth /s_height exch def /s_width exch def  % 2D! 20160607
    x s_width  0.5 mul sub  y s_height 0.5 mul sub  moveto s show grestore
  end
} bind def
/rightshow {    % usage: x y font fontsize (string) rightshow
  5 dict begin
    [ /s /fontsize /font /y /x ] { exch def } forall
    gsave font findfont  fontsize scalefont  setfont
    % x s stringwidth pop sub  y   % bad pop!  (woosh-fonts...)
    x s stringwidth 3 1 roll  %  ys x xs
      sub exch   % xfinal ys
      y exch sub
      moveto s show grestore
  end
} bind def
/Times-Roman findfont dup length dict begin
  { 1 index /FID ne { def } { pop pop } ifelse } forall
  /Encoding ISOLatin1Encoding def currentdict
end /Times-Roman-ISO exch definefont pop
/Times-Italic findfont dup length dict begin
  { 1 index /FID ne { def } { pop pop } ifelse } forall 
  /Encoding ISOLatin1Encoding def currentdict
end /Times-Italic-ISO exch definefont pop

/poem [
  (LANGESOURIT) (ALORSGEINTU) (NGLASTIREOU) (GRELOTASUNI) (ERSALUTONGI)
  (SAITOLURNEG) (OURANTLESIG) (UIGNARTLESO) (RTISANGELUO) (INTEUGRASLO)
  (TIONASURGEL)
] def
%%EndProlog

/dx ymax 15 div def
/dy ymax 12 div def
/fs dy 1.25 mul def
0 1 10 { /iy exch def
  /y ymax 12 div 10.45 iy sub mul def
  0 1 10 { /ix exch def
    ix 0 eq  iy 0 eq or {
      0.8 0 0 setrgbcolor
    } {
      0 0 0 setrgbcolor
    } ifelse
    ix iy eq { 1 0 0 setrgbcolor } if
    /c poem iy get ix 1 getinterval def
	gsave
      dx ix 1 add mul  y  translate
     c (O) eq { 0.8 1 scale } if
     c (I) eq { 1.2 1 scale } if
	  0 0 /MarketDeco fs c centrexshow
	grestore
  } for
} for


/x  ymax 0.8 mul def
/dy ymax 24 div def
/y ymax dy 2 mul sub def
/Times-Roman-ISO dy 1.05 mul selectfont
0.5 dup dup setrgbcolor
x  y moveto (L'ange sourit.) show  /y y dy sub def
x  y moveto (Alors geint un) show  /y y dy sub def
x  y moveto (glas tiré où) show  /y y dy sub def
x  y moveto (grelot a su nier salut.) show  /y y dy sub def
x  y moveto (On gisait.) show  /y y dy 1.6 mul sub def
x  y moveto (O, l'urne, gourant le si guignart,) show  /y y dy sub def
x  y moveto (le sorti sang,) show  /y y dy sub def
x  y moveto (élu, oint, eu, gras) show  /y y dy sub def
x  y moveto (lotion à sûr gel !) show  /y y dy 2.6 mul sub def
/dy ymax 30 div def
/xr x dy add def
/Times-Italic dy selectfont
xr y moveto (The angel smiles.) show  /y y dy sub def
xr y moveto (There moans a) show  /y y dy sub def
xr y moveto (tocsin rung where a) show  /y y dy sub def
xr y moveto (cowbell could deny salvation.) show  /y y dy sub def
xr y moveto (We lay at rest.) show  /y y dy 1.6 mul sub def
xr y moveto (O urn ! misleading the unlucky B,) show  /y y dy sub def
xr y moveto (lost blood,) show  /y y dy sub def
xr y moveto (the elect, the annointed, the had, the fat,) show  /y y dy sub def
xr y moveto (lotion sure to freeze !) show  /y y dy sub def
% L'ange sourit
% Alors geint un
% glas tiré où
% grelot a su nier salut
% On gisait.
% 
% O, l'urne, gourant le si guignart,
% le sorti sang, 
% élu, oint, eu, gras
% lotion à sûr gel !
% 
% The angel smiles
% There moans a
% tocsin rung where a
% cowbell could deny salvation
% We lay at rest.
% O urn ! misleading the unlucky B,
% lost blood,
% the elect, the annointed, the had, the fat,
% lotion sure to freeze !

/dy ymax 25 div def
/Times-Roman-ISO dy selectfont
x  dy moveto (Georges Perec     Alphabets) show
% xmid  y /Delphine dy 0.25 mul (Alphabets) centrexshow
xmax dy sub dy /Times-Roman-ISO dy (1976) rightshow


%%EOF
