%!PS-Adobe-3.0 EPSF-3.0
%%BoundingBox: 0 0 55 375
%%%%%%%%%%%%%%%%%%%%%%%%%%%%%%%%%%%%%%%%%%%%%%%%%%%%%%%%%%%%%%%%%%%%%%%%%%
%            This EPS is Copyright (c) 2021, Peter J Billam              %
% It is under the Creative Commons Attribution 4.0 International licence %
% so you may share, and may adapt, provided you give attribution, and do %
% not impose extra restricions.      https://pjb.com.au/mus/avail.html   %
%%%%%%%%%%%%%%%%%%%%%%%%%%%%%%%%%%%%%%%%%%%%%%%%%%%%%%%%%%%%%%%%%%%%%%%%%%
/xmax 45 def  /ymax 375 def
/xmid xmax 0.5 mul def  /ymid ymax 0.5 mul def
%%EndComments
%%BeginProlog
/centrexshow {  % usage: x y font fontsize (string) centrexshow
  7 dict begin
    [ /s /fontsize /font /y /x ] { exch def } forall
    gsave font fontsize selectfont
    s stringwidth /s_height exch def /s_width exch def  % 2D! 20160607
    x s_width  0.5 mul sub  y s_height 0.5 mul sub  moveto s show grestore
  end
} bind def
%%EndProlog
/dy ymax 12 div def
/fs dy 1.15 mul def
0.6 dup dup setrgbcolor
0 1 10 { /iy exch def
  /y ymax 12 div 10.45 iy sub mul def
  /c (EXPLANATION) iy 1 getinterval def
  gsave
    xmid y  translate
    c (O) eq { 0.8 1 scale } if
    0 0 /MarketDeco fs c centrexshow
  grestore
} for
%%EOF
