%!PS-Adobe-3.0 EPSF-3.0
%%BoundingBox: 0 0 2828 2000
%%%%%%%%%%%%%%%%%%%%%%%%%%%%%%%%%%%%%%%%%%%%%%%%%%%%%%%%%%%%%%%%%%%%%%%%%%
%            This EPS is Copyright (c) 2020, Peter J Billam              %
% It is under the Creative Commons Attribution 4.0 International licence %
% so you may share, and may adapt, provided you give attribution, and do %
% not impose extra restricions.       http://pjb.com.au/mus/avail.html   %
%%%%%%%%%%%%%%%%%%%%%%%%%%%%%%%%%%%%%%%%%%%%%%%%%%%%%%%%%%%%%%%%%%%%%%%%%%
/xmax 2828 def  /ymax 2000 def
/xmid xmax 0.5 mul def  /ymid ymax 0.5 mul def
(/home/pjb/ps/lib/fonts.ps) run
% (/home/pjb/ps/lib/text.ps) run
(/home/pjb/ps/lib/colours.ps) run
%%EndComments
%%BeginProlog
%%EndProlog
0 0 xmax ymax black blue true 0.3 rectgradientfill
/dy xmax 21.5 div def
/lmar xmax 0.01 mul def
/Runic dy 1.0 mul selectfont
%lmar ymax dy sub moveto 0.3 0 (haus feld garten in aus warm kalt) ashow
%lmar ymax dy  2 mul sub moveto (feuer kuk futter bett kid stool) show
%lmar ymax dy  3 mul sub moveto 0.4 0 (ground erde gras water wind kuh) ashow
%lmar ymax dy  4 mul sub moveto (sun moon star wetter regen snow) show
%lmar ymax dy  5 mul sub moveto 0.7 0 (heim man weib eat trink lofe rast) ashow
%lmar ymax dy  6 mul sub moveto 0.4 0 (wake work hard kuhl sheep birth) ashow
%lmar ymax dy  7 mul sub moveto 0.5 0 (lamb mutter well tag night light) ashow
%lmar ymax dy  8 mul sub moveto -0.3 0 (nightingale see hear sehen zweig) ashow
%lmar ymax dy  9 mul sub moveto (hand hold finger nose auge mund) show
%lmar ymax dy 10 mul sub moveto 1.8 0 (feet walk near horse ride paths) ashow
%lmar ymax dy 11 mul sub moveto 0.5 0 (wood far near horse saddle ride) ashow
%lmar ymax dy 12 mul sub moveto (friend willkommen neighbour rest) show
%lmar ymax dy 13 mul sub moveto (hen egg eat hear news auslander) show
%lmar ymax dy 14 mul sub moveto (eisen helmet fight swords death) show
%lmar ymax dy 15 mul sub moveto 0.9 0 (troops weapons bronz shields new) ashow
%lmar ymax dy 16 mul sub moveto 0.5 0 (one lone god must learn no old) ashow
%lmar ymax dy 17 mul sub moveto -0.4 0 (gotter no wotan no erda no freia) ashow
%lmar ymax dy 18 mul sub moveto -0.2 0 (no more old gods and new writing) ashow
%lmar ymax dy 19 mul sub moveto 0.2 0 (runes must go must foreign write) ashow
%lmar ymax dy 20 mul sub moveto -0.2 0 (unser king gebt auf no good news) ashow
%lmar ymax dy 21 mul sub moveto -1.0 0 (we mussen aufgeben one lone god) ashow
% see hear sehen zweig hand hold finger nose auge
% mund feet walk near horse ride paths wood far
% near horse saddle ride friend willkommen neighbour
% rest hen egg eat hear news auslander eisen
% helmet fight swords death troops weapons bronz
% shields new one lone god

1 1 0 setrgbcolor
lmar ymax dy sub moveto
  -4.6 0 (haus feld garten in aus warm kalt feuer kuk futter) ashow
1 0.93 0 setrgbcolor
lmar ymax dy  2 mul sub moveto
  -2.0 0 (bett kid stool ground erde gras water wind kuh) ashow
1 0.86 0 setrgbcolor
lmar ymax dy  3 mul sub moveto
  1 0 (sun moon star wetter regen snow heim man weib) ashow
1 0.79 0 setrgbcolor
lmar ymax dy  4 mul sub moveto
  0 0 (eat trink lofe rast wake work hard kuhl sheep) ashow
1 0.72 0 setrgbcolor
lmar ymax dy  5 mul sub moveto
  -3.5 0 (birth lamb mutter well tag night light nightingale) ashow
1 0.65 0 setrgbcolor
lmar ymax dy  6 mul sub moveto
  3.3 0 (see hear sehen zweig hand hold finger nose) ashow
1 0.58 0 setrgbcolor
lmar ymax dy  7 mul sub moveto
  -2 0 (auge mund feet walk near horse ride paths wood) ashow
1 0.51 0 setrgbcolor
lmar ymax dy  8 mul sub moveto
  2.3 0 (paths wood far near horse saddle ride friend) ashow
1 0.44 0 setrgbcolor
lmar ymax dy  9 mul sub moveto
  3 0 (willkommen neighbour rest hen egg eat hear) ashow
1 0.37 0 setrgbcolor
lmar ymax dy 10 mul sub moveto
  -1 0 (news auslander eisen helmet fight swords death) ashow
1 0.30 0 setrgbcolor
lmar ymax dy 11 mul sub moveto
  -0.2 0 (troops weapons bronz shields new one lone god) ashow
1 0.23 0 setrgbcolor
lmar ymax dy 12 mul sub moveto
 -1.7 0 (god must learn no old gotter no wotan no erda) ashow
1 0.16 0 setrgbcolor
lmar ymax dy 13 mul sub moveto
 -0.8 0 (no freia no more old gods and new writing runes) ashow
1 0.08 0 setrgbcolor
lmar ymax dy 14 mul sub moveto
 0.7 0 (must go must foreign write unser king gebt auf) ashow
1 0 0 setrgbcolor
lmar ymax dy 15 mul sub moveto
 -0.7 0 (no good news we mussen aufgeben one lone god) ashow

%%EOF
