%!PS-Adobe-3.0 EPSF-3.0
%%BoundingBox: 0 0 2000 2828
%%%%%%%%%%%%%%%%%%%%%%%%%%%%%%%%%%%%%%%%%%%%%%%%%%%%%%%%%%%%%%%%%%%%%%%%%%
%            This EPS is Copyright (c) 2021, Peter J Billam              %
% It is under the Creative Commons Attribution 4.0 International licence %
% so you may share, and may adapt, provided you give attribution, and do %
% not impose extra restricions.      https://pjb.com.au/mus/avail.html   %
%%%%%%%%%%%%%%%%%%%%%%%%%%%%%%%%%%%%%%%%%%%%%%%%%%%%%%%%%%%%%%%%%%%%%%%%%%
/xmax 2000 def  /ymax 2828 def
/xmid xmax 0.5 mul def  /ymid ymax 0.5 mul def
%%EndComments
%%BeginProlog
(/home/pjb/ps/lib/text.ps) run
(/home/pjb/ps/lib/colours.ps) run
%%EndProlog

/beige      { .961 .961 .863 } def
/wheat      { .961 .871 .795 } def
% Background ...
% wheat setrgbcolor 0 0 xmax ymax rectfill
/points [ 100 141 % xmax 0.1 mul round ymax 0.1 mul round
  [20 14 beige] [80 28 wheat] [20 42 gray90] [80 56 beige]
  [20 70 wheat]   [80 84 gray90] [20 98 beige] [80 112 wheat]
] def
0 0 xmax ymax points 2.0 pointsgradientfill

0 0 0 setrgbcolor
/fsz ymax 0.14 mul def
xmid ymax 0.70 mul /OCRABold fsz (THE) centrexshow
xmid ymax 0.55 mul /OCRABold fsz (FUTURE) centrexshow
xmid ymax 0.40 mul /OCRABold fsz (IS) centrexshow
/label {
  20 dict begin   % this can hold up to twenty new local variables
    [ /width /centre_y /centre_x ] { exch def } forall
	/halfheight 0.5 def
	gsave
	centre_x centre_y translate
	width 0.5 mul dup scale
% 0 0 xmax 0.1 mul 0 360 arc fill
	-3 rotate   1 0 0 setrgbcolor
	-1 halfheight neg  2 halfheight 2 mul rectfill
	0 0 0 setrgbcolor
	0 0.35 /HelveticaBold 0.14 (REDUCED FOR QUICK SALE) centrexshow
	0 -0.08 /HelveticaBold .36 ($2) centrexshow
	-0.94 -0.36 moveto /HelveticaBold .10 selectfont ( Was:  $1950) show
	-0.94 -0.46 moveto /HelveticaBold .10 selectfont (SAVE: $1948) show
	0.96 -0.36 /HelveticaBold .09 (Limited Time Only) rightshow
	0.90 -0.46 /HelveticaBold .09 (ACT NOW !) rightshow
	grestore
  end
} def
xmid  ymax 0.26 mul  xmax 0.65 mul  label 

%%EOF
