%!PS-Adobe-3.0 EPSF-3.0
%%BoundingBox: 0 0 2000 2828
%%%%%%%%%%%%%%%%%%%%%%%%%%%%%%%%%%%%%%%%%%%%%%%%%%%%%%%%%%%%%%%%%%%%%%%%%%
%            This EPS is Copyright (c) 2020, Peter J Billam              %
% It is under the Creative Commons Attribution 4.0 International licence %
% so you may share, and may adapt, provided you give attribution, and do %
% not impose extra restricions.       http://pjb.com.au/mus/avail.html   %
%%%%%%%%%%%%%%%%%%%%%%%%%%%%%%%%%%%%%%%%%%%%%%%%%%%%%%%%%%%%%%%%%%%%%%%%%%
/xmax 2000 def  /ymax 2828 def
/xmid xmax 0.5 mul def  /ymid ymax 0.5 mul def
(/home/pjb/ps/lib/fonts.ps) run
%%EndComments
%%BeginProlog
/FatSpiky 120 selectfont
xmax 0.1 mul ymax 0.81 mul moveto (Anyone who has the) show
/FatSpiky 130 selectfont
xmax 0.1 mul ymax 0.73 mul moveto (power to make you) show
xmax 0.1 mul ymax 0.65 mul moveto (believe absurdities) show
/FatSpiky 140 selectfont
xmax 0.1 mul ymax 0.45 mul moveto (has the power to) show
/FatSpiky 150 selectfont
xmax 0.1 mul ymax 0.36 mul moveto (make you commit) show
/FatSpiky 227 selectfont
xmax 0.1 mul ymax 0.25 mul moveto (atrocities.) show
/FatSpiky 120 selectfont
xmax 0.30 mul ymax 0.10 mul moveto (Voltaire) show

%%EndProlog

%%EOF
