%!PS-Adobe-3.0 EPSF-3.0
%%BoundingBox: 0 0 3960 1160
% 192x52mm with 3mm margins is 198x58mm, at 20 point/mm
%%%%%%%%%%%%%%%%%%%%%%%%%%%%%%%%%%%%%%%%%%%%%%%%%%%%%%%%%%%%%%%%%%%%%%%%%%
%            This EPS is Copyright (c) 2020, Peter J Billam              %
% It is under the Creative Commons Attribution 4.0 International licence %
% so you may share, and may adapt, provided you give attribution, and do %
% not impose extra restricions.       http://pjb.com.au/mus/avail.html   %
%%%%%%%%%%%%%%%%%%%%%%%%%%%%%%%%%%%%%%%%%%%%%%%%%%%%%%%%%%%%%%%%%%%%%%%%%%
%%EndComments
%%BeginProlog
(/home/pjb/ps/lib/text.ps) run
(/home/pjb/ps/lib/fonts.ps) run
/xmax 3960 def  /ymax 1160 def
/xmid xmax 0.5 mul def    /ymid ymax 0.5 mul def
/margin 60 def
/white       { 1    1    1    } def
/lightgrey   { 0.9  0.9  0.9  } def /lightgray  { lightgrey } def
/grey        { 0.8  0.8  0.8  } def /gray       { grey }       def
/mediumgrey  { 0.7  0.7  0.7  } def /mediumgray { mediumgrey } def
/darkgrey    { 0.5  0.5  0.5  } def /darkgray   { darkgrey }   def
/black       { 0    0    0    } def
%%EndProlog

%%BeginPageSetup
%%EndPageSetup
/FatSimple findfont
dup length dict begin
  {1 index /FID ne {def} {pop pop} ifelse} forall
  /FontMatrix [ 0.001 0 -0.0010 0.001 0 0 ] def
  % [ a b c d tx ty ]
  % producing x' = ax + cy + tx  and  y' = bx + dy + ty
  currentdict
end
/FatSimpleAntitalic exch definefont pop

/rotateshow {   % x y font fontsize angle textstring rotateshow
  20 dict begin
  [ /textstring  /angle /fontsize /font /y/x ] { exch def } forall
  gsave
  x y translate
  0 0 moveto font fontsize selectfont
  textstring false charpath flattenpath pathbbox
  [ /ury /urx /lly /llx ] { exch def } forall
  /dx urx llx sub -0.5 mul def
  /dy ury lly sub -0.5 mul def
  angle rotate
  dx dy moveto
  textstring show
  grestore
  end
} def

/addtheclippath {
  newpath
  xmid -2 moveto
  xmax 0.1  mul ymax 0.2  mul lineto
  xmax 0.35 mul ymax 0.22 mul lineto
  xmax 0.2  mul ymax 0.5  mul lineto
  xmax 0.06 mul ymax 0.25 mul lineto
  xmax 0.15 mul ymax 0.55 mul lineto
  xmax 0.08 mul ymax 0.80 mul lineto
  xmax 0.3  mul ymax 0.43 mul lineto
  xmax 0.45 mul ymax 0.4  mul lineto
  xmax 0.18 mul ymax 0.88 mul lineto

  xmax 0.82 mul ymax 0.12 mul lineto
  xmax 0.55 mul ymax 0.6  mul lineto
  xmax 0.7  mul ymax 0.57 mul lineto
  xmax 0.92 mul ymax 0.20 mul lineto
  xmax 0.85 mul ymax 0.45  mul lineto
  xmax 0.94 mul ymax 0.75 mul lineto
  xmax 0.8  mul ymax 0.5  mul lineto
  xmax 0.65 mul ymax 0.78 mul lineto
  xmax 0.9  mul ymax 0.8  mul lineto
  xmid ymax 2 add lineto
  xmax ymax lineto
  xmax -2 lineto
  closepath clip
} def

/write {
  2 setlinewidth    % cutting guidelines
  0 60 moveto 25 60 lineto stroke
  60 0 moveto 60 25 lineto stroke
  0 ymax 60 sub moveto 25 ymax 60 sub lineto stroke
  60 ymax moveto 60 ymax 25 sub lineto stroke
  xmax 60 moveto xmax 25 sub 60 lineto stroke
  xmax 60 sub 0 moveto xmax 60 sub 25 lineto stroke
  xmax ymax 60 sub moveto xmax 25 sub ymax 60 sub lineto stroke
  xmax 60 sub ymax moveto xmax 60 sub ymax 25 sub lineto stroke

  margin 40 add ymax 0.82 mul  (TimesRoman) 50 90 (pjb.com.au) rotateshow
  xmax margin sub 40 sub ymax 0.18 mul (TimesRoman) 50 270 (pjb.com.au) rotateshow
  xmax 0.31 mul ymax 0.67 mul (FatSimpleAntitalic) 480 30 (NAN) rotateshow
  xmax 0.39 mul ymax 0.5  mul (FatSimpleItalic)    390 30 (INFTY) rotateshow
  xmax 0.62 mul ymax 0.65 mul (FatSimpleAntitalic) 480 30 (NA N) rotateshow
  xmax 0.71 mul ymax 0.5  mul (FatSimpleItalic)    390 30 (INFTY) rotateshow
  xmax 0.87 mul ymax 0.52 mul (FatSimpleAntitalic) 380 30 (NAN) rotateshow
  % xmax 0.8 mul ymax 0.4 mul (FatSimple) 500 -30 (N) rotateshow
} def

black setrgbcolor  0 0 xmax ymax rectfill
white setrgbcolor write

addtheclippath
white setrgbcolor  0 0 xmax ymax rectfill
black setrgbcolor write


%%EOF
