%!PS-Adobe-3.0 EPSF-3.0
%%BoundingBox: 0 0 3960 1160
% 192x52mm with 3mm margins is 198x58mm, at 20 point/mm
%%%%%%%%%%%%%%%%%%%%%%%%%%%%%%%%%%%%%%%%%%%%%%%%%%%%%%%%%%%%%%%%%%%%%%%%%%
%            This EPS is Copyright (c) 2020, Peter J Billam              %
% It is under the Creative Commons Attribution 4.0 International licence %
% so you may share, and may adapt, provided you give attribution, and do %
% not impose extra restricions.       http://pjb.com.au/mus/avail.html   %
%%%%%%%%%%%%%%%%%%%%%%%%%%%%%%%%%%%%%%%%%%%%%%%%%%%%%%%%%%%%%%%%%%%%%%%%%%
%%EndComments
%%BeginProlog
(/home/pjb/ps/lib/colours.ps) run
/xmax 3960 def  /ymax 1160 def
/xmid xmax 0.5 mul def    /ymid ymax 0.5 mul def
/margin 60 def
%%EndProlog

%%BeginPageSetup
%%EndPageSetup
/red 1.0 .3 .3 rgbdef
/violet violet 0.9 white 0.1 rgbmix rgbdef
/points [ 198 56
      [32 52 violet] [87 52 red] [139 52 orange] [191 52 violet]
  [9 3 red]   [61 3 orange] [113 3 violet] [165 3 red]
] def
0 0 xmax ymax points 2.0 pointsgradientfill

black setrgbcolor 2 setlinewidth    % cutting guidelines
0 60 moveto 25 60 lineto stroke
60 0 moveto 60 25 lineto stroke
0 ymax 60 sub moveto 25 ymax 60 sub lineto stroke
60 ymax moveto 60 ymax 25 sub lineto stroke
xmax 60 moveto xmax 25 sub 60 lineto stroke
xmax 60 sub 0 moveto xmax 60 sub 25 lineto stroke
xmax ymax 60 sub moveto xmax 25 sub ymax 60 sub lineto stroke
xmax 60 sub ymax moveto xmax 60 sub ymax 25 sub lineto stroke

%%EOF
