%!PS-Adobe-3.0 EPSF-3.0
%%BoundingBox: 0 0 2000 2828
%%%%%%%%%%%%%%%%%%%%%%%%%%%%%%%%%%%%%%%%%%%%%%%%%%%%%%%%%%%%%%%%%%%%%%%%%
%           This EPS is Copyright (c) 2019, Peter J Billam              %
% Permission is granted  to any individual or institution to use, copy, %
% modify or redistribute this software, so long as it is not resold for %
% profit, and provided this notice is retained. It is provided "as is", %
% without any express or implied warranty.        http://pjb.com.au     %
%%%%%%%%%%%%%%%%%%%%%%%%%%%%%%%%%%%%%%%%%%%%%%%%%%%%%%%%%%%%%%%%%%%%%%%%%
%%EndComments
%%BeginProlog
(/home/pjb/ps/lib/colours.ps) run
(/home/pjb/ps/lib/fonts.ps) run
/xmax 2000 def
/ymax 2828 def
/xmid xmax 0.5 mul def    /ymid ymax 0.5 mul def
%%EndProlog

%%BeginPageSetup
%%EndPageSetup
black setrgbcolor 0 0 xmax ymax rectfill
orange setrgbcolor
(StrassburgFraktur-Regular) ymax 0.5 mul selectfont
xmax 0.05 mul  ymax 0.639 mul moveto (PJB) show
(StrassburgFraktur-Regular) ymax 0.35 mul selectfont
xmax 0.032 mul  ymax 0.347 mul moveto (.COM) show
xmax 0.075 mul  ymax 0.099 mul moveto (.A) show
xmax -0.01 mul 0 rmoveto (U) show
(Bitfont5x7) ymax 0.0217 mul selectfont
green setrgbcolor
xmax 0.62 mul  ymax 0.04 mul moveto (CHECK IT OUT !) show

%%EOF
