%!PS-Adobe-3.0 EPSF-3.0
%%BoundingBox: 0 0 2000 2828
%%%%%%%%%%%%%%%%%%%%%%%%%%%%%%%%%%%%%%%%%%%%%%%%%%%%%%%%%%%%%%%%%%%%%%%%%
%           This EPS is Copyright (c) 2019, Peter J Billam              %
% Permission is granted  to any individual or institution to use, copy, %
% modify or redistribute this software, so long as it is not resold for %
% profit, and provided this notice is retained. It is provided "as is", %
% without any express or implied warranty.        http://pjb.com.au     %
%%%%%%%%%%%%%%%%%%%%%%%%%%%%%%%%%%%%%%%%%%%%%%%%%%%%%%%%%%%%%%%%%%%%%%%%%
/xmax 2000 def  /ymax 2828 def
/xmid xmax 0.5 mul def  /ymid ymax 0.5 mul def
%%EndComments
%%BeginProlog
(/home/pjb/ps/lib/colours.ps) run
/radialmoveto {   % r theta radialmoveto
  5 dict begin [ /theta /r ] { exch def } forall
  theta cos r mul  theta sin r mul  moveto
  end
} def
/radiallineto {   % r theta radiallineto
  5 dict begin [ /theta /r ] { exch def } forall
  theta cos r mul  theta sin r mul  lineto
  end
} def
%%EndProlog

%%BeginPageSetup
%%EndPageSetup
% 0.7 dup dup setrgbcolor  0 0 xmax ymax rectfill
0 0 xmax ymax black  0.8 dup dup true 0.2   rectgradientfill
gsave
xmax .28 mul  ymax 0.65 mul  translate
1.1 1.0 scale
%0 0 0 ymax 0.7 mul black 0.7 dup dup -0.2   radialgradientfill
/r xmid dup mul ymid dup mul add sqrt 1.22 mul def
/n_sides  48 def
/theta    360 n_sides div def
/thetaby2 180 n_sides div def
/start_ang thetaby2 def
/ang start_ang def  r ang radialmoveto
/scaling 0.960 def /n_recursions 150 def
0 1 n_recursions 1 sub {  % recurse
  /i_recursion exch def
  /start_ang start_ang theta 0.90 mul add def   % good spirals :-)
  /ang start_ang def
  /r_new r scaling mul def
  0 1 n_sides 1 sub {
    /iside exch def
    iside 15 gt iside 32 le and {
      r ang radialmoveto  r ang theta add  radiallineto  % base outward
      r_new  ang theta add  radiallineto  r_new ang radiallineto closepath
      iside 2 mod 0 eq {
        iside 4 mod 0 eq {
	      orange setrgbcolor fill
        } {
	      red setrgbcolor fill
        } ifelse
      } {
	    black setrgbcolor fill
      } ifelse
    } if
    /ang ang theta add def
  } for
  /r  r scaling mul def
} for
grestore
/Parisian xmid 0.14 mul selectfont
% less ~/ps/posters/the_city.ps
0.3 dup dup setrgbcolor
% xmax 0.73 mul ymax 0.93 mul moveto (why wait ?) show
% die zeit ist reif (postdamer-platz)
% xmax 0.06 mul ymax 0.93 mul moveto (the time is ripe) show
xmax 0.06 mul ymax 0.93 mul moveto (die zeit ist reif) show
0.9 dup dup setrgbcolor
xmax 0.58 mul ymax 0.03 mul moveto (catch the wave . . .) show

%%EOF
