%!PS-Adobe-2.0
%%%%%%%%%%%%%%%%%%%%%%%%%%%%%%%%%%%%%%%%%%%%%%%%%%%%%%%%%%%%%%%%%%%%%%%%%
%        This Postscript is Copyright (c) 2018, Peter J Billam          %
% Permission is granted  to any individual or institution to use, copy, %
% modify or redistribute this software, so long as it is not resold for %
% profit, and provided this notice is retained. It is provided "as is", %
% without any express or implied warranty.    http://www.pjb.com.au     %
%%%%%%%%%%%%%%%%%%%%%%%%%%%%%%%%%%%%%%%%%%%%%%%%%%%%%%%%%%%%%%%%%%%%%%%%%
%%EndComments
%%BeginProlog
(/home/pjb/ps/lib/colours.ps) run
(/home/pjb/ps/lib/fonts.ps) run
% 20181122
% (/home/pjb/ps/lib/fonts.ps) run
% ( perhaps useful: a way to _scale_ a sequence of calls to a given width,
%   or perhaps best just to do it, measure currentpoint, then re-do it ?)
% /str_in_rect {  % str xmargin ymargin fgfunc bgfunc str_in_rect  -> y_top  ?
/str_in_rect {  % str xmargin ymargin fgcolor bgcolor str_in_rect  -> y_top
  % See  http://www.ubu.com/film/sackner_concrete.html  at 06:30
  20 dict begin
  [/bgb /bgg /bgr /fgb /fgg /fgr /ymargin /xmargin /str] {exch def} forall
  currentpoint /cpy exch def /cpx exch def  % remember the currentpoint
  gsave  % measure bbox of the string, including unwanted blanks llx and lly
    0 0 moveto str true charpath flattenpath pathbbox
    [ /ury /urx /lly /llx ] { exch def } forall
  grestore
  bgr bgg bgb setrgbcolor
  cpx cpy
    xmargin urx add llx sub xmargin add
    ury lly sub ymargin add ymargin add  rectfill
  fgr fgg fgb setrgbcolor
  xmargin llx sub  ymargin lly sub rmoveto str show
  % leave the currentpoint at the lower-right corner !
  cpx llx sub xmargin add urx add xmargin add  cpy  moveto
  ury lly sub ymargin add ymargin add cpy add  % leave y_top on the stack !
  end
} def

%%EndProlog

%%Page: 1 1
%%BeginPageSetup
%%EndPageSetup
/xmax currentpagedevice (PageSize) get 0 get def
/ymax currentpagedevice (PageSize) get 1 get def
% see ~/video/art/2006_Sackner-Sara_Concrete2.flv at 06:30

/eye {   % x y width eye
  5 dict begin
  [ /width /y /x ] { exch def } forall
  /leftx  x width 0.5 mul sub def
  /rightx x width 0.5 mul add def
  gsave
  newpath
  leftx y moveto
  x y width 0.08 mul add  x y width 0.08 mul add  rightx y curveto
  x y width 0.20 mul sub  x y width 0.20 mul sub   leftx y curveto
  closepath   white setrgbcolor fill
  x width 0.04 mul add  y width 0.07 mul sub
    width 0.08 mul  3 360 arc  black setrgbcolor fill
  x width 0.04 mul add width 0.02 mul abs add  y width 0.070 mul sub
    width 0.02 mul  3 360 arc  white setrgbcolor fill
  grestore
  end
} def

darkgrey setrgbcolor  0 0 xmax ymax rectfill
1.035 1.195 scale

% /colours [ violet yellow green darkgreen blue paleblue red darkorange ] def
/colours [ violet yellow blue paleblue red darkorange ] def
/AkzidenzGroteskBE-BoldEx ymax 0.19 mul selectfont
0 0 moveto
(J) 10 9  yellow red    str_in_rect pop
(O) 10 5  blue   yellow str_in_rect  /y_top exch def
(O) 10 5  yellow red    str_in_rect pop
(B) 10 9  violet yellow str_in_rect pop
 % newpath black setrgbcolor 40 y_top 3 0 360 arc fill

/AkzidenzGroteskBE-BoldEx ymax 0.16 mul selectfont
0 y_top moveto
(O) 10 5  blue   violet str_in_rect /y_top exch def
(O) 10 5  yellow red      str_in_rect pop
(G) 10 5  violet darkorange   str_in_rect pop
(A) 10 9  blue   red      str_in_rect pop

/AkzidenzGroteskBE-BoldEx ymax 0.16 mul selectfont
0 y_top moveto
(G) 10 5   red orange str_in_rect /y_top exch def
currentpoint /y1 exch def /x1 exch def
(O) 10 5  orange violet str_in_rect pop
currentpoint /y2 exch def /x2 exch def
x1 x2 add 0.5 mul  y1 y_top add 0.5 mul  x2 x1 sub -0.35 mul  eye
(O) 10 5  yellow orange str_in_rect pop
currentpoint /y3 exch def /x3 exch def
x2 x3 add 0.5 mul  y2 y_top add 0.5 mul  x3 x2 sub -0.35 mul  eye
(G) 10 5  orange blue str_in_rect pop


/AkzidenzGroteskBE-BoldEx ymax 0.19 mul selectfont
0 y_top moveto
(J) 10 9  violet yellow str_in_rect pop
(O) 10 5  yellow orange str_in_rect  /y_top exch def
(O) 10 5  blue   yellow str_in_rect pop
(B) 10 9  yellow red str_in_rect pop
 % newpath black setrgbcolor 40 y_top 3 0 360 arc fill

/AkzidenzGroteskBE-BoldEx ymax 0.16 mul selectfont
0 y_top moveto
currentpoint /y1 exch def /x1 exch def
(O) 10 5  red violet str_in_rect /y_top exch def
currentpoint /y2 exch def /x2 exch def
x1 x2 add 0.5 mul  y1 y_top add 0.5 mul  x2 x1 sub 0.35 mul  eye
(O) 10 5  violet blue str_in_rect pop
currentpoint /y3 exch def /x3 exch def
x2 x3 add 0.5 mul  y2 y_top add 0.5 mul  x3 x2 sub 0.35 mul  eye
(G) 10 5  red orange str_in_rect pop
(A) 10 9  blue paleblue str_in_rect pop

/AkzidenzGroteskBE-BoldEx ymax 0.16 mul selectfont
0 y_top moveto
(G) 10 5  orange blue   str_in_rect /y_top exch def
(O) 10 5  red    orange str_in_rect pop
(O) 10 5  orange violet str_in_rect pop
(G) 10 5  red    orange str_in_rect pop

showpage



%%EOF
