%!PS-Adobe-3.0 EPSF-3.0
%%BoundingBox: 0 0 2000 2828
%%%%%%%%%%%%%%%%%%%%%%%%%%%%%%%%%%%%%%%%%%%%%%%%%%%%%%%%%%%%%%%%%%%%%%%%%%
%            This EPS is Copyright (c) 2020, Peter J Billam              %
% It is under the Creative Commons Attribution 4.0 International licence %
% so you may share, and may adapt, provided you give attribution, and do %
% not impose extra restricions.       http://pjb.com.au/mus/avail.html   %
%%%%%%%%%%%%%%%%%%%%%%%%%%%%%%%%%%%%%%%%%%%%%%%%%%%%%%%%%%%%%%%%%%%%%%%%%%
/xmax 2000 def  /ymax 2828 def
/xmid xmax 0.5 mul def  /ymid ymax 0.5 mul def
(/home/pjb/ps/lib/colours.ps) run
%%EndComments
%%BeginProlog

%%EndProlog
/guitar {   % xhole yhole length angle guitar
	10 dict begin
	[/angle /length /yhole /xhole] { exch def } forall
	gsave newpath
	xhole yhole translate angle rotate length dup scale
	/strwid 0.039 def
	/strlen 1.039 def
	/bridge -0.1 def
	black setrgbcolor  0 0 .20 0 360 arc fill
	red 0.64 adjustbrightness
	       setrgbcolor bridge strwid  2 mul strlen strwid rectfill
	orange 0.63 adjustbrightness
	    setrgbcolor bridge strwid  1 mul strlen strwid rectfill
	yellow 0.65 adjustbrightness
	    setrgbcolor bridge strwid  0 mul strlen strwid rectfill
	green 0.53 adjustbrightness
	     setrgbcolor bridge strwid -1 mul strlen strwid rectfill
	blue 0.69 adjustbrightness
	      setrgbcolor bridge strwid -2 mul strlen strwid rectfill
	violet 0.7 adjustbrightness
	    setrgbcolor bridge strwid -3 mul strlen strwid rectfill
	grestore
	end
} def
/eye {   % x y size angle eye
	10 dict begin
	[/angle /size /y /x] { exch def } forall
	gsave newpath
	x y translate angle rotate size dup scale
	0.05 setlinewidth
	0.4 0.3 moveto -0.5 0 lineto 0.4 -0.3 lineto stroke
	0.03 setlinewidth
	-0.15 0 0.4 -20 20 arc stroke
	grestore
	end
} def
/ear {   % x y size angle ear
	10 dict begin
	[/angle /size /y /x] { exch def } forall
	gsave newpath
	x y translate angle rotate size dup scale
	0.02 setlinewidth
	0 0 0.4 100 170 arc stroke
	0.05 setlinewidth
	0 0 0.5 90 270 arc 0 0 lineto stroke
	newpath 0.03 setlinewidth
	0 -.15 .15 90 230 arc stroke
	grestore
	end
} def

/hand { % x y size angle hand
	10 dict begin
	[/angle /size /y /x] { exch def } forall
	gsave newpath
	x y translate angle rotate size dup scale
	0.03 setlinewidth
	-0.4  0.3 moveto 0.4  0.15 lineto stroke
	-0.5  0.1 moveto 0.4  0.05 lineto stroke
	-0.4 -0.1 moveto 0.4 -0.05 lineto stroke
	-0.3 -0.3 moveto 0.4 -0.15 lineto stroke
	grestore
	end
} def

xmax 0.25 mul  ymax 0.35 mul  ymax 0.6  mul  35 guitar
xmax 0.5  mul  ymax 0.75 mul  xmax 0.1  mul -40 eye
xmax 0.20 mul  ymax 0.85 mul  xmax 0.15 mul -70 ear
xmax 0.8  mul  ymax 0.55 mul  xmax 0.2 mul -20 hand

xmax 0.06 mul ymax 0.05 mul moveto
/s ( ) def /fs 95 def
% (pjb.com.au/mus/arr.html#folk_gtr_solos)
% regrettably long URL, from the graphic point of view ... do a redirect ?
%(pjb.com.au fingerstyle guitar solos)
%{ s exch 0 exch put /breipfont fs selectfont /fs fs 1.054 mul def s show }
(fingerstyle guitar pjb.com.au)
{ s exch 0 exch put /breipfont fs selectfont 0 fs dup mul 0.00060 mul rmoveto
  /fs fs 1.039 mul def s show }
forall
%gsave
%	xmax 0.85  mul  ymax 0.32 mul translate -80 rotate
%	/fs 150 def
%	0 0 moveto
%	(pjb.com.au) 
%	{ s exch 0 exch put /breipfont fs selectfont /fs fs 0.95 mul def s show }
%	forall
%grestore

%%EOF
