%!PS-Adobe-3.0 EPSF-3.0
%%BoundingBox: 0 0 2000 2828
%%%%%%%%%%%%%%%%%%%%%%%%%%%%%%%%%%%%%%%%%%%%%%%%%%%%%%%%%%%%%%%%%%%%%%%%%%
%            This EPS is Copyright (c) 2020, Peter J Billam              %
% It is under the Creative Commons Attribution 4.0 International licence %
% so you may share, and may adapt, provided you give attribution, and do %
% not impose extra restricions.       http://pjb.com.au/mus/avail.html   %
%%%%%%%%%%%%%%%%%%%%%%%%%%%%%%%%%%%%%%%%%%%%%%%%%%%%%%%%%%%%%%%%%%%%%%%%%%
% see GEB p.30
%%EndComments
%%BeginProlog
/xmax 2000 def  /ymax 2828 def
/xmid xmax 0.5 mul def  /ymid ymax 0.5 mul def
(/home/pjb/ps/lib/colours.ps) run

/double_cover {   % centre_x centre_y a b c angle rgb1 rgb2 double_cover
	% a is the sidelength of the inner triangle
	% b is the tape-width along the fold
	% c is the gap-width  along the fold
	50 dict begin
	/rgb2 4 1 roll rgbdef  /rgb1 4 1 roll rgbdef 
	[ /angle /c /b /a /centre_y /centre_x ] { exch def } forall
	gsave centre_x centre_y translate angle rotate
	/sin30 30 sin def  /cos30 30 cos def
	/sin60 60 sin def  /cos60 60 cos def
	/tan30 sin30 cos30 div def  /tan60 sin60 cos60 div def
	% the ic=inner-corners: tr=topright tl=topright bc=bottomcentre
	/ic_tr_x a 0.5 mul def
	/ic_tr_y a 0.5 mul tan30 mul def
	/ic_tl_x a 0.5 mul neg def
	/ic_tl_y a 0.5 mul tan30 mul def
	/ic_bc_x 0 def
	/ic_bc_y a 0.5 mul cos30 div neg def
ic_tr_x ic_tr_y moveto ic_tl_x ic_tl_y lineto ic_bc_x ic_bc_y lineto closepath stroke
	% top
	newpath ic_tl_x ic_tl_y moveto
	  a b 2 mul add c add 0 rlineto  
	  b sin30 mul neg b cos30 mul rlineto a b 2 mul add c add neg 0 rlineto
	  closepath gsave rgb2 setrgbcolor fill grestore black setrgbcolor stroke
	newpath ic_tl_x b c add sin30 mul sub ic_tl_y b c add cos30 mul add moveto
	  a b 2 mul add c add 0 rlineto  
	  b sin30 mul neg b cos30 mul rlineto a b 2 mul add c add neg 0 rlineto
	  closepath gsave rgb1 setrgbcolor fill grestore black setrgbcolor stroke
	newpath ic_tr_x b sin30 mul add ic_tr_y b cos30 mul add moveto
	  b 0 rlineto c sin30 mul c cos30 mul rlineto b neg 0 rlineto
	  closepath gsave rgb2 setrgbcolor fill grestore black setrgbcolor stroke
	% lower right
	newpath ic_tr_x ic_tr_y moveto
	  b 0 rlineto
	  a b 2 mul add c add sin30 mul neg
	  a b 2 mul add c add cos30 mul neg rlineto
	  b neg 0 rlineto
	  closepath gsave rgb2 setrgbcolor fill grestore black setrgbcolor stroke
	newpath ic_tr_x b add c add ic_tr_y moveto
	  b 0 rlineto
	  a b 2 mul add c add sin30 mul neg
	  a b 2 mul add c add cos30 mul neg rlineto
	  b neg 0 rlineto
	  closepath gsave rgb1 setrgbcolor fill grestore black setrgbcolor stroke
	newpath ic_bc_x b sin30 mul add ic_bc_y b cos30 mul sub moveto
	  c sin30 mul c cos30 mul neg rlineto
	  b sin30 mul neg b cos30 mul neg rlineto
	  c sin30 mul neg c cos30 mul rlineto
	  closepath gsave rgb2 setrgbcolor fill grestore black setrgbcolor stroke
	% lower left
	newpath ic_bc_x ic_bc_y moveto
	  b sin30 mul neg b cos30 mul neg rlineto
	  a b 2 mul add c add sin30 mul neg  a b 2 mul add c add cos30 mul rlineto
	  b sin30 mul b cos30 mul rlineto 
	  closepath gsave rgb2 setrgbcolor fill grestore black setrgbcolor stroke
	newpath ic_bc_x b c add sin30 mul sub ic_bc_y b c add cos30 mul sub moveto
	  b sin30 mul neg b cos30 mul neg rlineto
	  a b 2 mul add c add sin30 mul neg  a b 2 mul add c add cos30 mul rlineto
	  b sin30 mul b cos30 mul rlineto 
	  closepath gsave rgb1 setrgbcolor fill grestore black setrgbcolor stroke
	newpath ic_tl_x b sub ic_tl_y moveto
	  c neg 0 rlineto b sin30 mul neg b cos30 mul rlineto c 0 rlineto
	  closepath gsave rgb2 setrgbcolor fill grestore black setrgbcolor stroke
	grestore end
} bind def

/single_cover {   % centre_x centre_y a b rgb single_cover
	% a is the radius
	% b is the width
	50 dict begin
	/rgb 4 1 roll rgbdef 
	[ /b /a /centre_y /centre_x ] { exch def } forall
	gsave centre_x centre_y translate
	  rgb setrgbcolor  b setlinewidth  0 0 a 0 360 arc stroke
	grestore end
} bind def

%%EndProlog
%%BeginPageSetup
%%EndPageSetup

0 0 xmax ymax black setrgbcolor rectfill
xmid ymid  xmax 0.25 mul  xmid dup mul ymid dup mul add sqrt 1.01 mul
  black 0.4 dup dup -0.4 radialgradientfill
gsave xmid ymax .60 mul translate
  1.5 1 scale
  0 0 151.2 50.4 16.8   0 orange red double_cover
grestore
gsave xmid ymax .40 mul translate
  1.5 1 scale
  0 0 151.2 50.4 16.8 180 orange red double_cover
grestore
gsave xmax 0.35 mul ymid translate
  1 1.5 scale
  0 0 151.2 50.4 16.8  90 red violet double_cover
grestore
gsave xmax 0.65 mul ymid translate
  1 1.5 scale
  0 0 151.2 50.4 16.8 270 red violet double_cover
grestore
xmid ymax .83 mul 94.08 43.68 13.44  90 blue gray double_cover
xmid ymax .17 mul 94.08 43.68 13.44 270 blue gray double_cover
% bosons ...
xmid 13.44 add ymid 40.32 sub 20.16 10.08 red   0.6  adjustbrightness single_cover
xmid 57.12 sub ymid 20.16 add 20.16 10.08 blue  0.60  adjustbrightness single_cover
xmid 43.68 add ymid 40.32 add 20.16 10.08 green 0.45 adjustbrightness single_cover
% photons ...
xmax 0.1  mul ymax 0.91 mul 16.8 10.08 white single_cover
xmax 0.15 mul ymax 0.24 mul 16.8 10.08 white single_cover
xmax 0.9  mul ymax 0.31 mul 16.8 10.08 white single_cover
xmax 0.8  mul ymax 0.09 mul 16.8 10.08 white single_cover
% helium ...
0.8 dup dup setrgbcolor
gsave
  /Quattrocento 100.8 selectfont
  xmax 0.10 mul ymax 0.67 mul translate  25 rotate 0 0 moveto (H) show
grestore
gsave
  /Quattrocento 100.8 selectfont
  xmax 0.18 mul ymax 0.68 mul translate -15 rotate 0 0 moveto (e) show
grestore
gsave
  /Quattrocento 53.76 selectfont
  xmax 0.83 mul ymax 0.74 mul translate  25 rotate 0 0 moveto (2) show
grestore
gsave
  /Quattrocento 47.04 selectfont
  xmax 0.85 mul ymax 0.71 mul translate -15 rotate 0 0 moveto (4.00) show
grestore

%%EOF
