%!PS-Adobe-3.0 EPSF-3.0
%%BoundingBox: 0 0 2000 2828
%%%%%%%%%%%%%%%%%%%%%%%%%%%%%%%%%%%%%%%%%%%%%%%%%%%%%%%%%%%%%%%%%%%%%%%%%
%           This EPS is Copyright (c) 2019, Peter J Billam              %
% Permission is granted  to any individual or institution to use, copy, %
% modify or redistribute this software, so long as it is not resold for %
% profit, and provided this notice is retained. It is provided "as is", %
% without any express or implied warranty.        http://pjb.com.au     %
%%%%%%%%%%%%%%%%%%%%%%%%%%%%%%%%%%%%%%%%%%%%%%%%%%%%%%%%%%%%%%%%%%%%%%%%%
/xmax 2000 def  /ymax 2828 def
/xmid xmax 0.5 mul def  /ymid ymax 0.5 mul def
%%EndComments
%%BeginProlog
(/home/pjb/ps/lib/colours.ps) run

/L true def /R false def
/flexed7gon {   % LeftOrRight flexed7gon
  % The flexed7gon proc stores its final sharp-vetexes
  % and will use them for positioning the next flexed_heptagon,
  % subject to the boolean parameter R or L,
  % determining which new sharp-vertex coincides with an old sharp-vertex
  20 dict begin
  /turns_left exch def
  % HMM: why not deduce angle from leftx lefty rightx righty ?
  /angle  prototile_state (angle)  get def
  /radius prototile_state (radius) get def
  /piby7  180 7.0 div  def   % the pointy angle, pi/7
  turns_left {
    /x0     prototile_state (leftx)  get def
    /y0     prototile_state (lefty)  get def
    prototile_state (previous_turn) get {
      /angle angle piby7 add def
    } {
      /angle angle piby7 2 mul add def
    } ifelse
  } {
    /x0     prototile_state (rightx)  get def
    /y0     prototile_state (righty)  get def
    prototile_state (previous_turn) get {
      /angle angle piby7 2 mul sub def
    } {
      /angle angle piby7 sub def
    } ifelse
  } ifelse
  { angle 360.0 lt { exit } if   /angle angle 360.0 sub def } loop
  % /dist02 dist01 piby7 cos mul 2 mul def
  /dist01 radius piby7       sin mul 2 mul def
  /dist02 radius piby7 2 mul sin mul 2 mul def
  /dist03 radius piby7 3 mul sin mul 2 mul def
  /dist04 radius piby7 4 mul sin mul 2 mul def
  % if R (clockwise)   /piby7 piby7 neg def
  turns_left not {
    /piby7 piby7 neg def
  } if
  /x1 angle                 cos dist01 mul 2 mul x0 add def
  /y1 angle                 sin dist01 mul 2 mul y0 add def
  /x2 angle piby7       add cos dist02 mul 2 mul x0 add def
  /y2 angle piby7       add sin dist02 mul 2 mul y0 add def
  /x3 angle piby7 2 mul add cos dist03 mul 2 mul x0 add def
  /y3 angle piby7 2 mul add sin dist03 mul 2 mul y0 add def
  /x4 angle piby7 3 mul add cos dist04 mul 2 mul x0 add def
  /y4 angle piby7 3 mul add sin dist04 mul 2 mul y0 add def
  /x5 angle piby7 2 mul add cos dist02 mul 2 mul x0 add def
  /y5 angle piby7 2 mul add sin dist02 mul 2 mul y0 add def
  /x6 angle piby7       add cos dist01 mul 2 mul x0 add def
  /y6 angle piby7       add sin dist01 mul 2 mul y0 add def
  x0 y0 moveto  x1 y1 lineto  x2 y2 lineto  x3 y3 lineto  x4 y4 lineto
  x5 y5 lineto  x6 y6 lineto  closepath
  turns_left {
    prototile_state (leftx)  x0 put  % BUG if R is followed by L ?
    prototile_state (lefty)  y0 put  % should remember previous_turn ?
    prototile_state (rightx) x4 put
    prototile_state (righty) y4 put
    prototile_state (angle)  angle put  % XXX
  } {
    prototile_state (leftx)  x4 put  % BUG if R is followed by L ?
    prototile_state (lefty)  y4 put  % should remember previous_turn ?
    prototile_state (rightx) x0 put
    prototile_state (righty) y0 put
    prototile_state (angle)  angle put  % XXX
  } ifelse
  prototile_state (previous_turn) turns_left put
  end
} def

/flexed5gon {   % LeftOrRight flexed5gon
  % The flexed5gon proc stores its final sharp-vetexes
  % and will use them for positioning the next flexed_heptagon,
  % subject to the boolean parameter R or L,
  % determining which new sharp-vertex coincides with an old sharp-vertex
  20 dict begin
  /turns_left exch def
  % HMM: why not deduce angle from leftx lefty rightx righty ?
  /angle  prototile_state (angle)  get def
  /radius prototile_state (radius) get def
  /piby5  180 5.0 div  def   % the pointy angle, pi/5
  turns_left {
    /x0     prototile_state (leftx)  get def
    /y0     prototile_state (lefty)  get def
    prototile_state (previous_turn) get {
      /angle angle piby5 add def
    } {
      /angle angle piby5 2 mul add def
    } ifelse
  } {
    /x0     prototile_state (rightx)  get def
    /y0     prototile_state (righty)  get def
    prototile_state (previous_turn) get {
      /angle angle piby5 2 mul sub def
    } {
      /angle angle piby5 sub def
    } ifelse
  } ifelse
  { angle 360.0 lt { exit } if   /angle angle 360.0 sub def } loop
  % /dist02 dist01 piby5 cos mul 2 mul def
  /dist01 radius piby5       sin mul 2 mul def
  /dist02 radius piby5 2 mul sin mul 2 mul def
  /dist03 radius piby5 3 mul sin mul 2 mul def
  /dist04 radius piby5 4 mul sin mul 2 mul def
  % if R (clockwise)   /piby5 piby5 neg def
  turns_left not {
    /piby5 piby5 neg def
  } if
  /x1 angle                 cos dist01 mul 2 mul x0 add def
  /y1 angle                 sin dist01 mul 2 mul y0 add def
  /x2 angle piby5       add cos dist02 mul 2 mul x0 add def
  /y2 angle piby5       add sin dist02 mul 2 mul y0 add def
  /x3 angle piby5 2 mul add cos dist03 mul 2 mul x0 add def
  /y3 angle piby5 2 mul add sin dist03 mul 2 mul y0 add def
  /x4 angle piby5       add cos dist01 mul 2 mul x0 add def
  /y4 angle piby5       add sin dist01 mul 2 mul y0 add def
  x0 y0 moveto  x1 y1 lineto  x2 y2 lineto  x3 y3 lineto  x4 y4 lineto
  closepath
  turns_left {
    prototile_state (leftx)  x0 put
    prototile_state (lefty)  y0 put
    prototile_state (rightx) x3 put
    prototile_state (righty) y3 put
    prototile_state (angle)  angle put
  } {
    prototile_state (leftx)  x3 put
    prototile_state (lefty)  y3 put
    prototile_state (rightx) x0 put
    prototile_state (righty) y0 put
    prototile_state (angle)  angle put
  } ifelse
  prototile_state (previous_turn) turns_left put
  end
} def

/nonrepeating_randomrgbget_i -1 def
/nonrepeating_randomrgbget {
  10 dict begin /colours exch def
  {
    /i rand  colours length 3 div cvi mod  def
    i nonrepeating_randomrgbget_i ne { exit } if
  } loop
  colours i 3 mul get  colours i 3 mul 1 add get  colours i 3 mul 2 add get
  i  % leave i on stack so as to reset global nonrepeating_randomrgbget_i
  end
  /nonrepeating_randomrgbget_i exch def
} def

%%EndProlog

0 0 xmax ymax  green 0.4 black 0.6 rgbmix
paleblue 0.5 blue 0.5 rgbmix  true -0.7 rectgradientfill
% small snail in background
/prototile_state <<
  (leftx)  xmax 0.13 mul
  (lefty)  ymax 0.60 mul
  (rightx) xmax 0.35 mul
  (righty) ymax 0.56 mul
  (angle)  -180 7 div 270 add
  (radius) xmid 0.042 mul
  (previous_turn) L
>> def
newpath
/colours [
  red darkgrey darkbrown darkorange violet darkviolet black
] def
[ R R R R R R R R R L R R R L R R R L R R R L
  R R L R R L R R L R R L R R L R R L R R L R R L
  R L R R L R R L R L R R L R R L
  R L R L R L R L R L R L R L R L R ] {
  flexed7gon colours randomrgbget  setrgbcolor fill
} forall
/prototile_state <<
  (leftx)  xmax 0.09  mul
  (lefty)  ymax 0.794 mul
  (rightx) xmid  % first turn will be left, so will ignore rightx,y
  (righty) ymid
  (angle)  -90
  (radius) xmid 0.02 mul
  (previous_turn) L
>> def
[ L L L L L L L L L L ]
{ flexed5gon colours nonrepeating_randomrgbget  setrgbcolor fill } forall
/prototile_state <<
  (leftx)  xmid
  (lefty)  ymid
  (rightx) xmax 0.24 mul
  (righty) ymax 0.78 mul
  (angle)  90
  (radius) xmid 0.02 mul
  (previous_turn) L
>> def
[ R R R R R R R R R R ]
{ flexed5gon colours nonrepeating_randomrgbget  setrgbcolor fill } forall
% big snail in foreground
/prototile_state <<
  (leftx)  xmax 0.36 mul
  (lefty)  ymax 0.25 mul
  (rightx) xmid  % first turn will be left, so will ignore rightx,y
  (righty) ymid
  (angle)  -270 7 div
  (radius) xmid 0.08 mul
  (previous_turn) L
>> def
newpath
/colours [
  red darkgrey darkbrown yellow orange darkorange violet darkviolet black
] def
[ L L L L L L L L L R L L L R L L L R L L L R
  L L R L L R L L R L L R L L R L L R L L R L L R
  L R L L R L L R L R L L R L L R
  L R L R L R L R L R L R L R L R L ] {
  flexed7gon colours nonrepeating_randomrgbget  setrgbcolor fill
} forall
/prototile_state <<
  (leftx)  xmax 0.875 mul
  (lefty)  ymax 0.686 mul
  (rightx) xmid  % first turn will be left, so will ignore rightx,y
  (righty) ymid
  (angle)  -90
  (radius) xmid 0.05 mul
  (previous_turn) L
>> def
[ L L L L L L L L L L ]
{ flexed5gon colours nonrepeating_randomrgbget  setrgbcolor fill } forall
/prototile_state <<
  (leftx)  xmid
  (lefty)  ymid
  (rightx) xmax 0.543 mul
  (righty) ymax 0.667 mul
  (angle)  90
  (radius) xmid 0.05 mul
  (previous_turn) L
>> def
[ R R R R R R R R R R ]
{ flexed5gon colours nonrepeating_randomrgbget  setrgbcolor fill } forall

%%EOT
