%!PS-Adobe-2.0
%%%%%%%%%%%%%%%%%%%%%%%%%%%%%%%%%%%%%%%%%%%%%%%%%%%%%%%%%%%%%%%%%%%%%%%%%
%        This Postscript is Copyright (c) 2016, Peter J Billam          %
%                                                                       %
% Permission is granted  to any individual or institution to use, copy, %
% modify or redistribute this software, so long as it is not resold for %
% profit, and provided this notice is retained. It is provided "as is", %
% without any express or implied warranty.    http://www.pjb.com.au     %
%%%%%%%%%%%%%%%%%%%%%%%%%%%%%%%%%%%%%%%%%%%%%%%%%%%%%%%%%%%%%%%%%%%%%%%%%
%%EndComments
%%BeginProlog

%%EndProlog
%%Page: 1 1
%%BeginPageSetup
%%EndPageSetup

% (/home/pjb/ps/lib/pjb_motifs.ps) run
(/home/pjb/ps/lib/colours.ps) run
(/home/pjb/ps/lib/random.ps) run

% 3324 srand

/irand {
  rand exch cvi mod
} bind def

10 srand
/i 0 def {
  /i i 1 add def
  /Helvetica-Bold findfont 68 irand 10 add scalefont setfont
  [ red black darkgrey ] randomrgb setrgbcolor
  gsave
    % gauss_rand  95 mul 290 add gauss_rand 70 mul 570 add translate
    gauss_rand  95 mul 290 add gauss_rand 80 mul 585 add translate
    120 irand 60 sub rotate
    0 0 moveto
    [ (P) (J) (B) (p) (j) (b) ] 6 irand get show
  grestore
  i 80 gt { exit } if
} loop
20 srand % 14
/i 0 def {
  /i i 1 add def
  /Helvetica-Bold findfont 68 irand 10 add scalefont setfont
  [ red violet darkgrey ] randomrgb setrgbcolor
  gsave
    % gauss_rand 110 mul 280 add gauss_rand 80 mul 380 add translate
    gauss_rand 140 mul 240 add gauss_rand 87 mul 365 add translate
    100 irand 50 sub neg rotate
    0 0 moveto
    [ (C) (O) (M) (c) (o) (m) ] 6 irand get show
  grestore
  i 80 gt { exit } if
} loop
5 srand
/i 0 def {
  /i i 1 add def
  /Helvetica-Bold findfont 68 irand 10 add scalefont setfont
  [ red orange darkgrey ] randomrgb setrgbcolor
  gsave
    % gauss_rand 100 mul 290 add gauss_rand 60 mul 210 add translate
    gauss_rand 115 mul 315 add gauss_rand 90 mul 200 add translate
    90 irand 40 sub rotate
    0 0 moveto
    [ (A) (U) (a) (u) ] 4 irand get show
  grestore
  i 80 gt { exit } if
} loop


showpage
%%EOF
