%!PS-Adobe-2.0
%%%%%%%%%%%%%%%%%%%%%%%%%%%%%%%%%%%%%%%%%%%%%%%%%%%%%%%%%%%%%%%%%%%%%%%%%
%        This Postscript is Copyright (c) 2018, Peter J Billam          %
% Permission is granted  to any individual or institution to use, copy, %
% modify or redistribute this software, so long as it is not resold for %
% profit, and provided this notice is retained. It is provided "as is", %
% without any express or implied warranty.    http://www.pjb.com.au     %
%%%%%%%%%%%%%%%%%%%%%%%%%%%%%%%%%%%%%%%%%%%%%%%%%%%%%%%%%%%%%%%%%%%%%%%%%
%%EndComments
%%BeginProlog
(/home/pjb/ps/lib/colours.ps) run
% (/home/pjb/ps/lib/fonts.ps) run
%%EndProlog
%%Page: 1 1
%%BeginPageSetup
%%EndPageSetup
/xmax currentpagedevice (PageSize) get 0 get def
/ymax currentpagedevice (PageSize) get 1 get def
darkgrey setrgbcolor 0 0 xmax ymax rectfill

white setrgbcolor
xmax 0.17 mul ymax 0.32 mul moveto
xmax ymax lineto
xmax ymax 0.10 mul lineto
closepath fill

black setrgbcolor
/fs ymax 0.3 mul def
gsave
  1.00 1.05 scale /Parisian fs 0.72 mul selectfont
  xmax 0.50 mul  ymax 0.74 mul moveto  (play) show
grestore
gsave
  1.10 1.0 scale
  /Parisian fs 1.75 mul selectfont
  xmax 0.18 mul  ymax 0.56 mul moveto  (the) show
grestore
gsave
  1.0 2.5 scale
  /Parisian fs 1.3 mul selectfont
  xmax 0.07 mul  ymax 0.10 mul moveto  (Long) show
grestore
gsave
  1.0 1.1 scale
  /Parisian fs 1.1 mul selectfont
  xmax 0.10 mul  ymax 0.11 mul moveto  (game) show
grestore
gsave
  1.0 1.2 scale
  /Parisian fs 0.55 mul selectfont
  xmax 0.34 mul  ymax 0.04 mul moveto  (soon) show
grestore


showpage

%%EOF
