%!PS-Adobe-3.0 EPSF-3.0
%%BoundingBox: 0 0 2828 2000
%%%%%%%%%%%%%%%%%%%%%%%%%%%%%%%%%%%%%%%%%%%%%%%%%%%%%%%%%%%%%%%%%%%%%%%%%%
%            This EPS is Copyright (c) 2020, Peter J Billam              %
% It is under the Creative Commons Attribution 4.0 International licence %
% so you may share, and may adapt, provided you give attribution, and do %
% not impose extra restricions.       http://pjb.com.au/mus/avail.html   %
%%%%%%%%%%%%%%%%%%%%%%%%%%%%%%%%%%%%%%%%%%%%%%%%%%%%%%%%%%%%%%%%%%%%%%%%%%
%%EndComments
%%BeginProlog
(/home/pjb/ps/lib/colours.ps) run
/xmax 2828 def  /ymax 2000 def
/xmid xmax 0.5 mul def    /ymid ymax 0.5 mul def
%%EndProlog

%%BeginPageSetup
%%EndPageSetup
10 dict begin
gsave
1.0 1.3 scale
/MarketDeco ymax 0.455 mul selectfont
black setrgbcolor 0 0 xmax ymax rectfill
/showproc {
  /s ( ) def
  s exch 0 exch put
  newpath x y moveto
  s false charpath pathbbox [ /ury /urx /lly /llx ] { exch def } forall
  newpath x y moveto
  gsave
    s true charpath clip
    llx lly  urx llx sub ury lly sub  red black false 0 rectgradientfill
  grestore
  /dx  urx llx sub  incr mul  def
  /x x dx add def
} def
/x xmax 0.001 mul def   /y ymax 0.40 mul def
/incr 0.425 def (ONLY   LIVING   PLANET) { showproc } forall
/x xmax 0.010 mul def   /y ymax 0.05 mul def
/incr 0.59 def (IN THE UNIVERSE) { showproc } forall
grestore
end

%%EOF
