%!PS-Adobe-3.0 EPSF-3.0
%%BoundingBox: 0 0 2828 2000
%%%%%%%%%%%%%%%%%%%%%%%%%%%%%%%%%%%%%%%%%%%%%%%%%%%%%%%%%%%%%%%%%%%%%%%%%%
%            This EPS is Copyright (c) 2020, Peter J Billam              %
% It is under the Creative Commons Attribution 4.0 International licence %
% so you may share, and may adapt, provided you give attribution, and do %
% not impose extra restricions.       http://pjb.com.au/mus/avail.html   %
%%%%%%%%%%%%%%%%%%%%%%%%%%%%%%%%%%%%%%%%%%%%%%%%%%%%%%%%%%%%%%%%%%%%%%%%%%
/xmax 2828 def  /ymax 2000 def
/xmid xmax 0.5 mul def  /ymid ymax 0.5 mul def
(/home/pjb/ps/lib/colours.ps) run
%%EndComments
%%BeginProlog
/centreshow { % usage: x y font fontsize (string) centreshow
  3 dict begin
    [ /s /fontsize /font ] { exch def } forall
    gsave moveto font findfont fontsize scalefont setfont
    gsave s false charpath flattenpath pathbbox grestore
    exch 4 -1 roll pop pop s stringwidth pop -0.5 mul  % dx/2
    3 1 roll sub 0.5 mul % dy/2
    rmoveto s show grestore
  end
} bind def
%%EndProlog
/keywidth xmax 15  div def
/key_top  ymax 0.45 mul def
/key_bot  ymax 0.14 mul def
ymax 160 div setlinewidth
.6 dup dup setrgbcolor 0 key_top xmax ymax rectfill
/x keywidth 0.5 mul def  /ix 0 def {
  black setrgbcolor       x 0       moveto x key_top lineto stroke
  0.4 dup dup setrgbcolor x key_top moveto x ymax    lineto stroke
  ix 7 mod 0 ne  ix 7 mod 4 ne  and {
    black setrgbcolor
	x keywidth 0.3 mul sub key_bot keywidth 0.6 mul key_top key_bot sub
    rectfill
    0.4 dup dup setrgbcolor
	x keywidth 0.3 mul sub key_top keywidth 0.6 mul key_top key_bot sub
    rectfill
  } if
  /x x keywidth add def  /ix ix 1 add def
  x xmax gt { exit } if
} loop
black setrgbcolor 0 key_top moveto xmax key_top lineto stroke

gsave
xmid ymax 0.91 mul translate
1 1.34 scale
yellow 0.2 orange 0.8 rgbmix setrgbcolor 
0 0 /Parisian ymax 0.210 mul
(piano     pjb.com.au) centreshow
grestore

%%EOF
