%!PS-Adobe-3.0 EPSF-3.0
%%BoundingBox: 0 0 2000 2828
%%%%%%%%%%%%%%%%%%%%%%%%%%%%%%%%%%%%%%%%%%%%%%%%%%%%%%%%%%%%%%%%%%%%%%%%%
%           This EPS is Copyright (c) 2019, Peter J Billam              %
% Permission is granted  to any individual or institution to use, copy, %
% modify or redistribute this software, so long as it is not resold for %
% profit, and provided this notice is retained. It is provided "as is", %
% without any express or implied warranty.        http://pjb.com.au     %
%%%%%%%%%%%%%%%%%%%%%%%%%%%%%%%%%%%%%%%%%%%%%%%%%%%%%%%%%%%%%%%%%%%%%%%%%
%%EndComments
%%BeginProlog
/xmax 2000 def /ymax 2828 def  
/xmid xmax 0.5 mul def  /ymid ymax 0.5 mul def
(/home/pjb/ps/lib/colours.ps) run
(/home/pjb/ps/lib/muscript.ps) run
%%EndProlog

black setrgbcolor 0 0 xmax ymax rectfill
white setrgbcolor
xmax 0.79  mul ymid 1.021 mul  ymid 0.050 mul bassclef
xmax 0.82  mul ymid 1.000 mul  ymid 0.055 mul crochetrest
xmax 0.845 mul ymid 1.000 mul  ymid 0.060 mul sharp
xmax 0.87  mul ymid 1.000 mul  ymid 0.060 mul demisemiquaverrest
xmax 0.90  mul ymid 1.000 mul  ymid 0.065 mul fermata
xmax 0.925 mul ymid 1.029 mul  ymid 0.065 mul repeatmark
xmax 0.95  mul ymid 1.000 mul  ymid 0.065 mul blackblob
xmax 0.975 mul ymid 1.000 mul  ymid 0.065 mul whiteblob
1.0 1.414 scale
/square {
  10 dict begin [ /side /y /x ] { exch def } forall
  /lw side 0.1 mul sqrt dup sqrt mul def
  colour1 setrgbcolor  lw setlinewidth
    1 setlinecap  1 setlinejoin  [ ] 0 setdash
    x y  side side  rectstroke
  colour2 setrgbcolor  lw setlinewidth
    0 setlinecap  1 setlinejoin  [side 0.08 mul  side 0.20 mul ] 0 setdash
    x y  side side  rectstroke
  end
} def
/layer {
  /x x side 0.5 mul add def /y y side 0.5 mul add def /side side 2 mul def
  /ytmp y def {
    /xtmp x def
    {
      xtmp ytmp side square
      /xtmp xtmp side 2.0 mul add def
      xtmp xmax gt { exit } if
    } loop
    /ytmp ytmp side 2.0 mul add def
    ytmp xmax gt { exit } if
  } loop
} def
/x xmax 128 div def /y x def /side xmax 64 div def
/colour1 .75 dup dup rgbdef /colour2 violet 0.6 paleviolet 0.4 rgbmix rgbdef layer
/colour1 violet 0.6 paleviolet 0.4 rgbmix rgbdef /colour2 .8 0 0 rgbdef  layer
/colour1 .7 dup dup rgbdef     /colour2 darkorange rgbdef  layer
% /colour1 .52 dup dup rgbdef     /colour2 red rgbdef  layer
/colour1 orange  rgbdef     /colour2 violet  rgbdef  layer
/colour1 darkorange    rgbdef     /colour2 .60 dup dup   rgbdef  layer
white setrgbcolor  /Helvetica-Bold xmid 0.055 mul selectfont
xmid 0.03 mul xmid 0.978 mul moveto (PJB . COM . AU) show

%%EOF
