%!PS-Adobe-3.0 EPSF-3.0
%%BoundingBox: 0 0 1000 1414
%%%%%%%%%%%%%%%%%%%%%%%%%%%%%%%%%%%%%%%%%%%%%%%%%%%%%%%%%%%%%%%%%%%%%%%%%
%           This EPS is Copyright (c) 2019, Peter J Billam              %
% Permission is granted  to any individual or institution to use, copy, %
% modify or redistribute this software, so long as it is not resold for %
% profit, and provided this notice is retained. It is provided "as is", %
% without any express or implied warranty.    http://www.pjb.com.au     %
%%%%%%%%%%%%%%%%%%%%%%%%%%%%%%%%%%%%%%%%%%%%%%%%%%%%%%%%%%%%%%%%%%%%%%%%%
% https://en.wikipedia.org/wiki/Pinwheel_tiling
% http://tilings.math.uni-bielefeld.de/substitution/pinwheel/
%%EndComments
%%BeginProlog
% stuff borrowed from (/home/pjb/ps/lib/colours.ps) run
/white       { 1    1    1    } def
/lightgrey   { 0.95 0.95 0.95 } def
/grey        { 0.9  0.9  0.9  } def
/mediumgrey  { 0.8  0.8  0.8  } def
/darkgrey    { 0.6  0.6  0.6  } def
/black       { 0    0    0    } def
/darkred     { 0.6  0    0    } def
/red         { 1    0    0    } def
/pink        { 1    0.75 0.75 } def
/darkorange  { 1    0.4  0.0  } def
/orange      { 1    0.7  0.0  } def
/yellow      { 1    1    0    } def
/darkgreen   { 0    .6   0    } def
/green       { 0    1    0    } def
/palegreen   { 0.75 1    0.75 } def
/darkblue    { 0    0    0.6  } def
/blue        { 0    0    1    } def
/paleblue    { 0.75 0.75 1    } def
/darkviolet  { 0.5  0.15 0.5  } def
/violet      { 0.7  0.2  0.7  } def
/paleviolet  { 1    0.75 1    } def
/randomrgbget {   % usage: [ red black grey ] randomrgbget
  5 dict begin
  dup length 3.0 div 0.01 add floor  rand exch round cvi mod  3 mul /i exch def
  dup i get exch   dup i 1 add get exch   i 2 add get
  end
} bind def
/randomrgb { randomrgbget } def    % for back-compatibility

% stuff borrowed from (/home/pjb/ps/lib/random.ps) run
/gauss_rand_r 0.5 1024.0 div 1024.0 div 1024.0 div def  % rand scaling factor
usertime realtime add srand
/irand {   % usage: n irand   ->  a random integer 0 .. n-1
  rand exch round cvi mod
} bind def
/urand {   % usage: urand   ->  a random number between 0 and 1
  rand gauss_rand_r mul
} bind def
/randomget {   % usage:  [ an array ] randomget
  dup length  rand  exch mod  get
} bind def


%---------------------------------------------
%Program starts
%---------------------------------------------

/ConwayOptions <<
  (arc_linewidth) 2
  (arc1_color) [ blue ]
>> def

0.0002 setlinewidth

/seed 10 irand 100 mul def   % used in page 7
/concat {
  5 dict begin
  [ /s2  /s1 ] { exch 600 string cvs def } forall
  /s s1 length s2 length add string def
  s1 s copy
  s  s1 length  s2  putinterval
  s  
  end
} def

/chop_nulls {  % usage: array chop_nulls => subarray-with-no-trailing-nulls
  % Because when creating a large array, it's MUCH FASTER to
  % create an array with a large size then set its elements with put,
  % than it is to construct a large literal array with [ and ]
  % So chop_nulls meets the need to trim trailing nulls off the end ...
  10 dict begin  /a exch def
  /i 0 def  % the index of the first null
  % binary search is faster, but assumes the nulls are contiguous at the end
  /i0 0 def  /iN a length 1 sub def
  20 {   % max array size is 65535 = 2^16
    a i0 get null eq { /i i0 def exit } if
    a iN get null ne { /i iN 1 add def exit } if
    iN i0 sub 10 le {  % short ... we do a sequential search ...
      /i i0 def 10 {
        a i get null eq { exit } if
        /i i 1 add def
        i iN ge { exit } if
      } repeat
      exit
    } if
    /imid i0 iN add 0.5 mul round cvi def
    a imid get null eq { /iN imid def } { /i0 imid def } ifelse
  } repeat 
  a 0 i getinterval
  end
} def

% arc trig functions
/acos2 { 2 copy dup mul exch dup mul sub sqrt exch pop exch atan } def
/acos  { 1 acos2 } def

% These values are used a lot, better to have constants for them
/sqrt5 5.0 sqrt def
/sin27 1.0 sqrt5 div def  % actually 26.565051177078 degrees
/cos27 2.0 sqrt5 div def
/deg27 26.56505117708 def
/deg63 90 deg27 sub def

/fillcolorProc { pop pop 1 1 1 setrgbcolor } def
/linecolorProc { pop pop 0 0 0 setrgbcolor } def


/half_base_squared 0 def
/are_close {   % usage:  [x1 y1] [x2 y2] are_close  =>  true or false
  half_base_squared
  3 1 roll
  5 dict begin
  [ /pos2 /pos1 ] { exch def } forall
  pos2 1 get pos1 1 get sub dup mul pos2 0 get pos1 0 get sub dup mul add
  gt
  end
} def

/PinwheelFractal false def

/triangle 4 array def
% triangle format: [[x1 y1] [x2 y2] [x3 y3] placement]
% x1y1 is the right-angle, x2y2 is the short side, x3y3 the long side
% triangle-placement encoding: 1=x2y2=63deg 2=x3y3=27deg
% 3=x1y1-to-halfway-along-side 4=middle-of-hypotenuse 5=interior
% so that 4 and 5 form the little rectangle
/SubdivisionProcs <<  % usages: triangle i SubdivisionProcs option get exec
  % just pushes the new triangles onto the stack
  (RectangleOnly) {
    10 dict begin
    [ /i /triangle ] { exch def } forall
    triangle 3 get 3 le { triangle
    } { triangle i SubdivisionProcs (Default) get exec
    } ifelse
    end
  }
  (SnakeForm) {
    10 dict begin
    [ /i /triangle ] { exch def } forall
    triangle 3 get 2 le { triangle
    } { triangle i SubdivisionProcs (Default) get exec
    } ifelse
    end
  }
  (Necklace) { % supress 4,5
    10 dict begin
    [ /i /triangle ] { exch def } forall
    /placement triangle 3 get def
    % x1y1 is the right-angle, x2y2 is the short side, x3y3 the long side
    % triangle-placement encoding: 1=x2y2=63deg 2=x3y3=27deg
    % 3=x1y1-to-halfway-along-side 4=middle-of-hypotenuse 5=interior
    /x1 triangle 0 get 0 get def /y1 triangle 0 get 1 get def  % right-angle
    /x2 triangle 1 get 0 get def /y2 triangle 1 get 1 get def  % 63deg angle
    /x3 triangle 2 get 0 get def /y3 triangle 2 get 1 get def  % 27deg angle
    /x_perptohypot  x2 x3 x2 sub 0.2 mul add def
    /y_perptohypot  y2 y3 y2 sub 0.2 mul add def
    /x_halflongside x1 x3 add 0.5 mul def
    /y_halflongside y1 y3 add 0.5 mul def
    [[x_perptohypot y_perptohypot] [x2 y2] [x1 y1] 1]
    [[x_perptohypot x3 add 0.5 mul  y_perptohypot y3 add 0.5 mul]
     [x_halflongside y_halflongside] [x3 y3] 2]
    [[x_perptohypot x1 add 0.5 mul  y_perptohypot y1 add 0.5 mul]
     [x1 y1] [x_halflongside y_halflongside] 3]
    PinwheelFractal not urand 0.5 gt and {
      [[x_perptohypot x1 add 0.5 mul  y_perptohypot y1 add 0.5 mul]
       [x_perptohypot y_perptohypot] [x_halflongside y_halflongside] 5]
    } if
    end
  }
  (Border) { % If if i even supress 3,5 , i odd supress 4,5
    10 dict begin
    [ /i /triangle ] { exch def } forall
    /placement triangle 3 get def
    % x1y1 is the right-angle, x2y2 is the short side, x3y3 the long side
    % triangle-placement encoding: 1=x2y2=63deg 2=x3y3=27deg
    % 3=x1y1-to-halfway-along-side 4=middle-of-hypotenuse 5=interior
    /x1 triangle 0 get 0 get def /y1 triangle 0 get 1 get def  % right-angle
    /x2 triangle 1 get 0 get def /y2 triangle 1 get 1 get def  % 63deg angle
    /x3 triangle 2 get 0 get def /y3 triangle 2 get 1 get def  % 27deg angle
    /x_perptohypot  x2 x3 x2 sub 0.2 mul add def
    /y_perptohypot  y2 y3 y2 sub 0.2 mul add def
    /x_halflongside x1 x3 add 0.5 mul def
    /y_halflongside y1 y3 add 0.5 mul def
    [[x_perptohypot y_perptohypot] [x2 y2] [x1 y1] 1]
    [[x_perptohypot x3 add 0.5 mul  y_perptohypot y3 add 0.5 mul]
     [x_halflongside y_halflongside] [x3 y3] 2]
   i 2 mod 1 eq {
      [[x_perptohypot x1 add 0.5 mul  y_perptohypot y1 add 0.5 mul]
       [x1 y1] [x_halflongside y_halflongside] 3]
   } if
   i 2 mod 0 eq {
     [[x_perptohypot x3 add 0.5 mul  y_perptohypot y3 add 0.5 mul]
      [x_halflongside y_halflongside] [x_perptohypot y_perptohypot] 4]
   } if
   PinwheelFractal not  urand 0.5 gt and {
    [[x_perptohypot x1 add 0.5 mul  y_perptohypot y1 add 0.5 mul]
     [x_perptohypot y_perptohypot] [x_halflongside y_halflongside] 5]
   } if
    end
  }
  (Random) {   % ALSO PERHAPS: random but symmetrical ?
    10 dict begin
    [ /i /triangle ] { exch def } forall
    urand 0.5 gt { triangle
    } { triangle i SubdivisionProcs (Default) get exec
    } ifelse
    end
  }
  (Default) {
    10 dict begin
    [ /i /triangle ] { exch def } forall
    /placement triangle 3 get def
    /x1 triangle 0 get 0 get def /y1 triangle 0 get 1 get def  % right-angle
    /x2 triangle 1 get 0 get def /y2 triangle 1 get 1 get def  % 63deg angle
    /x3 triangle 2 get 0 get def /y3 triangle 2 get 1 get def  % 27deg angle
    /x_perptohypot  x2 x3 x2 sub 0.2 mul add def
    /y_perptohypot  y2 y3 y2 sub 0.2 mul add def
    /x_halflongside x1 x3 add 0.5 mul def
    /y_halflongside y1 y3 add 0.5 mul def
    [[x_perptohypot y_perptohypot] [x2 y2] [x1 y1] 1]
    [[x_perptohypot x3 add 0.5 mul  y_perptohypot y3 add 0.5 mul]
     [x_halflongside y_halflongside] [x3 y3] 2]
    [[x_perptohypot x1 add 0.5 mul  y_perptohypot y1 add 0.5 mul]
     [x1 y1] [x_halflongside y_halflongside] 3]
    [[x_perptohypot x3 add 0.5 mul  y_perptohypot y3 add 0.5 mul]
     [x_halflongside y_halflongside] [x_perptohypot y_perptohypot] 4]
    PinwheelFractal not {
      [[x_perptohypot x1 add 0.5 mul  y_perptohypot y1 add 0.5 mul]
       [x_perptohypot y_perptohypot] [x_halflongside y_halflongside] 5]
    } if
    end
  }
>> def

% SubdivideTriangle takes a triangle as an argument
% and returns the triangles that result from its substitution
/SubdivideTriangle {   % usage: triangle option SubdivideTriangle
  20 dict begin
  [ /i /option /triangle ] { exch def } forall
  /placement triangle 3 get def
  placement 5 gt { exit } if
  triangle i SubdivisionProcs option get exec
  end
} def

/ConwayTriangles { % usage: N xBL yBL xTR yTR option ConwayTriangles
  20 dict begin
  [/option /yTR /xTR /yBL /xBL /N ] { exch def } forall
  % triangle format: [[x1 y1] [x2 y2] [x3 y3] placement]
  % where x1y1 is the right-angle, x2y2 is the short side, x3y3 the long side
  % triangle-placement encoding: 1=x2y2=63deg 2=x3y3=27deg
  % 3=x1y1-to-halfway-along-side 4=middle-of-hypotenuse 5=interior
  % First calculate the other corners: xTL yTL xBR yBR
  /diag xTR xBL sub dup mul  yTR yBL sub dup mul add sqrt def
  /shortside diag sqrt5 div def
  /ang yTR yBL sub xTR xBL sub atan deg63 sub def  % angle of top and bottom
  /xTL xTR ang cos shortside mul sub def
  /yTL yTR ang sin shortside mul sub def
  /xBR xBL ang cos shortside mul add def
  /yBR yBL ang sin shortside mul add def
  /oldtriangles [
    [[xTL yTL] [xTR yTR] [xBL yBL] 5] [[xBR yBR] [xBL yBL] [xTR yTR] 5]
  ] def
  /iteration 0 def
  N {
    /iteration iteration 1 add def
    /newtriangles oldtriangles length 5 mul array def  % a new blank array
    /i 0 def   % index into newtriangles
	oldtriangles {
      /oldtriangle exch def
      oldtriangle null eq { pop exit } if
      [ oldtriangle option iteration SubdivideTriangle ] {
        % for each new subtriangle
        dup null eq { pop exit } if  % if null, pop and break
        newtriangles i 3 -1 roll put
        /i i 1 add def
      } forall
    } forall
	/oldtriangles newtriangles chop_nulls def
  } repeat   % recurse N times
  oldtriangles % and leave the array of triangles on the stack
  end
} def

%DrawTriangles draws the triangles given in the array on the stack
/DrawTriangles {
  % XXX Should be able to NOT FILL, ie: remain transparent, and only stroke.
  % XXX but setrgbcolor clips the values 0..1
  20 dict begin
  /triangles exch def
  triangles {
    /triangle exch def
    /x1 triangle 0 get 0 get def /y1 triangle 0 get 1 get def
    /x2 triangle 1 get 0 get def /y2 triangle 1 get 1 get def
	/x3 triangle 2 get 0 get def /y3 triangle 2 get 1 get def
	/xc x1 x2 add x3 add 3.0 div def /yc y1 y2 add y3 add 3.0 div def
    newpath
      xc yc fillcolorProc  % XXX could detect a null on the stack ?
      x1 y1 moveto
      x2 y2 lineto
      x3 y3 lineto
    closepath fill
	currentlinewidth 0 ne {   % test for currentlinewidth
      newpath
        xc yc linecolorProc
        x1 y1 moveto
        x3 y3 lineto
        x2 y2 lineto
        x1 y1 lineto
      stroke
	} if
  } forall
  end
} def

/xmax currentpagedevice (PageSize) get 0 get def
/ymax currentpagedevice (PageSize) get 1 get def
/xmid xmax 0.5 mul def  /ymid ymax 0.5 mul def
/start_time usertime def
/end_time usertime def

%%EndProlog

%%Page: 1 1
%%BeginPageSetup
%%EndPageSetup
% /seed seed 1 add def seed srand
% 37 68 69 74 75 90 95 98 100 101 106 107 109 111
111 srand
/fillcolorProc { pop pop
  [ pink red paleblue blue violet orange darkorange green darkgreen yellow darkgrey ]
  randomrgb setrgbcolor
} def
/linecolorProc { pop pop black setrgbcolor } def
0 setlinewidth
/PinwheelFractal false def
gsave xmid ymid translate  -1.414 1.2 scale
5   ymax -0.25 mul  ymid neg    ymax 0.25 mul ymid
 (SnakeForm) ConwayTriangles
DrawTriangles
grestore
% showpage

