%!PS-Adobe-3.0 EPSF-3.0
%%BoundingBox: 0 0 2000 2828
%%%%%%%%%%%%%%%%%%%%%%%%%%%%%%%%%%%%%%%%%%%%%%%%%%%%%%%%%%%%%%%%%%%%%%%%%
%           This EPS is Copyright (c) 2019, Peter J Billam              %
% Permission is granted  to any individual or institution to use, copy, %
% modify or redistribute this software, so long as it is not resold for %
% profit, and provided this notice is retained. It is provided "as is", %
% without any express or implied warranty.        http://pjb.com.au     %
%%%%%%%%%%%%%%%%%%%%%%%%%%%%%%%%%%%%%%%%%%%%%%%%%%%%%%%%%%%%%%%%%%%%%%%%%
%%EndComments
(/home/pjb/ps/lib/colours.ps) run

%%BeginProlog
/xmax 2000 def  /ymax 2828 def
/xmid xmax 0.5 mul def  /ymid ymax 0.5 mul def
/radialmoveto {   % r theta radialmoveto
  5 dict begin [ /theta /r ] { exch def } forall
  theta cos r mul  theta sin r mul  moveto
  end
} def
/radiallineto {   % r theta radiallineto
  5 dict begin [ /theta /r ] { exch def } forall
  theta cos r mul  theta sin r mul  lineto
  end
} def
%%EndProlog

%%BeginPageSetup
%%EndPageSetup
gsave
xmid ymid translate
1.0 1.25 scale
/colours1 [ blue 0.8 paleblue 0.2 rgbmix white ] def  /icolour1 0 def
/colours2 [ red orange 0.5 darkorange 0.5 rgbmix black ] def  /icolour2 0 def
/r xmid dup mul ymid dup mul add sqrt 0.90 mul def
/n_sides  48 def
/theta    360 n_sides div def
/thetaby2 180 n_sides div def
/start_ang thetaby2 def
/ang start_ang def  r ang radialmoveto
/scaling 0.90 def
/n_recursions 52 def
0 1 n_recursions 1 sub {  % recurse
  /i_recursion exch def
  /start_ang start_ang thetaby2 add def
  /ang start_ang def
  /r_new r scaling mul def
  /colour_fade 1.0 i_recursion n_recursions div sub 0.08 sub 1.15 mul  def
  colour_fade  1.0 gt { /colour_fade 1.0 def } if
  colour_fade  0.0 lt { /colour_fade 0.0 def } if
  /colour_fade colour_fade 6 exp def
  0 1 n_sides 1 sub {
    /iside exch def
    r ang radialmoveto  r ang theta add  radiallineto  % base outward
    r_new  ang thetaby2 add  radiallineto closepath
    colours1 icolour1 rgbget 1 colour_fade sub white colour_fade rgbmix
    setrgbcolor fill
    /icolour1 icolour1 1 add colours1 rgblength mod def
    r ang radialmoveto  r_new ang thetaby2 add  radiallineto  % base inward
    r_new ang thetaby2 sub  radiallineto closepath
    colours2 icolour2 rgbget 1 colour_fade sub white colour_fade rgbmix
    setrgbcolor fill
    /icolour2 icolour2 1 add colours2 rgblength mod def
    /ang ang theta add def
  } for
  /icolour2 icolour2 1 add colours2 rgblength mod def
  /r  r scaling mul def
} for
grestore
/Parisian xmid 0.18 mul selectfont  darkred setrgbcolor
ymid 0.12 mul xmid .05 mul moveto
gsave 90 rotate (so that . . .) show grestore
xmax 0.97 mul ymax .76 mul moveto
gsave 90 rotate (so what . . .) show grestore

%%EOF
