%!PS-Adobe-3.0 EPSF-3.0
%%BoundingBox: 0 0 1000 1414
%%%%%%%%%%%%%%%%%%%%%%%%%%%%%%%%%%%%%%%%%%%%%%%%%%%%%%%%%%%%%%%%%%%%%%%%%
%           This EPS is Copyright (c) 2019, Peter J Billam              %
% Permission is granted  to any individual or institution to use, copy, %
% modify or redistribute this software, so long as it is not resold for %
% profit, and provided this notice is retained. It is provided "as is", %
% without any express or implied warranty.    http://www.pjb.com.au     %
%%%%%%%%%%%%%%%%%%%%%%%%%%%%%%%%%%%%%%%%%%%%%%%%%%%%%%%%%%%%%%%%%%%%%%%%%
% https://en.wikipedia.org/wiki/Pinwheel_tiling
% http://tilings.math.uni-bielefeld.de/substitution/pinwheel/
%%EndComments
%%BeginProlog
(/home/pjb/ps/lib/colours.ps) run

%---------------------------------------------
%Program starts
%---------------------------------------------

/PenroseOptions <<
  (arc_linewidth) 2
  (arc1_color) [ blue ]
>> def

0.0002 setlinewidth

/chop_nulls {  % usage: array chop_nulls => subarray-with-no-trailing-nulls
  % Because when creating a large array, it's MUCH FASTER to
  % create an array with a large size then set its elements with put,
  % than it is to construct a large literal array with [ and ]
  % So chop_nulls meets the need to trim trailing nulls off the end ...
  10 dict begin  /a exch def
  /i 0 def  % the index of the first null
  % a { null eq { exit } if   /i i 1 add def } forall % sequential search
  % binary search is faster, but assumes the nulls are contiguous at the end
  /i0 0 def  /iN a length 1 sub def
  20 {   % max array size is 65535 = 2^16
    a i0 get null eq { /i i0 def exit } if
    a iN get null ne { /i iN 1 add def exit } if
    iN i0 sub 10 le {  % short ... we do a sequential search ...
      /i i0 def 10 {
        a i get null eq { exit } if
        /i i 1 add def
        i iN ge { exit } if
      } repeat
      exit
    } if
    /imid i0 iN add 0.5 mul round cvi def
    a imid get null eq { /iN imid def } { /i0 imid def } ifelse
  } repeat 
  a 0 i getinterval
  end
} def

% arc trig functions
/acos2 { 2 copy dup mul exch dup mul sub sqrt exch pop exch atan } def
/acos  { 1 acos2 } def

% These values are used a lot, better to have constants for them
/sqrt5 5.0 sqrt def
/sin27 1.0 sqrt5 div def  % actually 26.565051177078 degrees
/cos27 2.0 sqrt5 div def
/deg27 26.56505117708 def
/deg63 90 deg27 sub def

/fillcolorProc { pop pop 1 1 1 setrgbcolor } def
/linecolorProc { pop pop 0 0 0 setrgbcolor } def

%DrawTriangles draws the triangles given in the array on the stack
/DrawTriangles {
  20 dict begin
  /triangles exch def
  triangles {
    /triangle exch def
    %triangle ==
    /x1 triangle 0 get 0 get def /y1 triangle 0 get 1 get def
    /x2 triangle 1 get 0 get def /y2 triangle 1 get 1 get def
	/x3 triangle 2 get 0 get def /y3 triangle 2 get 1 get def
	/xc x1 x2 add x3 add 3.0 div def /yc y1 y2 add y3 add 3.0 div def
    newpath
      xc yc fillcolorProc
      x1 y1 moveto
      x2 y2 lineto
      x3 y3 lineto
    closepath fill
	currentlinewidth 0 ne {   % test for currentlinewidth
      newpath
        xc yc linecolorProc
        x1 y1 moveto
        x3 y3 lineto
        x2 y2 lineto
        x1 y1 lineto
      stroke
	} if
  } forall
  end
} def

/half_base_squared 0 def
/are_close {   % usage:  [x1 y1] [x2 y2] are_close  =>  true or false
  half_base_squared
  3 1 roll
  5 dict begin
  [ /pos2 /pos1 ] { exch def } forall
  pos2 1 get pos1 1 get sub dup mul pos2 0 get pos1 0 get sub dup mul add
  gt
  end
} def

/PinwheelFractal false def

% subTriangle takes a triangle as an argument
% and returns the triangles that result from its substitution
/subTriangle {
  % /half_base_sq 0 def
  20 dict begin
  /triangle exch def
  /x1 triangle 0 get 0 get def /y1 triangle 0 get 1 get def  % right-angle
  /x2 triangle 1 get 0 get def /y2 triangle 1 get 1 get def  % 63deg angle
  /x3 triangle 2 get 0 get def /y3 triangle 2 get 1 get def  % 27deg angle
  % a total rewrite for the Conway subdivision
  /x_perptohypot  x2 x3 x2 sub 0.2 mul add def
  /y_perptohypot  y2 y3 y2 sub 0.2 mul add def
  /x_halflongside x1 x3 add 0.5 mul def
  /y_halflongside y1 y3 add 0.5 mul def
  [[x_perptohypot y_perptohypot] [x2 y2] [x1 y1]]
  [[x_perptohypot x1 add 0.5 mul  y_perptohypot y1 add 0.5 mul]
   [x1 y1] [x_halflongside y_halflongside]]
  [[x_perptohypot x3 add 0.5 mul  y_perptohypot y3 add 0.5 mul]
   [x_halflongside y_halflongside] [x3 y3]]
  [[x_perptohypot x3 add 0.5 mul  y_perptohypot y3 add 0.5 mul]
   [x_halflongside y_halflongside] [x_perptohypot y_perptohypot]]
  PinwheelFractal not {
  [[x_perptohypot x1 add 0.5 mul  y_perptohypot y1 add 0.5 mul]
   [x_perptohypot y_perptohypot] [x_halflongside y_halflongside]]
  } if
  % half_base_sq  % use the stack to communicate between dicts
  end
  % /half_base_squared exch def
} def

/ConwayTriangles {   % usage: N x1 y1 x2 y2 x3 y3 ConwayTriangles
  20 dict begin
  [ /y3 /x3 /y2 /x2 /y1 /x1 /N ] { exch def } forall
  % start with just these two triangles:
  /oldtringls [[[x1 y1] [x2 y2] [x3 y3]] [0 1 [x2 y2] [x1 y1]]] def
  oldtringls N {
    [ exch { subTriangle } forall ]
  } repeat   % recurse N times
  %  leave the array of triangles on the stack
  end
} def

/new_ConwayTriangles {   % usage: N xBL yBL xTR yTR new_ConwayTriangles
  20 dict begin
  [/yTR /xTR /yBL /xBL /N ] { exch def } forall
  % triangle format: [[x1 y1] [x2 y2] [x3 y3]]
  % where x1y1 is the right-angle, x2y2 is the short side, x3y3 the long side
  % calculate the other corners: xTL yTL xBR yBR
  /diag xTR xBL sub dup mul  yTR yBL sub dup mul add sqrt def
  /shortside diag sqrt5 div def
  /ang yTR yBL sub xTR xBL sub atan deg63 sub def  % angle of top and bottom
  /xTL xTR ang cos shortside mul sub def
  /yTL yTR ang sin shortside mul sub def
  /xBR xBL ang cos shortside mul add def
  /yBR yBL ang sin shortside mul add def
  /oldtringls [
    [[xTL yTL] [xTR yTR] [xBL yBL]] [[xBR yBR] [xBL yBL] [xTR yTR]]
  ] def
  oldtringls N {
    /newtringls oldtringls length 5 mul array def
    /i 0 def   % OLD:   [ exch { subTriangle } forall ]
	oldtringls {
      dup null eq { pop exit } if
      [ exch subTriangle ] {
        dup null eq { pop exit } if
        newtringls i 3 -1 roll put
        /i i 1 add def
      } forall
    } forall
	/oldtringls newtringls chop_nulls def
  } repeat   % recurse N times
  oldtringls % and leave the array of triangles on the stack
  end
} def

/xmax 1000 def
/ymax 1414 def
/xmid xmax 0.5 mul def  /ymid ymax 0.5 mul def
/start_time usertime def
/end_time usertime def

%%EndProlog

%%Page: 1 1
%%BeginPageSetup
%%EndPageSetup
/fillcolorProc { pop pop
  [ pink red paleblue blue violet orange darkorange green darkgreen yellow darkgrey ]
  randomrgb setrgbcolor
} def
/linecolorProc { pop pop black setrgbcolor } def
0 setlinewidth
0 0 xmax ymax black setrgbcolor rectfill
/PinwheelFractal true def
4  xmid ymax 4 div sub  0  xmid ymax 4 div add ymax new_ConwayTriangles
DrawTriangles
gsave
  xmax 0.05 mul  ymax 0.97 mul translate 270 rotate
  /Helvetica-Oblique xmax 0.113 mul selectfont white setrgbcolor
  0 0 moveto (taslug.org.au) show
%  /Helvetica-Oblique xmax 0.041 mul selectfont white setrgbcolor
%  ymax .57 mul 0 moveto (meet the Linux experts) show
grestore
gsave
  xmax 0.91 mul  ymax translate 270 rotate
  /Helvetica-Oblique xmax 0.044 mul selectfont white setrgbcolor
  ymax .645 mul 0 moveto (meet the Linux experts) show
%  ymax .29 mul 0 moveto (6:30 pm) show
%  ymax .50 mul 0 moveto (every second Thursday of the month) show
grestore
showpage

