%!PS-Adobe-2.0
%%%%%%%%%%%%%%%%%%%%%%%%%%%%%%%%%%%%%%%%%%%%%%%%%%%%%%%%%%%%%%%%%%%%%%%%%
%        This Postscript is Copyright (c) 2019, Peter J Billam          %
% Permission is granted  to any individual or institution to use, copy, %
% modify or redistribute this software, so long as it is not resold for %
% profit, and provided this notice is retained. It is provided "as is", %
% without any express or implied warranty.    http://www.pjb.com.au     %
%%%%%%%%%%%%%%%%%%%%%%%%%%%%%%%%%%%%%%%%%%%%%%%%%%%%%%%%%%%%%%%%%%%%%%%%%
% https://en.wikipedia.org/wiki/Pinwheel_tiling
% http://tilings.math.uni-bielefeld.de/substitution/pinwheel/
%  %%BeginResource: procset conway_triangles

(/home/pjb/ps/lib/colours.ps) run
(/home/pjb/ps/lib/random.ps)  run
(/home/pjb/ps/lib/fonts.ps)  run

0.0002 setlinewidth

/transparent { null null null } def
/seed 10 irand 100 mul def   % used in page 7
% /concat { BAD NAME !
%   5 dict begin
%   [ /s2  /s1 ] { exch 600 string cvs def } forall
%   /s s1 length s2 length add string def
%   s1 s copy
%   s  s1 length  s2  putinterval
%   s  
%   end
% } def
/Wiggliness 0.05 def
/Rotation   0.65  def
/chopped_gauss_rand {  % constrained between 0.1 and 0.9
  5 dict begin
  /r 0.5 Wiggliness grand def
  r 0.1 lt { /r 0.1 def } if
  r 0.9 gt { /r 0.9 def } if
  r
  end
} bind def

/chop_nulls {  % usage: array chop_nulls => subarray-with-no-trailing-nulls
  % Because when creating a large array, it's MUCH FASTER to
  % create an array with a large size then set its elements with put,
  % than it is to construct a large literal array with [ and ]
  % So chop_nulls meets the need to trim trailing nulls off the end ...
  10 dict begin  /a exch def
  /i 0 def  % the index of the first null
  % binary search is faster, but assumes the nulls are contiguous at the end
  /i0 0 def  /iN a length 1 sub def
  20 {   % max array size is 65535 = 2^16
    a i0 get null eq { /i i0 def exit } if
    a iN get null ne { /i iN 1 add def exit } if
    iN i0 sub 10 le {  % short ... we do a sequential search ...
      /i i0 def 10 {
        a i get null eq { exit } if
        /i i 1 add def
        i iN ge { exit } if
      } repeat
      exit
    } if
    /imid i0 iN add 0.5 mul round cvi def
    a imid get null eq { /iN imid def } { /i0 imid def } ifelse
  } repeat 
  a 0 i getinterval
  end
} def

% arc trig functions
/acos2 { 2 copy dup mul exch dup mul sub sqrt exch pop exch atan } def
/acos  { 1 acos2 } def

% These values are used a lot, better to have constants for them
/sqrt5 5.0 sqrt def
/sin27 1.0 sqrt5 div def  % actually 26.565051177078 degrees
/cos27 2.0 sqrt5 div def
/deg27 26.56505117708 def
/deg63 90 deg27 sub def

/fillcolorProc { pop pop 1 1 1 } def
/linecolorProc { pop pop 0 0 0 } def


/half_base_squared 0 def
/are_close {   % usage:  [x1 y1] [x2 y2] are_close  =>  true or false
  half_base_squared
  3 1 roll
  5 dict begin
  [ /pos2 /pos1 ] { exch def } forall
  pos2 1 get pos1 1 get sub dup mul pos2 0 get pos1 0 get sub dup mul add
  gt
  end
} def

/SierpinskyFractal false def

% What's the use of placement ?
/triangle 4 array def
% triangle format: [[x1 y1] [x2 y2] [x3 y3] placement]
% x1y1 is the right-angle, x2y2 is the short side, x3y3 the long side
% triangle-placement encoding: 1=x2y2=63deg 2=x3y3=27deg
% 3=x1y1-to-halfway-along-side 4=middle-of-hypotenuse 5=interior
% so that 4 and 5 form the little rectangle
/SubdivideTriangleProcs << % triangle i SubdivideTriangleProcs option get exec
  % just pushes the new triangles onto the stack
  (Rotate) { % 
    15 dict begin
    [ /i /triangle ] { exch def } forall
    /placement triangle 3 get def
    /x1 triangle 0 get 0 get def    /y1 triangle 0 get 1 get def
    /x2 triangle 1 get 0 get def    /y2 triangle 1 get 1 get def
    /x3 triangle 2 get 0 get def    /y3 triangle 2 get 1 get def
    % the shifted midpoints of the opposite sides ...
    /r Rotation def
    /x_half_1 x2 r mul x3 1.0 r sub mul add def
    /y_half_1 y2 r mul y3 1.0 r sub mul add def
    /r Rotation def
    /x_half_2 x3 r mul x1 1.0 r sub mul add def
    /y_half_2 y3 r mul y1 1.0 r sub mul add def
    /r Rotation def
    /x_half_3 x1 r mul x2 1.0 r sub mul add def
    /y_half_3 y1 r mul y2 1.0 r sub mul add def
    [[x1 y1] [x_half_2 y_half_2] [x_half_3 y_half_3] 1]
    [[x2 y2] [x_half_1 y_half_1] [x_half_3 y_half_3] 2]
    [[x3 y3] [x_half_1 y_half_1] [x_half_2 y_half_2] 3]
    SierpinskyFractal not {
      [[x_half_1 y_half_1] [x_half_2 y_half_2] [x_half_3 y_half_3] 4]
    } if
    end
  }
  (Random) {   % ALSO PERHAPS: random but symmetrical ?
    10 dict begin
    [ /i /triangle ] { exch def } forall
    urand 0.6 gt { triangle
    } { triangle i SubdivideTriangleProcs (Default) get exec
    } ifelse
    end
  }
  (Wiggly) {
    15 dict begin
    [ /i /triangle ] { exch def } forall
    /placement triangle 3 get def
    /x1 triangle 0 get 0 get def    /y1 triangle 0 get 1 get def
    /x2 triangle 1 get 0 get def    /y2 triangle 1 get 1 get def
    /x3 triangle 2 get 0 get def    /y3 triangle 2 get 1 get def
    % the approximate midpoints of the opposite sides ...
    /r chopped_gauss_rand def
    /x_half_1 x2 r mul x3 1.0 r sub mul add def
    /y_half_1 y2 r mul y3 1.0 r sub mul add def
    /r chopped_gauss_rand def
    /x_half_2 x1 r mul x3 1.0 r sub mul add def
    /y_half_2 y1 r mul y3 1.0 r sub mul add def
    /r chopped_gauss_rand def
    /x_half_3 x1 r mul x2 1.0 r sub mul add def
    /y_half_3 y1 r mul y2 1.0 r sub mul add def
    [[x1 y1] [x_half_2 y_half_2] [x_half_3 y_half_3] 1]
    [[x2 y2] [x_half_1 y_half_1] [x_half_3 y_half_3] 2]
    [[x3 y3] [x_half_1 y_half_1] [x_half_2 y_half_2] 3]
    SierpinskyFractal not {
      [[x_half_1 y_half_1] [x_half_2 y_half_2] [x_half_3 y_half_3] 4]
    } if
    end
  }
  (Spiky) {
    10 dict begin
    [ /i /triangle ] { exch def } forall
    /placement triangle 3 get def
    /x1 triangle 0 get 0 get def    /y1 triangle 0 get 1 get def
    /x2 triangle 1 get 0 get def    /y2 triangle 1 get 1 get def
    /x3 triangle 2 get 0 get def    /y3 triangle 2 get 1 get def
    % the approximate midpoints of the opposite sides ...
    /x_half_1 x2 x3 add chopped_gauss_rand mul def
    /y_half_1 y2 y3 add chopped_gauss_rand mul def
    /x_half_2 x1 x3 add chopped_gauss_rand mul def
    /y_half_2 y1 y3 add chopped_gauss_rand mul def
    /x_half_3 x1 x2 add chopped_gauss_rand mul def
    /y_half_3 y1 y2 add chopped_gauss_rand mul def
    [[x1 y1] [x_half_2 y_half_2] [x_half_3 y_half_3] 1]
    [[x2 y2] [x_half_1 y_half_1] [x_half_3 y_half_3] 2]
    [[x3 y3] [x_half_1 y_half_1] [x_half_2 y_half_2] 3]
    SierpinskyFractal not {
      [[x_half_1 y_half_1] [x_half_2 y_half_2] [x_half_3 y_half_3] 4]
    } if
    end
  }
  (Default) {
    10 dict begin
    [ /i /triangle ] { exch def } forall
    /placement triangle 3 get def
    /x1 triangle 0 get 0 get def    /y1 triangle 0 get 1 get def
    /x2 triangle 1 get 0 get def    /y2 triangle 1 get 1 get def
    /x3 triangle 2 get 0 get def    /y3 triangle 2 get 1 get def
    % the midpoints of the opposite sides ...
    /x_half_1 x2 x3 add 0.5 mul def /y_half_1 y2 y3 add 0.5 mul def
    /x_half_2 x1 x3 add 0.5 mul def /y_half_2 y1 y3 add 0.5 mul def
    /x_half_3 x1 x2 add 0.5 mul def /y_half_3 y1 y2 add 0.5 mul def
    [[x1 y1] [x_half_2 y_half_2] [x_half_3 y_half_3] 1]
    [[x2 y2] [x_half_1 y_half_1] [x_half_3 y_half_3] 2]
    [[x3 y3] [x_half_1 y_half_1] [x_half_2 y_half_2] 3]
    SierpinskyFractal not {
      [[x_half_1 y_half_1] [x_half_2 y_half_2] [x_half_3 y_half_3] 4]
    } if
    end
  }
>> def

% SubdivideTriangle takes a triangle as an argument
% and returns the triangles that result from its substitution
/SubdivideTriangle {   % usage: triangle option SubdivideTriangle
  20 dict begin
  [ /i /option /triangle ] { exch def } forall
  /placement triangle 3 get def
  placement 5 gt { exit } if
  triangle i SubdivideTriangleProcs option get exec
  end
} def

/FourTriangles { % usage: N x1 y2 x2 y2 x3 y3 option FourTriangles
  20 dict begin
  [/option /y3 /x3 /y2 /x2 /y1 /x1 /N ] { exch def } forall
  % triangle format: [[x1 y1] [x2 y2] [x3 y3] placement]
  % where x1y1 is the right-angle, x2y2 is the short side, x3y3 the long side
  % triangle-placement encoding: 1=x2y2=63deg 2=x3y3=27deg
  % 3=x1y1-to-halfway-along-side 4=middle-of-hypotenuse 5=interior
  % First calculate the other corners: xTL yTL xBR yBR
  /oldtriangles [
    [[x1 y1] [x2 y2] [x3 y3] 5]
  ] def
  /iteration 0 def
  N {
    /iteration iteration 1 add def
    /newtriangles oldtriangles length 5 mul array def  % a new blank array
    /i 0 def   % index into newtriangles
	oldtriangles {
      /oldtriangle exch def
      oldtriangle null eq { pop exit } if
      [ oldtriangle option iteration SubdivideTriangle ] {
        % for each new subtriangle
        dup null eq { pop exit } if  % if null, pop and break
        newtriangles i 3 -1 roll put
        /i i 1 add def
      } forall
    } forall
	/oldtriangles newtriangles chop_nulls def
  } repeat   % recurse N times
  oldtriangles % and leave the array of triangles on the stack
  end
} def

%DrawTriangles draws the triangles given in the array on the stack
/DrawTriangles {
  % XXX Should be able to NOT FILL, ie: remain transparent, and only stroke.
  % XXX but setrgbcolor clips the values 0..1
  20 dict begin
  /triangles exch def
  triangles {
    /triangle exch def
    /x1 triangle 0 get 0 get def /y1 triangle 0 get 1 get def
    /x2 triangle 1 get 0 get def /y2 triangle 1 get 1 get def
	/x3 triangle 2 get 0 get def /y3 triangle 2 get 1 get def
	/xc x1 x2 add x3 add 3.0 div def /yc y1 y2 add y3 add 3.0 div def
    xc yc fillcolorProc  % fillcolorProc leaves r g b on the stack
    dup null eq {
      pop pop pop
    } {
      setrgbcolor newpath
      x1 y1 moveto
      x2 y2 lineto
      x3 y3 lineto
      closepath fill
    } ifelse
	currentlinewidth 0 ne {   % test for currentlinewidth
      newpath
        xc yc linecolorProc setrgbcolor
        x1 y1 moveto
        x3 y3 lineto
        x2 y2 lineto
        x1 y1 lineto
      stroke
	} if
  } forall
  end
} def


/xmax currentpagedevice (PageSize) get 0 get def
/ymax currentpagedevice (PageSize) get 1 get def
/xmid xmax 0.5 mul def /ymid ymax 0.5 mul def

%%Page: 1 1
%%BeginPageSetup
%%EndPageSetup
/fillcolorProc { pop pop
  [ red blue violet darkorange green yellow darkgrey ] randomrgb
} def
/linecolorProc { pop pop black } def
0 setlinewidth
/SierpinskyFractal false def

/grey10 .1 dup dup rgbdef
% /grey10 .15 0 .15 rgbdef
0 0 xmax ymax  grey10 setrgbcolor rectfill
% x y width height startrgb endrgb vertical convexity   rectgradientfill
0 xmax  xmax ymax xmax sub  grey10  white  true -.23  rectgradientfill
0 0     xmax ymax xmax sub  white   grey10 true  .23  rectgradientfill

5  0 0  0 xmax  xmax 0
  (Rotate) FourTriangles DrawTriangles
5  0 ymax  xmax ymax  xmax ymax xmax sub
  (Rotate) FourTriangles DrawTriangles
gsave
/Bitfont5x7 ymax xmax sub 0.45 mul selectfont   white setrgbcolor
xmax -0.004 mul  xmax 1.010 mul translate 270 rotate
 [ 0.40 0.40  0 2.9  0 0 ] concat
%  [ 2.15 -2.345  2 0  0 0 ] concat
% 0 0 moveto (pjb.com.au) show
0 0 moveto (PJB.COM.AU) show
grestore
showpage

%%EOF

