%!PS-Adobe-2.0
%%%%%%%%%%%%%%%%%%%%%%%%%%%%%%%%%%%%%%%%%%%%%%%%%%%%%%%%%%%%%%%%%%%%%%%%%
%        This Postscript is Copyright (c) 2019, Peter J Billam          %
% Permission is granted  to any individual or institution to use, copy, %
% modify or redistribute this software, so long as it is not resold for %
% profit, and provided this notice is retained. It is provided "as is", %
% without any express or implied warranty.        http://pjb.com.au     %
%%%%%%%%%%%%%%%%%%%%%%%%%%%%%%%%%%%%%%%%%%%%%%%%%%%%%%%%%%%%%%%%%%%%%%%%%
% see Tilings and Patterns p.119
%%EndComments
%%BeginProlog
(/home/pjb/ps/lib/colours.ps) run
/xmax currentpagedevice (PageSize) get 0 get def
/ymax currentpagedevice (PageSize) get 1 get def
/xmid xmax 0.5 mul def    /ymid ymax 0.5 mul def
/radialmoveto {   % r theta radialmoveto
  5 dict begin [ /theta /r ] { exch def } forall
  theta cos r mul  theta sin r mul  moveto
  end
} def
/radiallineto {   % r theta radiallineto
  5 dict begin [ /theta /r ] { exch def } forall
  theta cos r mul  theta sin r mul  lineto
  end
} def
/piby7    180 7.0 div  def
/twopiby7 360 7.0 div  def
%%EndProlog

%%Page: 1 1
%%BeginPageSetup
%%EndPageSetup
xmid ymid translate
/r xmid 0.4 mul def
/scaling 1.3 def
/ang 0 def
r 0 radialmoveto
1 1 6 { /i exch def
  gsave
    newpath r ang radialmoveto r scaling mul ang radiallineto stroke
  grestore
  /ang ang twopiby7 add def
  r ang radiallineto
} for
gsave
  newpath r ang radialmoveto r scaling mul ang radiallineto stroke
grestore
closepath stroke
0 1 6 { /i exch def
} for
showpage

%%EOF
