%!PS-Adobe-2.0
%%%%%%%%%%%%%%%%%%%%%%%%%%%%%%%%%%%%%%%%%%%%%%%%%%%%%%%%%%%%%%%%%%%%%%%%%
%        This Postscript is Copyright (c) 2019, Peter J Billam          %
% Permission is granted  to any individual or institution to use, copy, %
% modify or redistribute this software, so long as it is not resold for %
% profit, and provided this notice is retained. It is provided "as is", %
% without any express or implied warranty.        http://pjb.com.au     %
%%%%%%%%%%%%%%%%%%%%%%%%%%%%%%%%%%%%%%%%%%%%%%%%%%%%%%%%%%%%%%%%%%%%%%%%%
% see fig 3.1.5 p.118.   (note also pp.51,53)
%%EndComments
%%BeginProlog
(/home/pjb/ps/lib/colours.ps) run
/xmax currentpagedevice (PageSize) get 0 get def
/ymax currentpagedevice (PageSize) get 1 get def
/xmid xmax 0.5 mul def    /ymid ymax 0.5 mul def
/radialmoveto {   % r theta radialmoveto
  5 dict begin [ /theta /r ] { exch def } forall
  theta cos r mul  theta sin r mul  moveto
  end
} def
/radiallineto {   % r theta radiallineto
  5 dict begin [ /theta /r ] { exch def } forall
  theta cos r mul  theta sin r mul  lineto
  end
} def
%%EndProlog

%%Page: 1 1
%%BeginPageSetup
%%EndPageSetup
xmid ymid translate
/colours [ black darkgrey red darkviolet white ] def
xmax 0.004 mul setlinewidth
/r_inf xmid 0.8 mul def
/r1 r_inf 11   mul 33 div def
% r1 ==
/r2 r_inf 21 mul 33 div def
/r3 r_inf 29.5 mul 33 div def
/angs1 [ 36 108 180 252 324 ] def
/angs2 [ 0 26 46  72 98 118  144 170 190  216 242 266  288 314 334 ] def
/angs3 [ 0 18 36 48  72 90 108 126  144 162 180 198
         216 234 252 270  288 306 324 342 ] def
/len1 angs1 length def
/len2 angs2 length def
% 0 1 2 { /i1 exch def
0 1 len1 1 sub { /i1 exch def
  0 0 radialmoveto
  r1  angs1  i1 get  radiallineto
  /i2 i1 1 add 3 mul def   /ang2 angs2 i2 len2 mod get def
  r2  ang2  radiallineto  % we're now at the r2 vertex
  gsave  red setrgbcolor r3 ang2 radiallineto stroke grestore
  r1  angs1 i1 1 add       len1 mod get  radiallineto
  gsave r2  angs2 i2 1 add len2 mod get  radiallineto stroke grestore
  gsave r2  angs2 i2 2 add len2 mod get  radiallineto stroke grestore
  % colours randomrgbget setrgbcolor fill
  stroke
} for
showpage

%%EOF
