%!PS-Adobe-2.0
%%%%%%%%%%%%%%%%%%%%%%%%%%%%%%%%%%%%%%%%%%%%%%%%%%%%%%%%%%%%%%%%%%%%%%%%%
%        This Postscript is Copyright (c) 2019, Peter J Billam          %
% Permission is granted  to any individual or institution to use, copy, %
% modify or redistribute this software, so long as it is not resold for %
% profit, and provided this notice is retained. It is provided "as is", %
% without any express or implied warranty.    http://www.pjb.com.au     %
%%%%%%%%%%%%%%%%%%%%%%%%%%%%%%%%%%%%%%%%%%%%%%%%%%%%%%%%%%%%%%%%%%%%%%%%%
%%EndComments
%%BeginProlog
%%BeginResource: procset colours
%
% See http://www.pjb.com.au/comp/colours.html
%
/white       { 1    1    1    } def
/lightgrey   { 0.95 0.95 0.95 } def
/lightgray   { 0.95 0.95 0.95 } def
/grey        { 0.9  0.9  0.9  } def
/gray        { 0.9  0.9  0.9  } def
/mediumgrey  { 0.8  0.8  0.8  } def
/mediumgray  { 0.8  0.8  0.8  } def
/darkgrey    { 0.6  0.6  0.6  } def
/darkgray    { 0.6  0.6  0.6  } def
/black       { 0    0    0    } def
%%EndResource

/xmax currentpagedevice (PageSize) get 0 get def
/ymax currentpagedevice (PageSize) get 1 get def
/xmid xmax 0.5 mul def  /ymid ymax 0.5 mul def

%%EndProlog

%%Page: 1 1
%%BeginPageSetup
%%EndPageSetup
/x ymax 0.1 mul def
/y ymax 0.8 mul def
/dy ymax 0.08 mul def
/Helvetica dy 0.7 mul selectfont
/N 60000 def   % Brother arrays are limited to 65535 elements (Appendix B)

/t0 usertime def
[ N { 10 dict } repeat ]
% dup length   x y moveto 10 string cvs show /y y dy sub def
/t1 usertime def
t1 t0 sub    x y moveto 10 string cvs show /y y dy sub def
pop
% 320 mS on gs ; 1730 mS on Brother

/t0 usertime def
/a N array def  /i 0 def
0 N 1 { a exch 10 array put } for
/t1 usertime def
t1 t0 sub    x y moveto 10 string cvs show /y y dy sub def
%   10 mS on gs ; 210 mS on Brother


showpage

%%EOF

