%!PS-Adobe-2.0
%%%%%%%%%%%%%%%%%%%%%%%%%%%%%%%%%%%%%%%%%%%%%%%%%%%%%%%%%%%%%%%%%%%%%%%%%
%        This Postscript is Copyright (c) 2019, Peter J Billam          %
% Permission is granted  to any individual or institution to use, copy, %
% modify or redistribute this software, so long as it is not resold for %
% profit, and provided this notice is retained. It is provided "as is", %
% without any express or implied warranty.    http://www.pjb.com.au     %
%%%%%%%%%%%%%%%%%%%%%%%%%%%%%%%%%%%%%%%%%%%%%%%%%%%%%%%%%%%%%%%%%%%%%%%%%
%%EndComments
%%BeginProlog
% (/home/pjb/ps/lib/colours.ps) run
%%EndProlog
%%Page: 1 1
%%BeginPageSetup
%%EndPageSetup
/xmax currentpagedevice (PageSize) get 0 get def
/ymax currentpagedevice (PageSize) get 1 get def
/chop_nulls {  % usage: array chop_nulls => subarray with no trailing nulls
  10 dict begin  /a exch def
  /i 0 def  % the index of the first null
  % a { null eq { exit } if   /i i 1 add def } forall % sequential search
  % a binary search is faster, but assumes the nulls are contiguous at the end
  /i0 0 def  /iN a length 1 sub def
  20 {   % max array size is 65535 = 2^16
    a i0 get null eq { /i i0 def exit } if
    a iN get null ne { /i iN 1 add def exit } if
    iN i0 sub 4 le {
      /i i0 def 4 {
        a i get null eq { exit } if
        /i i 1 add def
        i iN ge { exit } if
      } repeat
      i exit
    } if
    /imid i0 iN add 0.5 mul round cvi def
    a imid get null eq { /iN imid def } { /i0 imid def } ifelse
  } repeat
  a 0 i  getinterval
  end
} def

/a 10 array def
a chop_nulls ==
a 0 (first) put
a chop_nulls ==
a 1 (second) put
a chop_nulls ==
a 2 (third) put
a chop_nulls ==
a 3 (fourth) put
a chop_nulls ==
a 4 (fifth) put
a chop_nulls ==
a 5 (sixth) put
a chop_nulls ==
a 6 (seventh) put
a chop_nulls ==
a 7 (eighth) put
a chop_nulls ==
a 8 (ninth) put
a chop_nulls ==
a 9 (tenth) put
a chop_nulls ==

showpage
%%EOF
