%!PS-Adobe-2.0
%%%%%%%%%%%%%%%%%%%%%%%%%%%%%%%%%%%%%%%%%%%%%%%%%%%%%%%%%%%%%%%%%%%%%%%%%
%        This Postscript is Copyright (c) 2019, Peter J Billam          %
% Permission is granted  to any individual or institution to use, copy, %
% modify or redistribute this software, so long as it is not resold for %
% profit, and provided this notice is retained. It is provided "as is", %
% without any express or implied warranty.    http://www.pjb.com.au     %
%%%%%%%%%%%%%%%%%%%%%%%%%%%%%%%%%%%%%%%%%%%%%%%%%%%%%%%%%%%%%%%%%%%%%%%%%
%%EndComments
%%BeginProlog
(/home/pjb/ps/lib/colours.ps) run
% Penrose tiling generator.
% Author: Ianiv Schweber
% Copyright: Ianiv Schweber, 2002
% This program is free software; you can redistribute it and/or modify
% it under the terms of the GNU General Public License as published by
% the Free Software Foundation; either version 2 of the License, or
% (at your option) any later version.
% This program is distributed in the hope that it will be useful,
% but WITHOUT ANY WARRANTY; without even the implied warranty of
% MERCHANTABILITY or FITNESS FOR A PARTICULAR PURPOSE.  See the
% GNU General Public License for more details.
% You should have received a copy of the GNU General Public License
% along with this program; if not, write to the Free Software
% Foundation, Inc., 59 Temple Place, Suite 330, Boston, MA  02111-1307  USA
% A copy of the GPL can be found at http://www.gnu.org/licenses/gpl.txt

% http://www.math.ubc.ca/~cass/courses/m308-02b/projects/schweber/penrose.html
% This program uses the substitution method with 4 types of triangular tiles
% to generate Penrose tilings. A starting set of triangles is given and the
% program recursively subdivides the tiles a specified amount of times.
% It tiles the plane in Thin and Thick Rhombs

% CHANGES
% 20190510 my style is to get rid of this  aload pop  stuff
% should centre the pattern at a given x,y and size
% should make the colours into procedures, with x,y as arguments
% be able to tile the plane also in kites and darts (see schweber's URL above)

% This code uses the Robinson Triangle Decomposition
% https://en.wikipedia.org/wiki/Penrose_tiling#Robinson_triangle_decompositions

%---------------------------------------------
%Program starts
%---------------------------------------------

0.0002 setlinewidth

% arc trig functions
/acos2 { 2 copy dup mul exch dup mul sub sqrt exch pop exch atan } def
/acos  { 1 acos2 } def

% These values are used a lot, better to have constants for them
/cos36 36 cos def
/cos72 72 cos def
/tan36 36 sin cos36 div def

% getTop calculates the third vertex of the triangle in the stack.
% It calculates the coordinates of the vertex and puts them in an array,
% but it calculates lambda and l (also needed by procedure /subTriangle)
% It puts lambda,l in the returned array before the vertex-coordinates-array.
/getTop {
  20 dict begin
  /base exch def
  /type base 0 get def
  /x1 base 2 get 0 get def
  /y1 base 2 get 1 get def
  /x2 base 3 get 0 get def
  /y2 base 3 get 1 get def
  /d
    x2 x1 sub dup mul  y2 y1 sub dup mul  add sqrt
    2 div
  def
  /lambda
    x2 x1 sub
    x2 x1 sub dup mul  y2 y1 sub dup mul  add sqrt
    div
    acos
  def
  type 0 eq { % type is 0 for a  T triangle (36,36,108)
    /l d cos36 div def
    [ lambda l [
      y2 y1 lt { x2 l 36 lambda add cos mul sub
	  }        { x1 l 36 lambda add cos mul add
	  } ifelse
      y2 y1 lt { y2 l 36 lambda add sin mul add
	  }        { y1 l 36 lambda add sin mul add
	  } ifelse
    ] ]
  } { % type is 1 for a  t triangle (72,72,36)
    /l d cos72 div def
    [ lambda l [
      y2 y1 lt { x2 l 72 lambda add cos mul sub
	  }        { x1 l 72 lambda add cos mul add
	  } ifelse
      y2 y1 lt { y2 l 72 lambda add sin mul add
	  }        { y1 l 72 lambda add sin mul add
	  } ifelse
    ] ]
  } ifelse
  end
} def

/TcolorProc    { pop pop Tcolor setrgbcolor } def
/tcolorProc    { pop pop tcolor setrgbcolor } def
/linecolorProc { pop pop linecolor setrgbcolor } def

%drawTriangles draws the triangles given in the array in the stack
/drawTriangles {
  20 dict begin
  /triangles exch def
  triangles {
    /triangle exch def
    /type triangle 0 get def
    /dir  triangle 1 get def
    triangle 2 2 getinterval
    /base exch def
    /x1 base 0 get 0 get def
    /y1 base 0 get 1 get def
    /x2 base 1 get 0 get def
    /y2 base 1 get 1 get def
    /top triangle getTop 2 get def
	/x3 top 0 get def
	/y3 top 1 get def
	/xc x1 x2 add x3 add 3.0 div def
	/yc y1 y2 add y3 add 3.0 div def
    newpath
      % But these procs need to know also the SIZE of the rhomb,
      % so as to be able to draw curves in them ...
      % Indeed it would be nicer to paint the whole rhomb at once...
      % how can I tell which triangles belong to the same rhomb ?
      % ( they can be widely separated in the array of triangles :-( )
      % (approximately) the same base mid-point ? say within .002 * xmax ?
      xc yc type 0 eq { TcolorProc } { tcolorProc } ifelse
      x1 y1 moveto
      x3 y3 lineto
      x2 y2 lineto
    closepath fill
    newpath   % could test for currentlinewidth>0.0001 or someting ...
      xc yc linecolorProc
      x1 y1 moveto
      x3 y3 lineto
      x2 y2 lineto % note the base is not stroked, so as to display the rhomb
    stroke
  } forall
  end
} def

% subTriangle takes a triangle as an argument
% and returns the triangles that results from its substitution
/subTriangle {
  20 dict begin
  /triangle exch def
  /type triangle 0 get def
  /dir triangle 1 get def
  /base triangle 2 2 getinterval def
  /x1 base 0 get 0 get def
  /y1 base 0 get 1 get def
  /x2 base 1 get 0 get def
  /y2 base 1 get 1 get def
  /temp triangle getTop def
  /lambda temp 0 get def
  /l temp 1 get def
  /top temp 2 get def
  /x3 top 0 get def
  /y3 top 1 get def
  /lambda2 x3 x1 sub x3 x1 sub dup mul y3 y1 sub dup mul add sqrt div acos def
  type 0 eq { % type is 0 for a  T triangle (36,36,108)
    dir 0 eq {
      [0 1 [x1 y1]
        y2 y1 sub 0 lt {
          [ x1 l lambda cos mul add y1 l lambda sin mul sub ]
        } {
          [ x1 l lambda cos mul add y1 l lambda sin mul add ]
        } ifelse
      ]
      dup /temp exch getTop 2 get def
      [1 1 [x3 y3] temp]
        [0 0 [x2 y2] [x3 y3]]
    } {
      [0 1 [x3 y3] [x1 y1]]
      [0 0
        y2 y1 sub 0 lt {
          [ x1 l 2 cos36 mul div lambda cos mul add
            y1 l 2 cos36 mul div lambda sin mul sub ]
        } {
          [ x1 l 2 cos36 mul div lambda cos mul add
            y1 l 2 cos36 mul div lambda sin mul add ]
        } ifelse
        [x2 y2]
      ]
      dup getTop 2 get [ exch 1 exch 0 exch [x3 y3] ]
    } ifelse
  } { % type is 1 for a  t triangle (72,72,36)
    dir 0 eq {
      [0 0 [x2 y2] [x3 y3]]
      dup getTop 2 get [ exch 1 exch 0 exch [x1 y1] ]
    } {
      [0 1 [x3 y3] [x1 y1]]
      dup /temp exch getTop 2 get def
      [1 1 [x2 y2] temp]
    } ifelse
  } ifelse
  end
} def

% usage:  triangles N subTriangles
% subTriangles takes a list of triangles
% and performs a substitution on each of them. It returns the new
% list of triangles. The substitution will be performed N times.
% /subTriangles {
%   {
%     [ exch { subTriangle } forall ]
%   } repeat
% } def

/penrose_rhombs {   % usage: x1 y1 x2 y2 N penrose_rhombs
  [ /N /y2 /x2 /y1 /x1 ] { exch def } forall
  % triangle format: [type dir base]  or  [type dir [x1 y1] [x2 y2]]
  % type is 0 for a  T triangle (36,36,108) or 1 for a  t triangle (72,72,36)
  % dir  is 0 for an L triangle or 1 for an R triangle
  % base is a pair of arrays for the end-points of the base [x1 y1] [x2 y2]
  % /triangles [[0 0 [xmid ymax] [xmid 0]] [0 1 [xmid 0] [xmid ymax]]] def
  % perhaps should be able to turn one of the triangles off
  % start with just these two triangles:
  [[0 0 [x1 y1] [x2 y2]] [0 1 [x2 y2] [x1 y1]]] N {
    [ exch { subTriangle } forall ]
  } repeat   % then recurse
  drawTriangles
} def

/setPenroseColors {   % usage: Tcolor tcolor linecolor setPenroseColors
  
} def

%%EndProlog


%%Page: 1 1
%%BeginPageSetup
/xmax currentpagedevice (PageSize) get 0 get def
/ymax currentpagedevice (PageSize) get 1 get def
/xmid xmax 0.5 mul def  /ymid ymax 0.5 mul def
%%EndPageSetup
/Tcolor    red        rgbdef   % triangle colors
/tcolor    orange     rgbdef
/linecolor darkgrey   rgbdef
xmid ymax  xmid 0  0 penrose_rhombs
showpage

%%Page: 2 2
%%BeginPageSetup
/xmax currentpagedevice (PageSize) get 0 get def
/ymax currentpagedevice (PageSize) get 1 get def
/xmid xmax 0.5 mul def  /ymid ymax 0.5 mul def
%%EndPageSetup
/Tcolor    red        rgbdef   % triangle colors
/tcolor    orange     rgbdef
/linecolor darkgrey   rgbdef
xmid ymax xmid 0  1 penrose_rhombs
showpage

%%Page: 3 3
%%BeginPageSetup
/xmax currentpagedevice (PageSize) get 0 get def
/ymax currentpagedevice (PageSize) get 1 get def
/xmid xmax 0.5 mul def  /ymid ymax 0.5 mul def
%%EndPageSetup
/Tcolor    red        rgbdef   % triangle colors
/tcolor    orange     rgbdef
/linecolor darkgrey   rgbdef
xmid ymax xmid 0  2 penrose_rhombs
showpage

%%Page: 4 4
%%BeginPageSetup
/xmax currentpagedevice (PageSize) get 0 get def
/ymax currentpagedevice (PageSize) get 1 get def
/xmid xmax 0.5 mul def  /ymid ymax 0.5 mul def
%%EndPageSetup
/Tcolor    red        rgbdef   % triangle colors
/tcolor    orange     rgbdef
/linecolor darkgrey   rgbdef
xmid ymax xmid 0  3 penrose_rhombs
showpage

%%Page: 5 5
%%BeginPageSetup
/xmax currentpagedevice (PageSize) get 0 get def
/ymax currentpagedevice (PageSize) get 1 get def
/xmid xmax 0.5 mul def  /ymid ymax 0.5 mul def
%%EndPageSetup
/Tcolor    red        rgbdef   % triangle colors
/tcolor    orange     rgbdef
/linecolor darkgrey   rgbdef
xmid ymax xmid 0  4 penrose_rhombs
showpage

%%Page: 6 6
%%BeginPageSetup
/xmax currentpagedevice (PageSize) get 0 get def
/ymax currentpagedevice (PageSize) get 1 get def
/xmid xmax 0.5 mul def  /ymid ymax 0.5 mul def
%%EndPageSetup
/Tcolor    red        rgbdef   % triangle colors
/tcolor    orange     rgbdef
/linecolor darkgrey   rgbdef
xmid ymax xmid 0  5 penrose_rhombs
showpage

%%Page: 7 7
%%BeginPageSetup
/xmax currentpagedevice (PageSize) get 0 get def
/ymax currentpagedevice (PageSize) get 1 get def
/xmid xmax 0.5 mul def  /ymid ymax 0.5 mul def
%%EndPageSetup
/Tcolor    red        rgbdef   % triangle colors
/tcolor    orange     rgbdef
/linecolor darkgrey   rgbdef
xmid ymax xmid 0  6 penrose_rhombs
showpage

%%Page: 8 8
%%BeginPageSetup
/xmax currentpagedevice (PageSize) get 0 get def
/ymax currentpagedevice (PageSize) get 1 get def
/xmid xmax 0.5 mul def  /ymid ymax 0.5 mul def
%%EndPageSetup
/Tcolor    red        rgbdef   % triangle colors
/tcolor    orange     rgbdef
/linecolor darkgrey   rgbdef
xmid ymax xmid 0  7 penrose_rhombs
showpage

%%Page: 9 9
%%BeginPageSetup
/xmax currentpagedevice (PageSize) get 0 get def
/ymax currentpagedevice (PageSize) get 1 get def
/xmid xmax 0.5 mul def  /ymid ymax 0.5 mul def
%%EndPageSetup
/Tcolor    red        rgbdef   % triangle colors
/tcolor    orange     rgbdef
/linecolor darkgrey   rgbdef
xmid ymax xmid 0  8 penrose_rhombs
showpage

%%Page: 10 10
%%BeginPageSetup
/xmax currentpagedevice (PageSize) get 0 get def
/ymax currentpagedevice (PageSize) get 1 get def
/xmid xmax 0.5 mul def  /ymid ymax 0.5 mul def
%%EndPageSetup
/Tcolor    red        rgbdef   % triangle colors
/tcolor    orange     rgbdef
/TcolorProc  { pop pop Tcolor setrgbcolor } def
/tcolorProc  { pop pop tcolor setrgbcolor } def
/linecolor darkgrey   rgbdef
xmid ymax 1.5 mul  xmid ymax -0.5 mul  8 penrose_rhombs
showpage

%%Page: 11 11
%%BeginPageSetup
/xmax currentpagedevice (PageSize) get 0 get def
/ymax currentpagedevice (PageSize) get 1 get def
/xmid xmax 0.5 mul def  /ymid ymax 0.5 mul def
%%EndPageSetup
/TcolorProc  { pop pop white setrgbcolor } def
/tcolorProc  { pop pop white setrgbcolor } def
/linecolor black      rgbdef
xmid ymax 1.5 mul  xmid ymax -0.5 mul  8 penrose_rhombs
showpage

%%Page: 12 12
%%BeginPageSetup
/xmax currentpagedevice (PageSize) get 0 get def
/ymax currentpagedevice (PageSize) get 1 get def
/xmid xmax 0.5 mul def  /ymid ymax 0.5 mul def
%%EndPageSetup
/Tcolor darkgrey rgbdef
/TcolorProc  {
	5 dict begin
	[ /yc /xc ] { exch def } forall
	dir 0 eq { /Tcolor [ darkgrey mediumgrey ] randomrgbget rgbdef } if
    Tcolor setrgbcolor
	end
} def
/tcolor    white      rgbdef
/linecolor black      rgbdef
xmid ymax 1.5 mul  xmid ymax -0.5 mul  8 penrose_rhombs
showpage

%%Page: 13 13
%%BeginPageSetup
/xmax currentpagedevice (PageSize) get 0 get def
/ymax currentpagedevice (PageSize) get 1 get def
/xmid xmax 0.5 mul def  /ymid ymax 0.5 mul def
%%EndPageSetup
/Tcolor    darkgrey   rgbdef   % triangle colors
/TcolorProc  {
	5 dict begin
	[ /yc /xc ] { exch def } forall
	/a xc xmid sub abs xmid div sqrt def  /b 1.0 a sub def
	black a mediumgrey b rgbmix setrgbcolor
	end
} def
/tcolorProc  {
	5 dict begin
	[ /yc /xc ] { exch def } forall
	/a xc xmid sub abs xmid div sqrt def  /b 1.0 a sub def
	darkgrey a white b rgbmix setrgbcolor
	end
} def
/linecolor grey       rgbdef
xmid ymax 2.0 mul  xmid ymax -1.0 mul  10 penrose_rhombs
showpage

%%EOF

