%!PS-Adobe-2.0
%%%%%%%%%%%%%%%%%%%%%%%%%%%%%%%%%%%%%%%%%%%%%%%%%%%%%%%%%%%%%%%%%%%%%%%%%
%        This Postscript is Copyright (c) 2019, Peter J Billam          %
% Permission is granted  to any individual or institution to use, copy, %
% modify or redistribute this software, so long as it is not resold for %
% profit, and provided this notice is retained. It is provided "as is", %
% without any express or implied warranty.    http://www.pjb.com.au     %
%%%%%%%%%%%%%%%%%%%%%%%%%%%%%%%%%%%%%%%%%%%%%%%%%%%%%%%%%%%%%%%%%%%%%%%%%
%%EndComments
%%BeginProlog
(/home/pjb/ps/lib/colours.ps) run
% Penrose tiling generator.
% Author: Ianiv Schweber
% Copyright: Ianiv Schweber, 2002
% This program is free software; you can redistribute it and/or modify
% it under the terms of the GNU General Public License as published by
% the Free Software Foundation; either version 2 of the License, or
% (at your option) any later version.
% This program is distributed in the hope that it will be useful,
% but WITHOUT ANY WARRANTY; without even the implied warranty of
% MERCHANTABILITY or FITNESS FOR A PARTICULAR PURPOSE.  See the
% GNU General Public License for more details.
% You should have received a copy of the GNU General Public License
% along with this program; if not, write to the Free Software
% Foundation, Inc., 59 Temple Place, Suite 330, Boston, MA  02111-1307  USA
% A copy of the GPL can be found at http://www.gnu.org/licenses/gpl.txt

% http://www.math.ubc.ca/~cass/courses/m308-02b/projects/schweber/penrose.html
% This program uses the substitution method with 4 types of triangular tiles
% to generate Penrose tilings. A starting set of triangles is given and the
% program recursively subdivides the tiles a specified amount of times.
% It tiles the plane in Thin and Thick Rhombs

% CHANGES
% 20190510 my style is to get rid of this  aload pop  stuff
% should centre the pattern at a given x,y and size
% should make the colours into procedures, with x,y as arguments
% be able to tile the plane also in kites and darts (see schweber's URL above)
% see https://en.wikipedia.org/wiki/Finite_subdivision_rule
% The Penrose tiling can be generated by a subdivision rule on a set of
% four tile types Half-kite, Half-dart, Sun, Star
% PJB: the subdivision of Half-kite and Half-dart have an ambiguity
% which need the curved lines to resolve.
% https://en.wikipedia.org/wiki/Finite_subdivision_rule#Examples_of_finite_subdivision_rules


% This code uses the Robinson Triangle Decomposition
% https://en.wikipedia.org/wiki/Penrose_tiling#Robinson_triangle_decompositions

%---------------------------------------------
%Program starts
%---------------------------------------------

0.0002 setlinewidth

/chop_nulls {  % usage: array chop_nulls => subarray-with-no-trailing-nulls
  % Because when creating a large array, it's MUCH FASTER to
  % create an array with a large size then set its elements with put,
  % than it is to construct a large literal array with [ and ]
  % So chop_nulls meets the need to trim trailing nulls off the end ...
  10 dict begin  /a exch def
  /i 0 def  % the index of the first null
  % a { null eq { exit } if   /i i 1 add def } forall % sequential search
  % binary search is faster, but assumes the nulls are contiguous at the end
  /i0 0 def  /iN a length 1 sub def
  20 {   % max array size is 65535 = 2^16
    a i0 get null eq { /i i0 def exit } if
    a iN get null ne { /i iN 1 add def exit } if
    iN i0 sub 10 le {  % short ... we do a sequential search ...
      /i i0 def 10 {
        a i get null eq { exit } if
        /i i 1 add def
        i iN ge { exit } if
      } repeat
      exit
    } if
    /imid i0 iN add 0.5 mul round cvi def
    a imid get null eq { /iN imid def } { /i0 imid def } ifelse
  } repeat 
  a 0 i getinterval
  end
} def

% arc trig functions
/acos2 { 2 copy dup mul exch dup mul sub sqrt exch pop exch atan } def
/acos  { 1 acos2 } def

% These values are used a lot, better to have constants for them
/sin36 36 sin def
/cos36 36 cos def
/cos72 72 cos def
/tan36 36 sin cos36 div def

% getTop calculates the third vertex of the triangle in the stack.
% It calculates the coordinates of the vertex and puts them in an array,
% but it calculates lambda and l (also needed by procedure /subTriangle)
% It puts lambda,l in the returned array before the vertex-coordinates-array.
/getTop {
  20 dict begin
  /base exch def
  /type base 0 get def
  /x1 base 2 get 0 get def
  /y1 base 2 get 1 get def
  /x2 base 3 get 0 get def
  /y2 base 3 get 1 get def
  /d  % d is the same as the sqrt of my half_base_squared
    x2 x1 sub dup mul  y2 y1 sub dup mul  add sqrt
    2 div
  def
  /lambda
    x2 x1 sub
    x2 x1 sub dup mul  y2 y1 sub dup mul  add sqrt
    div
    acos
  def
  type 0 eq { % type is 0 for a  T triangle (36,36,108) , a halfthickrhomb
    /l d cos36 div def
    [ lambda l [
      y2 y1 lt { x2 l 36 lambda add cos mul sub
	  }        { x1 l 36 lambda add cos mul add
	  } ifelse
      y2 y1 lt { y2 l 36 lambda add sin mul add
	  }        { y1 l 36 lambda add sin mul add
	  } ifelse
    ] ]
  } { % type is 1 for a  t triangle (72,72,36) , a halfthinrhomb
    /l d cos72 div def
    [ lambda l [
      y2 y1 lt { x2 l 72 lambda add cos mul sub
	  }        { x1 l 72 lambda add cos mul add
	  } ifelse
      y2 y1 lt { y2 l 72 lambda add sin mul add
	  }        { y1 l 72 lambda add sin mul add
	  } ifelse
    ] ]
  } ifelse
  end
} def

/TcolorProc    { pop pop Tcolor setrgbcolor } def
/tcolorProc    { pop pop tcolor setrgbcolor } def
/linecolorProc { pop pop linecolor setrgbcolor } def

%DrawTriangles draws the triangles given in the array in the stack
/DrawTriangles {
  20 dict begin
  /triangles exch def
  triangles {
    /triangle exch def
    /type triangle 0 get def
    /dir  triangle 1 get def
    triangle 2 2 getinterval
    /base exch def
    /x1 base 0 get 0 get def
    /y1 base 0 get 1 get def
    /x2 base 1 get 0 get def
    /y2 base 1 get 1 get def
    /top triangle getTop 2 get def
	/x3 top 0 get def
	/y3 top 1 get def
	/xc x1 x2 add x3 add 3.0 div def
	/yc y1 y2 add y3 add 3.0 div def
    newpath
      % But these procs need to know also the SIZE of the rhomb,
      % so as to be able to draw curves in them ...
      % Indeed it would be nicer to paint the whole rhomb at once...
      % how can I tell which triangles belong to the same rhomb ?
      % ( they can be widely separated in the array of triangles :-( )
      % (approximately) the same base mid-point ? say within .002 * xmax ?
      % type 0 is a halfthickrhomb, type 1 is a halfthinrhomb
      xc yc type 0 eq { TcolorProc } { tcolorProc } ifelse
      x1 y1 moveto
      x3 y3 lineto
      x2 y2 lineto
    closepath fill
	currentlinewidth 0 ne {
      newpath   % could test for currentlinewidth>0.0001 or someting ...
        xc yc linecolorProc
        x1 y1 moveto
        x3 y3 lineto
        x2 y2 lineto % the base is not stroked, so as to display the rhomb
      stroke
	} if
    % There is NOT a consistency between x1y1/x2y2 and blue/red :-(
    % so must construct the quadrilateral and test the vertex-neighbours
    % BETTER: with each triangle (=halfrhomb) store its curved lines !
    % and recurse-subdivide from a triangle aready with curves
    true {   % to test arcs or not to test arcs ?
      /a y2 y1 sub x2 x1 sub atan def  % angle
      blue setrgbcolor
      /halfbase x2 x1 sub dup mul y2 y1 sub dup mul add sqrt 0.5 mul def
      % that's the base ! but we want one of the other sides...
      2 setlinewidth
      type 0 eq {
        /d_ang 36 def
        /side halfbase cos36 div def
        /rad side 0.70 mul def
        dir 0 eq {  % must at least also test dir !
          x1 y1  rad  a  a d_ang add  arc  stroke
        } {
          /a a 180 add def
          x2 y2  rad  a d_ang sub  a  arc  stroke
        } ifelse
      } {
        /d_ang 72 def
        /side halfbase cos72 div def
        /rad side 0.30 mul def
        dir 0 eq {  % must at least also test dir !
          x1 y1  rad  a  a d_ang add  arc  stroke
        } {
          /a a 180 add def
          x2 y2  rad  a d_ang sub  a  arc  stroke
        } ifelse
      } ifelse
    } if
  } forall
  end
} def

/half_base_squared 0 def
/are_close {   % usage:  [x1 y1] [x2 y2] are_close  =>  true or false
  half_base_squared
  3 1 roll
  5 dict begin
  [ /pos2 /pos1 ] { exch def } forall
  pos2 1 get pos1 1 get sub dup mul pos2 0 get pos1 0 get sub dup mul add
  gt
  end
} def

% subTriangle takes a triangle as an argument
% and returns the triangles that results from its substitution
/subTriangle {
  /half_base_sq 0 def
  20 dict begin
  /triangle exch def
  /type triangle 0 get def
  /dir triangle 1 get def
  /base triangle 2 2 getinterval def
  /x1 base 0 get 0 get def
  /y1 base 0 get 1 get def
  /x2 base 1 get 0 get def
  /y2 base 1 get 1 get def
  /temp triangle getTop def
  /lambda temp 0 get def
  /l temp 1 get def
  /top temp 2 get def
  /x3 top 0 get def
  /y3 top 1 get def
  /lambda2 x3 x1 sub x3 x1 sub dup mul y3 y1 sub dup mul add sqrt div acos def
  % type 0 is a halfthickrhomb, type 1 is a halfthinrhomb
  type 0 eq { % type is 0 for a  T triangle (36,36,108)
    dir 0 eq {
      [0 1 [x1 y1]
        y2 y1 sub 0 lt {
          [ x1 l lambda cos mul add y1 l lambda sin mul sub ]
        } {
          [ x1 l lambda cos mul add y1 l lambda sin mul add ]
        } ifelse
      ]
      dup /temp exch getTop 2 get def
      [1 1 [x3 y3] temp]
        [0 0 [x2 y2] [x3 y3]]
    } {
      [0 1 [x3 y3] [x1 y1]]
      [0 0
        y2 y1 sub 0 lt {
          [ x1 l 2 cos36 mul div lambda cos mul add
            y1 l 2 cos36 mul div lambda sin mul sub ]
        } {
          [ x1 l 2 cos36 mul div lambda cos mul add
            y1 l 2 cos36 mul div lambda sin mul add ]
        } ifelse
        [x2 y2]
      ]
      dup getTop 2 get [ exch 1 exch 0 exch [x3 y3] ]
    } ifelse
  } { % type is 1 for a  t triangle (72,72,36)
    half_base_sq 0 eq {
      /half_base_sq x3 x1 sub dup mul y3 y1 sub dup mul add 0.5 mul def
    } if
    dir 0 eq {
      [0 0 [x2 y2] [x3 y3]]
      dup getTop 2 get [ exch 1 exch 0 exch [x1 y1] ]
    } {
      [0 1 [x3 y3] [x1 y1]]
      dup /temp exch getTop 2 get def
      [1 1 [x2 y2] temp]
    } ifelse
  } ifelse
  half_base_sq  % use the stack to communicate between dicts
  end
  /half_base_squared exch def
} def

/RobinsonTriangles {   % usage: x1 y1 x2 y2 N RobinsonTriangles
  20 dict begin
  [ /N /y2 /x2 /y1 /x1 ] { exch def } forall
  % triangle format: [type dir base]  or  [type dir [x1 y1] [x2 y2]]
  % type is 0 for a  T triangle (36,36,108) or 1 for a  t triangle (72,72,36)
  % type 0 is a halfthickrhomb, type 1 is a halfthinrhomb
  % dir  is 0 for an L triangle or 1 for an R triangle
  % base is a pair of arrays for the end-points of the base [x1 y1] [x2 y2]
  % /triangles [[0 0 [xmid ymax] [xmid 0]] [0 1 [xmid 0] [xmid ymax]]] def
  % start with just these two triangles:
  /oldtringls [[0 0 [x1 y1] [x2 y2]] [0 1 [x2 y2] [x1 y1]]] def
  oldtringls N {
    [ exch { subTriangle } forall ]
  } repeat   % recurse N times
  %  leave the array of triangles on the stack
  % DrawTriangles should not be a hard-coded part of this proc,
  % because we might want to convert to quadrilateral rhombs,
  % or subdivide the fat rhombs to generate quadrilateral kites_darts ...
  end
} def

/new_RobinsonTriangles {   % usage: x1 y1 x2 y2 N RobinsonTriangles
  10 dict begin
  [ /N /y2 /x2 /y1 /x1 ] { exch def } forall
  % triangle format: [type dir base]  or  [type dir [x1 y1] [x2 y2]]
  % type is 0 for a  T triangle (36,36,108) or 1 for a  t triangle (72,72,36)
  % dir  is 0 for an L triangle or 1 for an R triangle
  % base is a pair of arrays for the end-points of the base [x1 y1] [x2 y2]
  % /triangles [[0 0 [xmid ymax] [xmid 0]] [0 1 [xmid 0] [xmid ymax]]] def
  /oldtringls [[0 0 [x1 y1] [x2 y2]] [0 1 [x2 y2] [x1 y1]]] def
  oldtringls N {
    /newtringls oldtringls length 3 mul array def
    /i 0 def   % OLD:   [ exch { subTriangle } forall ]
	oldtringls {
      dup null eq { pop exit } if
      [ exch subTriangle ] {
        dup null eq { pop exit } if
        newtringls i 3 -1 roll put
        /i i 1 add def
      } forall
    } forall
	/oldtringls newtringls chop_nulls def
  } repeat   % recurse N times
  oldtringls % and leave the array of triangles on the stack
  % DrawTriangles is no longer hard-coded part in this proc,
  % because we might want to convert to quadrilateral rhombs,
  % or subdivide the fat rhombs to generate quadrilateral kites_darts ...
  end
} def

% quadrilateral format: [type [x1 y1] [x2 y2] [x3 y3] [x4 y4]]
% type is 0 for fatrhomb, 1 for thinrhomb, what about kite/dart ?
% [x1 y1] and [x3 y3] are the sharp vertices
% which however contradicts the usage of base = [x1 y1] [x2 y2] :-(
% and thinrhombs rotate all the vertices :-(
% the first triangle does not define [x4 y4]

/xmax currentpagedevice (PageSize) get 0 get def
/ymax currentpagedevice (PageSize) get 1 get def
/xmid xmax 0.5 mul def  /ymid ymax 0.5 mul def
/start_time usertime def
/end_time usertime def

%%EndProlog

%%Page: 1 1
%%BeginPageSetup
%%EndPageSetup
/TcolorProc    { pop pop red      setrgbcolor } def
/tcolorProc    { pop pop orange   setrgbcolor } def
/linecolorProc { pop pop darkgrey setrgbcolor } def
xmid ymax  xmid 0  0 RobinsonTriangles DrawTriangles
showpage

%%Page: 2 2
%%BeginPageSetup
%%EndPageSetup
/TcolorProc    { pop pop red      setrgbcolor } def
/tcolorProc    { pop pop orange   setrgbcolor } def
/linecolorProc { pop pop darkgrey setrgbcolor } def
xmid ymax xmid 0  1 RobinsonTriangles DrawTriangles
showpage

%%Page: 3 3
%%BeginPageSetup
%%EndPageSetup
/Tcolor    red        rgbdef   % triangle colors
/tcolor    orange     rgbdef
/linecolor darkgrey   rgbdef
xmid ymax xmid 0  2 RobinsonTriangles DrawTriangles
showpage

%%Page: 4 4
%%BeginPageSetup
%%EndPageSetup
/Tcolor    red        rgbdef   % triangle colors
/tcolor    orange     rgbdef
/linecolor darkgrey   rgbdef
xmid ymax xmid 0  3 RobinsonTriangles DrawTriangles
showpage

%%Page: 5 5
%%BeginPageSetup
%%EndPageSetup
/Tcolor    red        rgbdef   % triangle colors
/tcolor    orange     rgbdef
/linecolor darkgrey   rgbdef
xmid ymax xmid 0  4 RobinsonTriangles DrawTriangles
showpage

%%Page: 6 6
%%BeginPageSetup
%%EndPageSetup
/Tcolor    red        rgbdef   % triangle colors
/tcolor    orange     rgbdef
/linecolor darkgrey   rgbdef
xmid ymax xmid 0  5 RobinsonTriangles DrawTriangles
showpage

%%Page: 7 7
%%BeginPageSetup
%%EndPageSetup
/Tcolor    red        rgbdef   % triangle colors
/tcolor    orange     rgbdef
/linecolor darkgrey   rgbdef
xmid ymax xmid 0  6 RobinsonTriangles DrawTriangles
showpage

%%Page: 8 8
%%BeginPageSetup
%%EndPageSetup
/Tcolor    red        rgbdef   % triangle colors
/tcolor    orange     rgbdef
/linecolor darkgrey   rgbdef
xmid ymax xmid 0  7 RobinsonTriangles DrawTriangles
showpage

%%Page: 9 9
%%BeginPageSetup
%%EndPageSetup
/Tcolor    red        rgbdef   % triangle colors
/tcolor    orange     rgbdef
/linecolor darkgrey   rgbdef
xmid ymax xmid 0  8 RobinsonTriangles DrawTriangles
showpage

%%Page: 10 10
%%BeginPageSetup
%%EndPageSetup
/TcolorProc    { pop pop red setrgbcolor } def
/tcolorProc    { pop pop orange setrgbcolor } def
/linecolorProc { pop pop darkgrey setrgbcolor } def
xmid ymax 1.5 mul  xmid ymax -0.5 mul  8 RobinsonTriangles DrawTriangles

%/Times-Roman 15 selectfont black setrgbcolor
%20 200 moveto half_base_squared sqrt 20 string cvs show
%20 150 moveto [18 80] [28 170] are_close 20 string cvs show
showpage

%%Page: 11 11
%%BeginPageSetup
%%EndPageSetup
/sunx xmax .74 mul def
/suny ymax .79 mul def
/sunr xmax .10 mul def
/TcolorProc  { 5 dict begin /y exch def /x exch def
  y xmid 0.75 mul gt {
	sunx x sub dup mul suny y sub dup mul add  sunr dup mul lt {
      [ paleorange yellow ]
    } {
      [ blue paleblue ]
    } ifelse
  } {
    [ darkgreen darkbrown ]
  } ifelse
  randomrgbget setrgbcolor
  end
} def
/tcolorProc  { 5 dict begin /y exch def /x exch def
  y xmid 0.8 mul gt { white } { darkblue } ifelse
  setrgbcolor
  end
} def
/linecolorProc { 5 dict begin /y exch def /x exch def
  y xmid 0.8 mul gt { white } { black } ifelse
  setrgbcolor
  end
} def
xmid ymax 1.5 mul  xmid ymax -0.5 mul  8 RobinsonTriangles DrawTriangles
% xmax .74 mul ymax .79 mul xmax .08 mul 0 360 arc yellow fill

showpage

%%Page: 12 12
%%BeginPageSetup
%%EndPageSetup
/TcolorProc  { pop pop white setrgbcolor } def
/tcolorProc  { pop pop white setrgbcolor } def
/linecolorProc { pop pop darkgrey setrgbcolor } def
xmid ymax 1.5 mul  xmid ymax -0.5 mul  8 RobinsonTriangles DrawTriangles
showpage

%%Page: 13 13
%%BeginPageSetup
%%EndPageSetup
/Tcolor darkgrey rgbdef
/TcolorProc  {
	5 dict begin
	[ /yc /xc ] { exch def } forall
	dir 0 eq { /Tcolor [ darkgrey mediumgrey ] randomrgbget rgbdef } if
    Tcolor setrgbcolor
	end
} def
/tcolorProc  { pop pop white setrgbcolor } def
/linecolorProc { pop pop mediumgrey setrgbcolor } def
xmid ymax 1.5 mul  xmid ymax -0.5 mul  8 RobinsonTriangles DrawTriangles
showpage

%%Page: 14 14
%%BeginPageSetup
%%EndPageSetup
/TcolorProc  { pop pop
	dir 0 eq { darkgrey } { black } ifelse setrgbcolor
} def
/tcolorProc    { pop pop white      setrgbcolor } def
/linecolorProc { pop pop mediumgrey setrgbcolor } def
0 setlinewidth
xmid ymax 1.5 mul  xmid ymax -0.5 mul  8 RobinsonTriangles DrawTriangles
showpage

%%Page: 15 15
%%BeginPageSetup
%%EndPageSetup
/TcolorProc  { pop pop
	dir 0 eq { darkgrey } { black } ifelse setrgbcolor
} def
/tcolorProc    { pop pop white      setrgbcolor } def
/linecolorProc { pop pop mediumgrey setrgbcolor } def
0 setlinewidth
xmid ymax 1.5 mul  xmid ymax -0.5 mul  9 RobinsonTriangles DrawTriangles
showpage

%%Page: 16 16
%%BeginPageSetup
%%EndPageSetup
/TcolorProc    { pop pop white      setrgbcolor } def
/tcolorProc    { pop pop black      setrgbcolor } def
/linecolorProc { pop pop mediumgrey setrgbcolor } def
0 setlinewidth
xmid ymax 1.5 mul  xmid ymax -0.5 mul  9 RobinsonTriangles DrawTriangles
showpage

%%Page: 17 17
%%BeginPageSetup
%%EndPageSetup
0.002 setlinewidth
/start_time usertime def
/Tcolor    darkgrey   rgbdef   % triangle colors
/TcolorProc  {
	5 dict begin
	[ /yc /xc ] { exch def } forall
	/a xc xmid sub abs xmid div sqrt def  /b 1.0 a sub def
	black a mediumgrey b rgbmix setrgbcolor
	end
} def
/tcolorProc  {
	5 dict begin
	[ /yc /xc ] { exch def } forall
	/a xc xmid sub abs xmid div sqrt def  /b 1.0 a sub def
	darkgrey a red b rgbmix setrgbcolor
	end
} def
/linecolorProc {
	5 dict begin
	[ /yc /xc ] { exch def } forall
	/a xc xmid sub abs xmid div sqrt def  /b 1.0 a sub def
	darkgrey a mediumgrey b rgbmix setrgbcolor
	end
} def
xmid ymax 2.0 mul  xmid ymax -1.0 mul  10 RobinsonTriangles DrawTriangles
/end_time usertime def
showpage

%%Page: 18 18
%%BeginPageSetup
%%EndPageSetup
100 100 moveto /Helvetica 20 selectfont
end_time start_time sub 10 string cvs show
% with the new routines incl chop_nulls, 2920 3050 3070 3050 mS, av 3022 mS
% with the old routines without chop_nulls, 2870 2850 2780 2800, av 2825 mS
% so the old routines are slightly faster :-(  oh dear :-(
showpage

%%EOF

